573.34,1584.1
565.85,1622.9
581.51,1598.7
576.99,1591.8
569.72,1607.2
584.89,1593.7
574.34,1620.8
564.33,1630.9
579.81,1607.7
571.83,1608.7
562.01,1614.4
566.53,1618.7
561.25,1636.5
563.48,1631.2
571.03,1603.8
569.56,1605.7
551.56,1642.1
581.53,1578
550.25,1656.8
571.15,1598.7
556.05,1645.2
575.12,1597.4
577.75,1599.2
583.74,1557.5
564.11,1608.4
573.5,1614.6
578.51,1606.6
571.33,1595
561.74,1628.8
570.3,1619.4
560.78,1624.1
572.88,1599.2
552.2,1651.3
565.69,1597.7
575.72,1589.1
559.94,1627
575.88,1567
567.4,1631.6
580.85,1601.9
566.02,1630.5
581.29,1565
565.44,1627.8
575.14,1605.8
577.5,1608.2
586.6,1588.2
573.61,1574.1
576.55,1590.9
566.83,1625.5
572.25,1586.8
575.78,1601.4
565.95,1628.6
570.98,1596.6
587.73,1593.2
576.56,1614.3
596.9,1549.9
584.31,1582.2
575.55,1619.5
591.44,1575
573.19,1624.9
589.84,1564.5
575.15,1582.1
571.03,1603.8
566.18,1602.2
577.46,1594.1
570.85,1628.1
573.31,1608.3
571.65,1591.9
576.34,1572.7
564.82,1625.2
565.49,1621.6
582.86,1573.2
585.21,1597.6
558.48,1616.1
552.44,1635.1
561.67,1622.6
565.03,1625.7
577.94,1595.5
564.35,1627.5
586.25,1576.6
578.56,1597.5
582.81,1592
569.09,1625.7
559.48,1620.7
561.83,1623.5
579.96,1556.7
568.08,1610.8
570.29,1598.8
573.13,1618.6
572.27,1613.5
577.16,1607.1
587.52,1578.4
574.98,1609
574.8,1601.2
585.39,1588.3
560.02,1635.1
575.23,1605.1
587.13,1569.2
579.5,1595.5
572.63,1619.8
575.56,1606.2
563.6,1617.3
562.3,1621.7
565.96,1629.7
573.8,1606.4
586.33,1573.5
568.79,1608.8
566.02,1618
567.87,1604.3
563.14,1627.4
557.32,1644.2
569.07,1626.6
562.51,1618.3
586.88,1594.2
572.98,1599.2
569.44,1621.4
556.88,1652.7
561.74,1625.6
574.36,1612.1
562.32,1625
585.07,1589.2
594.19,1554
565.37,1629.4
565.94,1624.9
574,1593.6
577.07,1596.8
572.27,1607.3
576.55,1607.2
566.83,1613.8
572.04,1608.4
581.29,1573.6
583.12,1558.2
572.22,1612.4
572.51,1598.2
562.66,1623.3
580.68,1590.2
578.72,1595.8
582.81,1580.7
576.96,1569.6
583.14,1571.1
579.81,1604.2
583.79,1593.7
575.85,1579
574.75,1603.8
575.16,1593.8
575.37,1603.1
582.73,1587.2
562.51,1617.8
578.01,1596.5
575.98,1569.4
575.33,1593
568.04,1635.8
577.46,1575.3
572.26,1607.1
570.26,1624.4
586.33,1569.5
587.64,1571.1
588.49,1554.8
576.7,1589.2
575.56,1621.5
574.86,1593.5
591.66,1552.5
582.41,1571.7
572.58,1632.2
578.08,1574.3
586.17,1578.3
593.85,1576.1
565.81,1617.2
577.96,1598.2
569.63,1606.8
563.44,1623.9
557.84,1618.3
568.54,1601
565.67,1637.2
585.22,1589.1
583.75,1563
576.85,1590.4
570.61,1591.8
578.29,1610.4
579.22,1568.4
578.11,1572.3
562.89,1602.2
568.6,1616.6
584.44,1542.1
558.14,1642.1
565.83,1616.1
567.11,1612.8
572.17,1598.4
585.33,1592.1
546.92,1656.1
570.72,1624.1
564.52,1627.2
553.18,1641.1
571.41,1615.4
559.1,1632
563.05,1610.1
570.02,1607
569.66,1618.4
571.63,1604.5
558.35,1619.9
573.98,1595.9
582.25,1589.7
568.95,1615.7
568.32,1625.6
561.49,1638.1
573.84,1608.1
573.88,1604.8
571.4,1596.7
574.64,1603.7
572.69,1613
554.14,1652
583.13,1610.7
562.16,1626.4
581.17,1594.9
576.7,1612.8
573.02,1612.1
578.84,1563.9
576.22,1601.5
575.35,1558.9
558.65,1630.7
570.2,1607.5
553.06,1637.3
572.53,1608.4
576.15,1592
588.59,1559.4
571.13,1595.9
566.04,1630.4
568.61,1582.2
579.38,1609
578.1,1572.9
564.77,1629.5
575.64,1582.8
562.18,1634.7
577.28,1586
564.75,1600.6
557.77,1608.5
596.95,1540.2
574.89,1560.5
572.91,1602.9
580.11,1592.9
582.22,1595.3
578.22,1583.3
574.14,1596
583.71,1594.3
586.52,1593.5
584.3,1587.4
575.59,1606.7
576.05,1611.3
580.43,1600
564.67,1631.4
570.18,1613.8
584.61,1576
581.41,1591.6
585.64,1598.1
570.76,1599.3
564.66,1606.4
563.7,1605.3
577.71,1585.3
576.18,1582.4
572.77,1587.9
579.85,1609.7
572.39,1614.7
584.16,1573.7
576.99,1598.8
583.2,1582.4
555.47,1639.3
568.46,1586
567.34,1613.8
572.81,1615.1
572.16,1605.3
579.38,1614.2
577.62,1599.2
579,1575.3
561.24,1642
569.93,1581.7
583.83,1595
561.99,1621.5
581.05,1583.3
570.75,1617.1
582.75,1551.1
585.93,1573.8
579.59,1576.9
576.9,1619
587.89,1559.7
564.23,1623.3
579.11,1593.5
583.26,1582.7
585.43,1574.4
576.17,1593.8
544.83,1657.4
570.2,1615.7
584.9,1583.5
580.54,1575.7
571.64,1632.2
582.75,1587.8
567.37,1630.6
570.15,1606.4
575.18,1600.7
562.85,1634.9
567.94,1622.4
592.81,1557.2
566.34,1622.4
566.7,1612.3
569.32,1614.1
565.38,1586
580.03,1599.7
568.73,1605.9
579.36,1594.2
576.04,1583.9
568.57,1612.6
562.7,1610.5
567.83,1606.3
576.95,1599.1
583.03,1572.6
575,1613.3
565.3,1618.3
572.07,1628.3
574.76,1609.1
581.72,1570.6
593.55,1577.3
570.56,1614.8
561.84,1637.8
553.42,1624.1
572.43,1599.1
581.98,1572.6
578.15,1593.4
563.07,1635.5
564.71,1648.5
588.94,1571.4
573.04,1589.1
574.98,1609
568.87,1609.2
571.17,1605.3
572.81,1583
562.7,1629.3
577.33,1599.1
579.1,1591.7
565.92,1609.4
567.19,1619.5
579.96,1585.4
579.3,1603.6
567.61,1613.6
573.9,1602.2
566.53,1626.5
565.43,1615.1
573.7,1593.7
571.12,1622.4
575.62,1603.8
589.43,1566.8
563.99,1598.9
581.02,1587.6
571.2,1614.3
567.24,1621.6
562.56,1635.8
585.51,1582.3
575.01,1607.1
558.15,1631
589.64,1572
572.48,1621.2
565.01,1603.8
580.52,1570.5
569.22,1635.7
570.95,1600.4
563.12,1613.1
589.92,1590.2
568.13,1611.4
583.76,1558.4
548.95,1648.3
574.24,1611.2
580.84,1571.4
566.75,1635.8
580.54,1599.2
568.01,1606.1
560.95,1621.1
572.41,1612.1
579.31,1578.5
576.56,1598.2
571.01,1603.6
584.53,1585.6
560.79,1627.3
585.09,1593
567.32,1618
575.88,1591.2
585.88,1577.2
590.58,1575.2
564.32,1620.2
581.76,1568.8
578.38,1595.8
556.31,1600.1
583.05,1593.3
578.02,1574
591.34,1572.9
587.19,1580.1
568.67,1598.1
572.13,1609.9
585.76,1573.4
582.14,1586
576.55,1601.1
570.85,1591.2
567.34,1619.8
577.66,1584.9
577.48,1600.2
555.94,1645.8
578.92,1586
568.19,1618.4
576.48,1607.9
572.09,1608.7
586.05,1567.6
564.04,1629.4
565.27,1614.6
567.04,1608.1
560.4,1625.8
573.92,1608
578,1607.8
579.87,1587.6
565.54,1621
578.99,1600
568.8,1613.7
566.52,1621
577.28,1586
574.11,1617.1
564.85,1623
567.5,1605.9
593.53,1558.3
590.07,1588.8
579.84,1571.2
580.06,1586.5
571.63,1610.8
579.64,1586.1
580.72,1579.6
575.65,1599.4
573.39,1606.1
582.72,1589
572.72,1617.6
578.9,1607.7
579.65,1572
575.3,1602.5
567.72,1619.1
577.49,1590
577.93,1589.2
572.69,1617.3
580.62,1581.3
574.9,1572.7
563.76,1614.3
582.88,1608.4
583.81,1576.1
562.36,1626
576.38,1602.5
559.68,1628.7
554.71,1657.2
572.08,1592.5
579.81,1568.9
583.99,1595.1
554.16,1633.1
561.93,1631.2
567.17,1599.5
583.23,1596.7
548.22,1665.7
572.78,1591.9
576.39,1600.8
567.13,1631
575.09,1609.2
569.53,1602.9
579.4,1577.2
566.45,1628.4
576.9,1591.5
552.49,1657.1
546.55,1657.9
569.7,1602.6
568.46,1607.8
566.9,1617.7
584.37,1568.6
584.05,1588.4
567.64,1598
569.19,1594.6
565.72,1611
588.24,1570.8
570.2,1607.5
576.02,1585.8
575,1593.5
574.63,1601.5
569.76,1608.9
584.81,1588.1
602.07,1545.4
569.07,1626.6
581.1,1607
567.93,1624.8
584.76,1595.2
586.04,1598.1
558.16,1624.5
575.54,1604.9
567.61,1610.7
564.5,1615.5
589.93,1559.5
566.62,1632.3
562.53,1649.3
563.23,1599.6
572.59,1608.7
575.84,1589.3
564.71,1631.3
559.2,1642.4
574.07,1590.3
561.56,1654.5
574.23,1577.2
581.74,1599.3
573.63,1596.5
582.64,1578.4
566.18,1617.3
576.38,1589.4
579.13,1586.2
563.17,1613.2
577.57,1592.5
581.27,1623.1
582.47,1571.4
576.44,1611.2
571.96,1580.8
564.61,1612.3
575.72,1602.5
578.87,1597.2
567.08,1607.6
547.51,1669.4
577.89,1590.9
578.63,1607.4
562.73,1638.9
569.66,1609.8
575.26,1587
581.16,1591.5
584.46,1574.1
558.35,1637.8
587.35,1583.1
560.75,1639.2
576.08,1588.1
573.21,1603.4
564.1,1631.5
559.96,1621.5
569.78,1598.8
556.89,1645.3
569.12,1591.1
584.86,1572.6
577.18,1615
574,1606.1
570.76,1635.3
553.17,1653.4
574.7,1588.6
570.69,1601.7
559.73,1629.3
555.64,1627.1
576.94,1579.3
569.96,1625.6
573.04,1599.7
551.15,1607.8
581.39,1557.6
583.18,1585.5
584.74,1564.4
575.21,1603.8
566.38,1615.2
568.55,1621.5
582.1,1573.3
590.02,1574.1
578.74,1561.6
585.29,1589.5
575.92,1570.6
586.33,1577.1
566.81,1617.3
555.52,1618.3
571.56,1583.9
560.83,1599
571.15,1621.1
573.73,1595.7
581.85,1593.4
590.86,1560.4
588.29,1587.6
570.72,1610
568.56,1613
550.67,1677.6
580.29,1592.6
559.8,1653.2
566.97,1612.4
581.63,1585.1
591.02,1576.3
571.02,1623.5
570.76,1605.4
572.01,1617.7
565.03,1630.5
572.58,1604.6
578.14,1585.4
578.1,1601.7
578.81,1577.3
578.84,1575.5
568.93,1602.8
577.7,1593
573.99,1608.7
586.94,1576
562.58,1632.2
559.1,1632
579.3,1584.6
581.25,1578.7
587.42,1554.7
578,1608.5
574.77,1603.1
567.8,1611
581.98,1589.5
559.99,1633.7
559.57,1623.2
577.74,1590.9
572.22,1616.8
573.6,1612
571.82,1589.2
571.94,1633.6
569.62,1602.4
568.15,1618.9
578.68,1600.7
573.23,1586.8
564.98,1640.8
571.13,1611.1
567.68,1618.1
573.9,1595.3
577.54,1611
546.57,1668.3
570.5,1618.7
572.08,1589.4
568.86,1586.5
586.02,1569.9
574.25,1597.1
582.47,1576.6
576.32,1569.5
571.79,1600.5
575.41,1561.8
568.13,1604
588.29,1587.3
569.69,1600.1
565.37,1614
540.44,1662.2
565.68,1621.5
575.88,1578.8
575.74,1562.1
579.8,1589.4
561.83,1635.7
584.48,1575.9
567.91,1607.4
560.33,1638.3
568.74,1588.1
585.06,1586.1
562.86,1644.7
586.02,1568.5
553.8,1626.4
574.2,1603.8
565.9,1607.4
575.89,1611.5
570.01,1609.6
558.52,1641.8
574.67,1590.6
579.43,1593
556.75,1634.4
572.41,1595.3
570.33,1607.3
566.27,1634
567.73,1607.4
571.22,1613.1
568.68,1615.1
582.34,1581.8
584.58,1588.3
590.17,1546.8
573.87,1611.1
568.62,1613.3
577.02,1605.9
579.79,1581.9
577.72,1579.3
564.43,1616.8
573.08,1595
577.22,1561.9
587.79,1596.2
581.78,1602.9
562.87,1628.5
580.79,1582.5
581.74,1593.9
579.43,1573.6
575.03,1596.4
561.46,1630.8
572.28,1617.1
559.46,1614.6
569.5,1594.4
575.66,1588.3
563.12,1632.4
578.04,1599.2
583.16,1556.9
575.15,1581.1
581.57,1585.7
579.91,1588.1
581.88,1569.8
564.66,1580.9
571.17,1605.9
575.66,1614.1
583.01,1567.6
561.95,1597.8
578.92,1581.6
565.71,1627.7
560.96,1633.8
560.25,1637.3
562.72,1632.1
572.95,1605.7
572.72,1585.6
577.53,1580.8
575.73,1600.2
575.26,1590.1
576.63,1605.8
566.04,1596.7
568.72,1618.3
574.67,1584.1
586.03,1588.7
564.01,1634.1
581.55,1590.9
577.22,1582
563.8,1616.7
578.5,1611.9
594.84,1553.7
566.13,1612.8
566.51,1606.5
570.85,1605
558.96,1646.2
572.74,1598
574.53,1581.9
576.99,1591.8
587.76,1561.9
572.92,1614.4
556.7,1656.2
558.25,1631.3
579.08,1590.1
577.04,1573
589.98,1524.7
578.92,1591.2
570.47,1612.7
570.13,1596.7
581.12,1593.9
579.52,1559.6
556.24,1629.3
563.59,1634.3
561.18,1623
569.09,1615.1
573.69,1606.4
579.73,1581.9
554.2,1631.2
569.09,1615
572.78,1606.1
583.8,1559.3
572,1590.4
573.37,1619.3
578.52,1574.8
576.43,1588.4
576.5,1584.4
574.64,1623.7
568.2,1601.5
573.7,1602.5
570.47,1612.7
565.52,1631.3
566.32,1611.7
575.41,1607
571.03,1603.8
568.79,1612.2
574.25,1597.1
577.74,1586.4
581.9,1567.1
574.53,1605.1
560.73,1632
568.48,1617.8
570.3,1611.3
576.03,1585.2
582.09,1571.9
564.68,1609.9
573.42,1590.2
557.09,1633.3
565.49,1637.8
570.52,1622.4
565.87,1589.7
576.81,1598.5
575.56,1577.1
578.61,1613.8
583,1582
572.73,1612.2
580.93,1594.3
577.79,1581.2
576.83,1611.6
560.73,1624.8
578,1582.4
571.22,1609.7
572.53,1593.5
570.64,1606.1
557.04,1646.1
587.84,1581.8
565.4,1594.8
562.77,1621.7
570.25,1585.3
557.5,1632.7
577.19,1579.3
576.78,1610.6
589.27,1576.5
589.98,1542.4
574.29,1607.8
567.16,1591.7
575.22,1587.2
574.43,1596.8
581.44,1584.9
575.9,1601.4
574.88,1602.4
573.18,1603
559.66,1607.7
568.32,1603.1
567.94,1601.2
565.08,1616.8
563.3,1625.9
583.25,1599
573.79,1600.8
571.49,1602.4
578.51,1600.5
564.7,1603.6
573.22,1604.7
574.52,1611.2
582.68,1575.1
570.51,1617.1
587.83,1548.3
583.21,1586.9
567.11,1605.2
577.9,1614.4
574.25,1576.1
569,1627.1
574.83,1599.6
571.61,1622.2
577.7,1593
575.05,1596.7
583.82,1575.7
576.82,1585.1
568.56,1601.8
562.42,1621.9
578.65,1610.5
590.53,1571.6
571.45,1612.6
586.63,1576.8
572.41,1593.4
574.6,1580.2
575.07,1596.9
573.25,1615.6
548.96,1673.1
570.82,1621.9
556.62,1628.3
585.21,1596.7
582.64,1591.3
577.8,1599.2
566.31,1612.2
573.47,1613.4
560.67,1600.3
579.49,1588.7
571.61,1618.7
569.89,1618.3
584.41,1610.9
580.26,1586.9
580.33,1588.6
567.87,1588.8
570.28,1615
573.81,1592
578.1,1572.9
574.42,1579
560.16,1626.9
572.63,1607.4
571.87,1591.3
584.53,1579.6
565.43,1619.7
572.05,1591
573.68,1587
576.13,1592.9
553.34,1633.2
581.14,1602
559.83,1634.3
585.08,1614.2
574.93,1591.8
567.01,1604.6
581.58,1589.2
571.73,1599.4
584.2,1554.6
566.26,1617.6
576.37,1589.3
568.66,1610.1
593.96,1587.6
569.82,1606.5
573.38,1633.4
576.17,1578
579.83,1592.1
592.03,1580.3
572.17,1598.3
572.49,1635.3
563.09,1639.1
569.41,1612.3
570.64,1585.9
581.46,1594.7
578.23,1599.2
572.26,1604
559.26,1622.7
563.71,1634.5
571.15,1600.6
569.32,1598.3
570.19,1613.1
575.86,1578
564.26,1606.2
559.33,1614.5
581.62,1590.4
571.06,1604.7
582.56,1580.1
570.48,1594.1
560.75,1637.9
582.32,1578.4
577.7,1598.1
573.2,1606.4
583.05,1592.6
576.91,1577.5
575.34,1595.3
571.85,1597.7
566.51,1610.3
575.01,1606.4
579.99,1593.9
576.9,1586.1
560.52,1629.7
570.23,1611.4
569.17,1619.7
558.06,1649.2
563.26,1625.1
579.35,1573.3
589.11,1557.9
583.12,1571.7
584.55,1566.3
573.61,1598.8
561.22,1636.2
571.54,1585.3
577.08,1590.4
563.8,1635.5
568.29,1606.5
591.47,1586.2
574.07,1622.9
574.53,1609.6
572.35,1608.1
562.04,1619.7
565.88,1623.1
575.99,1606.6
570.69,1596.8
575.93,1583.5
570.29,1620.7
558.5,1612.5
574.4,1593
580.53,1580.3
568.27,1590.5
583.96,1561.1
592.35,1589.1
562.11,1609.1
588.13,1575.2
570.4,1603.7
577.05,1594.1
576.81,1602.2
588.51,1579.5
584.37,1564.8
579.12,1597.2
590.12,1561.1
576.09,1605.8
561.37,1638
581.51,1570.3
576.76,1588.5
576.6,1603.9
568.93,1590.3
562.16,1639.1
571.06,1617.2
582.86,1583.3
567.68,1624.6
580.44,1587.2
566.95,1629
563.86,1619.4
566.62,1600.7
566.48,1616.6
569.26,1602.1
572.91,1602.9
565.2,1637.4
588.79,1567.7
573.73,1614.8
567.37,1630.6
581.91,1579.4
564.52,1592.5
562.11,1622
576.72,1610.7
565.98,1631.3
568.44,1603.2
545.34,1660.2
569.51,1615.4
570.72,1597.3
573.66,1605.1
578.83,1566.4
556.68,1654.8
560.4,1625.8
580.18,1572.2
562,1639
578.32,1598.2
579.5,1584.1
597.84,1535.9
562.63,1630.5
558.8,1639.9
594.86,1553.1
571.91,1625.7
585.76,1580.3
587.23,1581.8
575.72,1603.1
582.22,1594.6
580.34,1578.5
563.33,1618.1
572.24,1586.7
562.16,1616.5
563.43,1628.3
556.78,1625.1
576.76,1593.7
566.3,1629.4
565.62,1608.9
581.76,1585.4
578.61,1601.8
572.7,1586.2
578.99,1609.8
563.74,1613.8
576.64,1604.8
561.64,1647.3
574.9,1611.4
569.04,1588.9
572.02,1602.9
573.67,1598
568.45,1597.8
569.35,1618.5
569.43,1570
573.44,1590.6
573.27,1607.3
571.19,1592.4
568.67,1590.3
581.69,1572.5
565.72,1606.1
560.76,1639.7
571.31,1602.2
567.29,1632.5
583.8,1585.1
572.09,1601.5
555.99,1638.6
577.99,1598.5
574.24,1608.5
575,1595
569.33,1602.2
579.16,1593.3
582.19,1598.1
581.7,1585.6
590.4,1587.3
570.82,1619.1
572.93,1606.7
580.55,1559.6
566.07,1618.3
551.87,1638.2
577.89,1601
563.43,1628.3
586.52,1597
579.56,1581.7
576.3,1579
575.25,1590.3
571.34,1617.3
577.37,1592
575.96,1603.1
561.6,1620.1
586.8,1553
579.06,1606.1
585.17,1580
564.38,1609.6
561.67,1622.6
578.08,1599.6
567.08,1576.2
575.05,1599.1
586.14,1575.6
585.83,1579.1
583.08,1571.3
569.57,1616.5
585.77,1573.5
563.73,1624.8
558.86,1630.3
564.25,1617.1
570.7,1595.9
574.1,1610.9
577.96,1595.7
569.82,1624.5
571.05,1593.8
575.36,1588.8
568.92,1618.2
579.56,1584.5
592.15,1552.8
569.37,1631.9
570.85,1602.3
574.92,1587.1
565.54,1615.5
566.26,1609.6
567.43,1608.8
576.08,1611.9
570.88,1610.4
574.88,1597.2
576.6,1603.9
546.69,1655.4
573.69,1611.6
563.14,1629.7
576.95,1580.9
559.17,1626.9
575.57,1586
577.59,1598.8
563.69,1636.4
587.91,1545.7
573.47,1613.7
570.63,1600.7
578.14,1585.4
586.77,1569.7
573.17,1624
580.13,1595.6
561.17,1625.2
569.61,1610.2
558.32,1620.4
550.5,1654.9
568.44,1598.8
578.34,1588.6
562.6,1629.5
575.2,1592.5
574.2,1605.8
582.39,1597.5
581.84,1596
567.4,1622.7
572.09,1609.1
574.58,1614.9
573.35,1600.8
580.93,1594.3
582.42,1597.7
573.6,1604
575.98,1603.8
579.6,1587.9
566.82,1594.3
583.65,1578.8
582.54,1593.1
573.75,1600.9
573.53,1614.7
558.77,1597.5
588.78,1555.1
582.7,1593.3
575.77,1597.9
577.84,1595
581.12,1580.9
557.25,1628.4
593.35,1552.7
571.48,1569.2
574.11,1617.1
579.27,1596.5
572.85,1590
573.02,1601
533.74,1677.5
573.79,1603.7
576.17,1593.8
580.3,1565.6
582.41,1571.7
564.85,1631.6
580.23,1586.2
566.07,1609.9
567.8,1618.4
580.29,1592.5
562.07,1636.9
576.64,1596.5
580.58,1583.7
571.88,1585.5
569.31,1609.6
580.54,1605.1
579.68,1580.3
575.95,1609
571.36,1606.5
570.92,1589.9
568.96,1622.8
570.47,1621.9
567.53,1630.3
558.83,1637.7
581.03,1594.6
575.47,1597.9
569.58,1596.7
570.93,1607.1
568.47,1609.3
586.24,1572.5
571.35,1617.4
584.88,1573
570.85,1587.6
570.17,1618.1
583.09,1579.1
574.91,1592.9
584.67,1578.2
595.01,1575.5
583.08,1583.2
574.94,1620.5
588.63,1568.8
575.09,1590.4
576.55,1597.8
576.72,1584.5
566.19,1596.9
549.4,1647.6
581.51,1595.9
555.19,1629.4
579.51,1597.2
562.66,1627.2
556.43,1628.1
577.41,1587.8
578.14,1595.9
564.51,1610.2
565.3,1627.6
577.35,1585.1
574.05,1611.5
567.84,1629.6
587.59,1590.4
571.06,1594.8
579.92,1590.8
570.11,1623.4
557.65,1655.1
578.84,1595.4
558.19,1611.2
567.29,1601
568.9,1615.4
568.66,1616.6
570.88,1597.5
579.7,1603.9
577.67,1604.2
565.97,1624.9
569.96,1621.1
560.44,1610.8
580.91,1590.8
582.01,1572.3
571.38,1600.6
564.64,1618.2
574.37,1621.2
559.83,1644.2
570.22,1612
575.92,1558.4
569.3,1605.8
571.43,1614.7
574.69,1602.7
588.61,1540.2
575,1590
582.11,1568.6
569.89,1606.9
567.21,1631.2
571.74,1595
566.34,1623.5
576.24,1578.3
570.47,1604.2
573.61,1606.1
569.99,1611.3
573.58,1585.1
572.96,1590.7
561.22,1626.3
589.02,1562.3
578.72,1593.3
569.29,1605
582.44,1598.5
572.58,1602.9
588.28,1577.2
565.63,1634.4
590.34,1576
581.56,1568.3
570.42,1589.6
587.6,1573.8
582.23,1590.3
582.14,1587.4
580.61,1578.6
582.47,1567.8
577.19,1591.5
573.53,1600.1
571.46,1610.4
586.58,1569.6
569.03,1635.1
564.53,1620.3
563.17,1634.5
588.1,1575
580.58,1597.6
564.23,1620.6
566.41,1611.1
583.07,1576.8
577.43,1600.6
564.02,1622
564.54,1578.9
577.12,1553.3
569.66,1609
580.3,1576.2
576.32,1590.7
579.47,1589.9
571.11,1605.7
587.24,1572
561.05,1643.5
569.13,1637.3
580.29,1578.6
585.86,1598.5
575.86,1611.3
569.22,1625.2
575.43,1601.4
548.92,1639.6
558.4,1628.1
561.14,1649.5
570.27,1622.3
587.19,1580.1
561.53,1609.9
573.83,1594.1
579.66,1612.4
579.81,1565.3
576.56,1578.3
571.44,1597.1
566.55,1596.6
579.57,1590.9
562.16,1639.1
556.1,1651.4
570.4,1606.4
576.75,1581.5
569.55,1605.2
585.84,1574.2
571.09,1597.8
552.43,1630.4
563.06,1633.8
563.87,1617.8
577.18,1591.5
569.21,1595.3
584.37,1556.6
541.15,1656.2
577.7,1596.4
561.38,1601.8
586.36,1576.9
546.73,1662.3
578.51,1615.3
567.52,1594.9
555.85,1615
585.23,1561.6
581.69,1570.1
574.38,1580.2
573.64,1596.1
567.66,1620.7
575.12,1597.4
559.58,1608.4
575,1594.1
568.16,1597.9
565.66,1619.7
577.72,1600.2
570.73,1602.6
559.19,1624.5
589.48,1570.5
560.13,1626.3
569.11,1608.7
575.66,1608.7
581.44,1592.3
585.35,1583.6
563.6,1591.2
572.26,1597
569.8,1603.6
587.68,1574.8
578.23,1599.2
581.74,1569.3
584.42,1580.9
571.86,1620.3
556.47,1632.5
583.89,1590.9
575.91,1594.4
560.39,1611.1
566.46,1633.6
579.47,1582.3
564.28,1621.7
572.87,1591.4
576.72,1592.9
594.84,1566.4
584.04,1582.7
566.05,1618
552.67,1629.2
560.76,1650.8
572.87,1598.4
592.85,1572.1
566.76,1616.3
580.54,1576.3
569.38,1611.4
573.11,1594.6
583.79,1576.6
568.85,1576.9
560.17,1642.5
569.89,1618.3
583.72,1591.4
587.2,1578.3
573.85,1591.5
577.45,1597.4
558.98,1634.6
576.88,1582.2
575.71,1595.2
578.59,1605.4
572.84,1606.4
569.2,1598.2
576.47,1596.8
590.02,1579.4
578.96,1592.6
557.03,1619.2
578.83,1578
582.88,1579
573.01,1617.5
587.33,1557
566.01,1620.4
570.8,1617.5
562.9,1627.9
566.85,1587.4
586.28,1586.6
559.66,1625.5
558.91,1629
558.54,1639.7
574.9,1594.9
565.51,1627.3
569.62,1614.7
591.51,1587.7
573.93,1607.7
591.11,1590.9
589.44,1564.1
571.63,1611.7
574.06,1597.4
575.8,1622.8
571.29,1608
567.72,1593.9
588.25,1555.9
575.68,1594.5
568.34,1588.6
584.2,1591.6
564.76,1619.7
556.07,1635
572.99,1609.5
570.19,1614.3
574.42,1598.6
584.57,1612.9
574.73,1594
583.12,1593.6
573.78,1587.7
573.93,1602.6
584.31,1591.7
577.83,1571
568.32,1613.6
581.37,1584.4
573.79,1620.5
563.76,1598.9
573.98,1603.4
582.64,1584.4
579.33,1578.2
567.21,1613.7
582.47,1556.4
557.35,1646.3
557.27,1635.6
582.99,1556.7
574.64,1599.9
567.22,1601.4
562.39,1644.4
570.38,1620.7
571.92,1590.8
566.92,1613.1
569.3,1618.3
576.92,1599.4
592.42,1573.4
566.34,1615.3
567.61,1608.5
582.15,1576.3
586.48,1537.5
574.54,1593.1
583.66,1587.3
561.24,1640.1
573.84,1601.3
574.54,1600.5
564.88,1631
563.62,1592.2
574.48,1579.2
581.41,1595.6
590.57,1582.4
569.39,1623.2
556.06,1636.8
590.22,1596
574.9,1628.9
578.39,1597.5
557.8,1628.1
560.45,1631.4
580.43,1589.6
579.02,1597.5
569.03,1621.1
581.14,1606.1
571.51,1596.2
566.12,1606.4
560.45,1610.2
560.27,1633.4
559.87,1615.6
569.08,1598.8
565.56,1643.8
572.43,1609
561.45,1631.9
562.56,1630.3
575.79,1596.7
566.62,1628
573.13,1617.7
575.21,1598.4
571.03,1614.6
571.32,1610.7
587.57,1577.8
574.02,1599.2
563.32,1608.5
576.65,1579.4
592.58,1561.2
566.54,1621.1
578.34,1591.3
584.26,1574.7
593.25,1577.2
564.85,1626
581.04,1579.9
557.03,1639.5
582.81,1598
563.1,1620.2
577.66,1581.2
571.8,1606
573.33,1607.7
557.22,1612.5
582.06,1569.6
578.55,1601.6
568.15,1586
571.78,1617.5
569.38,1623.9
592.35,1544.7
575.71,1586.5
576.65,1595.7
581.6,1580.5
572.02,1618.9
577.78,1583.6
558.1,1639.5
568.07,1609.5
576.56,1589
597.77,1559.6
571.14,1607.7
563.02,1619.8
580.62,1566.4
572.17,1620.5
545.54,1642.7
577.61,1608.4
572.55,1589.3
578.64,1587.3
572.99,1624.4
565.14,1628.1
583.53,1564.5
568.19,1616.3
553.11,1644.8
561.17,1634.6
583.37,1592.5
573.21,1629
579.69,1600.4
574.88,1605.2
569.6,1586
575.8,1612.2
577.69,1617.8
583.32,1579.4
566.99,1597.1
568.57,1624.2
592.86,1560.5
569.93,1615.7
568.47,1579.3
579.98,1566.2
569.73,1590.9
579.14,1570.9
566.77,1603.3
569.66,1622
581.53,1586.8
573.47,1569.6
576.84,1586.4
567.73,1613.1
577.81,1555.2
568.89,1612
564.01,1636.7
580.06,1577.4
567.87,1583.6
577.28,1606.2
564.62,1605
572.82,1607.1
563.72,1626.6
570.7,1600.2
573.35,1581.9
565.04,1637.6
554.39,1647.9
565.46,1614.5
571.82,1587.3
566.95,1626.2
562.06,1623.5
571.03,1616.1
582.12,1582.9
581.37,1604.7
582.86,1550.9
571.45,1613.8
576.63,1569.7
585.56,1593.7
573.64,1582.8
569.64,1597.8
577.06,1595.5
563.93,1624.2
568.57,1625.7
587.06,1583.5
573.52,1604.3
571.19,1594.6
583.21,1587
563.7,1615.6
571.58,1620.6
592.91,1563.9
570.93,1607.9
573.11,1605.3
583.36,1596.5
572.32,1599.9
576.73,1614.8
565.59,1615.9
566.25,1600.2
572.92,1609.1
575.45,1568.7
569.19,1614.4
582.25,1585
587.55,1555.7
570.47,1604.7
586.25,1595.8
586.73,1584.1
567.81,1604
578.44,1589.4
572.78,1604.3
579.24,1596.9
564.02,1601.7
577.82,1593.2
574.01,1598.2
581.31,1595.5
579.96,1585.4
560.69,1628.8
564.85,1634.6
582.15,1593.6
573.55,1598.6
559.95,1626.6
573.57,1590.7
580.68,1615.3
577.8,1598.1
565.4,1611.6
582.7,1593.3
570.25,1610.7
577.36,1587.2
586.84,1602.4
576.93,1573.1
582.23,1590.3
569.96,1598.5
570.58,1611.4
568.14,1610.5
564.78,1623.2
557.9,1623.8
594.95,1555.3
584.48,1591.9
583.69,1570.3
582.72,1589
564.85,1626
570.28,1628.3
562.29,1620.5
593.66,1577.7
567.01,1634
566.57,1613.2
571.46,1623.6
572.04,1589.5
577.89,1597.8
568.4,1607.5
571.79,1622.8
585.16,1579.7
559.91,1624.6
590.95,1556
567.48,1628.3
571.21,1592.7
585.32,1585.1
577.71,1589.4
570,1621.5
569.92,1604
570.6,1604.2
593.67,1562.7
575.3,1620.3
559.9,1590
590.1,1577.3
562.96,1627
569.86,1609.3
580.66,1592.3
582.2,1577.1
578.57,1572.8
585.55,1589.3
576.05,1608.1
570.78,1598.4
566.97,1610.7
567.61,1609
560.37,1626.6
594.09,1587.2
572.99,1592
582.96,1575.8
573.39,1608.8
572.29,1615.2
552.32,1664.7
574,1584.1
570.66,1627.1
570.9,1592.6
578.19,1589.2
581.4,1592.2
572.01,1583.1
571.67,1558.9
572.56,1596.5
569.35,1618.5
573.49,1602.9
588.41,1563.9
579.7,1608.2
586.98,1560.6
562.94,1631.9
575.7,1603.9
575.82,1588
578.43,1596.8
592.55,1561.7
580.9,1595.9
579.63,1602.7
591.73,1557.5
578.13,1595
572.33,1594.2
564.4,1589.1
568.35,1626.3
582.32,1593.2
582.85,1572.9
588.8,1574.8
572.61,1606.1
586.89,1581.2
571.54,1613.3
586.71,1582.1
562.68,1623
568.8,1587.9
560.69,1628.7
570.23,1578.4
576.47,1596.8
564.01,1625.4
560.05,1625.3
587.88,1574.5
581.02,1608.4
563.29,1610.3
574.67,1599.1
563.91,1624
562.66,1628.9
579.38,1586.6
563.59,1631.5
576.9,1603.6
582.35,1598.3
567.12,1611
569.8,1593.8
567.78,1593.6
576.92,1588.4
566.05,1621.4
568.28,1573.8
575.95,1598.5
571.12,1617.9
584.42,1573.9
565.11,1626.9
580.2,1599.4
580.83,1590.5
581.81,1564.1
585.07,1590.4
565.52,1625.6
585.14,1589.7
568.53,1608
562.27,1632.6
569.69,1600.1
570.83,1608.7
566.96,1639.7
574.84,1554.4
568.94,1596.9
550.18,1658.3
583.57,1572.5
567.22,1631.5
547.7,1660.4
567.24,1611.1
578.9,1599.1
575.61,1585.1
573.25,1609.4
570.59,1601.5
592.67,1560.8
572.77,1600.8
581,1588.1
578.15,1580.2
567.17,1626.8
574.41,1593.2
581.31,1593.6
555.33,1642.1
582.09,1566.5
565.02,1607.6
579.05,1591.8
570.13,1611
561.42,1595.5
567.84,1599.6
585.64,1581.7
577.37,1624.5
558.04,1620.6
562.73,1620.9
563.83,1614.5
575,1585.9
581.47,1606.2
569.5,1570
579.64,1587.4
601.2,1542.8
578.75,1598.5
564.93,1608.3
561.98,1637
582.76,1594.3
574.63,1601.7
579.11,1597.9
575.46,1596.1
577.8,1578.3
582.23,1590.3
578.56,1611.9
565.74,1610.5
576.9,1618.7
576.28,1594.1
565.3,1611.1
589.96,1584.1
569.86,1595.5
582.13,1578.6
588.49,1572.8
551.08,1630.4
586.26,1566.3
572.78,1604.3
571.3,1619.5
579.23,1592.1
572.36,1603.1
579.13,1592.6
573.71,1602.1
571.75,1596.1
568.38,1610.6
568.8,1608
557.25,1634
573.6,1604
556.22,1633.6
558.14,1640.2
571.04,1580.8
582.62,1596.8
560.65,1609.9
577.72,1563.8
566.98,1619.8
576.22,1593
576.74,1598.1
566.59,1610.8
574.67,1620.5
579.23,1590.3
572.64,1615.5
596.02,1552.6
566.6,1611.3
571.13,1595.9
569.32,1614.1
572.58,1588.6
576.07,1586.6
570.24,1601.6
565.12,1601.8
551.94,1648.1
576.96,1595.4
587.87,1584.5
592.23,1568.1
574.19,1620.7
586.02,1583.8
576.73,1591.1
582.46,1580.8
578.36,1601.4
574.68,1599.3
575.51,1603.5
575.74,1585.1
573.85,1613.9
573.89,1593.4
558.52,1653.3
572.6,1601.1
568.05,1611.7
574.63,1603.8
584.3,1548.4
574.87,1625.1
561.48,1618.2
568.26,1624.4
593.09,1559.4
570.07,1620
564.15,1610.8
577.9,1576.6
587.13,1581.2
581.4,1569.6
576.82,1581.6
568.65,1614
565.32,1628.7
585.03,1576.5
586.53,1588.3
569.12,1554.9
594.57,1552.4
567.69,1642.9
582.31,1597.3
556.49,1638.1
582.3,1573.1
567.62,1609
580.37,1598
568.79,1606.9
575.4,1599.6
562.72,1604.2
563.25,1612.3
573.53,1602.4
577.74,1587.7
575.66,1605.5
578.37,1588.9
561.67,1625.6
573.02,1586.7
561.81,1628.1
557.57,1637.5
574.55,1614.9
578.42,1571
574.23,1572.3
562.17,1618.1
565.64,1650.8
575.43,1601.4
573.26,1581.9
571.35,1607.7
571.77,1605.9
574.23,1594.3
580.1,1594.5
578.93,1591.5
577.6,1607.6
585.5,1581.4
583.48,1549.2
574.44,1585.3
572.21,1616.3
576.39,1562.5
580.66,1599.6
584.67,1574.7
578.71,1627.1
567.52,1592.1
578.42,1585.3
567.74,1625.5
565.04,1612.2
568.62,1613.3
576.23,1547.8
582.86,1583.3
588.32,1535.6
562.45,1627.9
566.66,1610.6
572.72,1603.2
570.83,1621.8
579.72,1586.6
572.57,1598.3
578.75,1601.2
562.46,1612.5
580.92,1605.5
580.84,1566.4
576.31,1568.9
568.43,1589.7
565.87,1595.3
565.08,1618.6
581.56,1596.9
583.5,1570.5
580.29,1595.9
569.5,1615.6
573.45,1592.5
575.74,1591
573.74,1584.9
582.13,1582.1
579.89,1582.6
565.7,1608.2
557.08,1657.3
579.96,1589
563.07,1638.1
582.66,1587.9
558.16,1633.8
578.32,1579.5
578.18,1577.3
568.66,1626.4
568.48,1634.6
567.14,1641.3
565.23,1624.5
567.22,1631.5
575.79,1603.4
579.57,1601.8
586.01,1562.9
586.37,1568.2
569.63,1611.3
576.54,1589.1
572.11,1607.7
565.15,1610.8
569.58,1599.5
573.19,1601.1
575.6,1606.4
564.71,1638.5
572.49,1589.5
569.96,1600.5
568.6,1591.9
561.73,1633.3
573.13,1595.6
576.46,1590.9
569.82,1624.5
568.65,1606.7
574.64,1608.8
568.8,1624
568.91,1585.2
569.63,1604.9
571.67,1620.7
588.71,1569.9
574.3,1587.6
560.74,1634.4
587.5,1590.3
569.31,1623.7
563.03,1618
578.98,1594.8
580.43,1603.4
579.22,1567.2
573.33,1585.5
562.28,1629.4
560.15,1617.5
575.43,1611.8
577.84,1582.8
571.66,1604.8
570.11,1610
558.19,1633.3
567.83,1617.8
570.67,1618.6
604.96,1538.6
563.95,1621.6
586.33,1573.5
548.53,1653.5
561.23,1624.5
576.34,1595.1
580.16,1595.9
569.81,1610.4
584.94,1570.6
562.48,1620
590.13,1583.5
570.9,1593.9
582.25,1581.6
586.52,1568.7
577.05,1594.1
559.71,1633.9
573.9,1592
571.97,1600.5
559.87,1616.7
575.56,1588.5
574.77,1598
580.31,1582.9
578.91,1604.7
573.86,1604.1
565.11,1630.1
580.61,1583.8
566.08,1600.6
573.42,1598.6
570.07,1620
585.76,1577.5
575.26,1604.4
577.6,1619.1
562.74,1613.8
563.78,1609.4
571.07,1593.6
570.75,1620.7
577.54,1586.3
571.88,1605.2
559.31,1618.4
566.19,1604.2
569.75,1600.7
578.22,1594.4
577.83,1623.4
568.8,1624
557.2,1588.8
565,1640
575.25,1590.3
564.86,1630
552.46,1647.5
565.52,1615.4
580.6,1572.5
568.39,1601.2
571.29,1600.9
573.02,1617.9
572.49,1605.5
576.93,1608.8
579.97,1575.8
573.01,1606.7
568.48,1615
583.47,1590.3
560.13,1626.3
574.57,1597.1
575.02,1603.8
568.91,1638.3
560.22,1621.5
566.68,1598.8
571.63,1583.6
569.93,1620.1
574.71,1585.3
576.81,1577
558.91,1634.2
576.55,1594
573.06,1616.6
586.76,1587.9
581.96,1574.2
572.92,1609.3
573.02,1606.1
565.88,1620.6
570.88,1617.9
569.4,1620.5
579.14,1581.3
574.11,1618.7
582.61,1565.5
560.15,1612
563.44,1614.9
593.47,1558.4
587.25,1553.3
567.91,1618.3
575.97,1613.5
556.33,1657.1
567.91,1621.8
560.86,1613.2
563.81,1634
582.52,1596.4
580.24,1591.4
575.14,1605.8
579.06,1563.7
582.87,1583
592.42,1564.2
577.64,1613.8
583.2,1582.4
583.64,1585.5
587.15,1560.7
576.3,1593.5
571.42,1606.6
565.51,1627.3
585.78,1572
560.95,1637.7
553.62,1652.8
573.53,1589.2
567.28,1611.9
579.04,1621.8
554.11,1635.3
581.74,1572.1
579.61,1590.1
583.01,1564.2
572.78,1608.8
572.61,1581.1
574.32,1592
582.79,1586.8
576.3,1602.4
571.82,1630
569.75,1607.7
572.35,1596.1
578.35,1590.8
564.77,1638.5
572.96,1580.7
567.05,1609.9
570.49,1602
569.83,1617.7
568.08,1617.9
580.79,1587
561.42,1635.9
573.8,1596.2
573.6,1619.9
568.21,1616
566.51,1589.3
588,1560.6
577.55,1606.6
562.72,1599.6
591.47,1555.8
582.56,1566
567.54,1586.5
582.97,1573.9
571.6,1628.4
574.16,1570.1
571.69,1621.7
565.32,1602.2
579.73,1593.6
586.59,1567.5
570.48,1618.1
561.42,1621.6
587.98,1569.6
567.02,1622.4
572.04,1608.4
573.52,1606.4
587.03,1593.4
563.88,1613.4
583.7,1571.5
591.07,1560.8
580.79,1596.5
563.5,1624.1
578.98,1605
580.68,1563.2
569.73,1620.4
566.47,1612.7
558.65,1644.5
568.11,1561
571.52,1620.2
569,1621.6
580.82,1589.3
581,1580.3
575.62,1603.8
575.83,1590.1
564.28,1641.6
574.91,1593
571.01,1588.1
559.92,1626.1
581.39,1597.9
581.62,1579
578.67,1597.5
569.17,1620.1
571.43,1589.7
581.9,1590.3
582.44,1581.1
576.48,1612.2
585.33,1562.3
582.2,1590.9
565.59,1598.2
572.25,1616
571.36,1613.9
572.21,1578.9
569.93,1620.1
566.95,1626.8
565.48,1607.9
572.11,1604.7
572.91,1594.1
573.33,1625.6
585.38,1582.1
556.51,1617.8
564.69,1617.5
564.52,1614.2
572.6,1622.8
579.07,1579.7
587.03,1581.4
568.35,1623.5
556.4,1622.8
570.23,1608.6
578.59,1593.8
574.88,1606.9
563.15,1634
572.44,1616.5
576.82,1598.8
562.55,1631.1
578.17,1605
571.54,1623.8
573.32,1599.9
560.61,1612.5
583.49,1600
569.77,1638.4
577.88,1595.3
585.62,1574.2
579.23,1606
568.36,1607.8
571.31,1590.1
583.85,1581.2
580.61,1589.2
574.17,1617.4
567.99,1618.1
570.69,1607.1
567.51,1615.7
582.52,1585.9
571.59,1620.1
549.85,1626.4
577.58,1602.2
583.69,1567.9
568.07,1609.5
566.9,1607.3
564.85,1633.6
584.46,1585.4
575.38,1606.5
579.88,1583.5
590.1,1586.4
580.48,1590.3
569.08,1612.3
576.27,1613
569.22,1602
572.62,1598.8
560.18,1616.2
578.75,1572.5
580.26,1585.2
575.27,1588.2
569.02,1599.5
570.73,1616.5
564.36,1600.5
573.71,1576.8
560.46,1646
580.37,1579.7
564.28,1629.9
567.83,1606.3
581.37,1586
569.08,1616.8
577.75,1615.8
560.89,1611.7
570.6,1615.8
587.65,1589.2
568.31,1631.4
566.9,1609.4
589.69,1574.7
572.62,1598.8
582.08,1596.6
566.27,1628.4
573.7,1620.1
585.83,1596
611.96,1515.8
570.7,1616.1
564.32,1614.5
580.97,1586.6
573.35,1569.7
558.82,1620
581.77,1576.8
580.67,1620.2
568.55,1621.5
565.69,1637.5
580.13,1591.1
579.42,1592.7
563.82,1612.1
569.08,1606.3
575.55,1593.2
573.63,1596.5
576.81,1597.4
569.49,1606.3
566.98,1610.8
569.05,1591.9
552.42,1651.9
576.9,1591.5
579.13,1604
581.66,1590.4
564.02,1629.1
563.95,1644.3
580.7,1604.9
546.18,1679
585.58,1557.7
579.55,1593.8
562.66,1577
565.98,1604.7
574.16,1594.2
575.94,1607.2
576.23,1596.7
573.75,1582
577.12,1603.5
581.74,1593.9
579.79,1588.9
574.78,1601.3
586.86,1583.5
576.9,1586.1
570.23,1608.6
582.33,1582.1
567.86,1606.9
582.8,1603.1
563.5,1615.7
570.63,1617.8
566.36,1627.9
579.54,1570.4
566.47,1633.5
567.35,1599.3
588.96,1571.4
566.1,1629.8
567.24,1620.4
584.25,1577
553.51,1632.8
582.63,1547.3
569.55,1607.3
559.1,1633.7
567.37,1613.3
569.99,1620.3
580.74,1592.2
571.63,1610.8
568.13,1628.1
568.66,1614.7
573.27,1587.9
583.74,1585.5
570.01,1606.1
582.54,1594.5
587.69,1593.2
564.35,1580.2
572.16,1610.7
567.06,1590.3
578.05,1609.6
560.75,1637.9
562.14,1644.1
551.33,1641.7
573.51,1588.6
566.91,1601.5
565.46,1602.6
578.5,1578.6
585.01,1550.1
568.39,1619.3
567.33,1622.4
572.13,1606
568.6,1635.1
565.81,1587.5
572.09,1604.3
575.33,1594
576.12,1583.2
570.34,1616
585.71,1575.2
574.63,1601.1
588.12,1563.4
563.33,1627.1
567.27,1625.4
577.06,1605.1
560.91,1620.8
577.15,1597.8
563.59,1628.2
568.68,1609.5
562.63,1613.1
577.78,1591.6
571.92,1608
561.37,1638.6
571,1588.9
577.47,1596.8
575.29,1597.1
564.52,1627.2
583.95,1582.2
564.24,1631.1
570.01,1598.8
575.98,1585.2
557.17,1638.3
575.78,1602.7
563.35,1623
571,1588.9
571.19,1618.8
573.43,1603.7
567.04,1614
577.3,1575
567.56,1617.7
566.91,1599.4
564.31,1624.2
553.57,1615.1
581.58,1576.2
579.14,1618.6
569.41,1606.6
581.02,1590.2
580.86,1585.3
572.3,1597.6
571.32,1594.6
565.32,1638.2
571.52,1615.9
578.53,1591
572.58,1604.6
569.23,1625.2
579.74,1571
564.11,1637.7
572.82,1599.5
566.44,1620.7
580.25,1597.6
574.68,1607.4
569.56,1603.9
563.97,1599.1
561.96,1651.6
564.91,1605.5
567.17,1608.1
567.13,1631
571.87,1612.4
556.57,1636.4
573.2,1634.6
569.05,1630
592.38,1566.6
589.98,1574.2
581.73,1593.3
575.9,1606.2
574.68,1607.2
561.25,1635.7
564.46,1636
579.81,1591.6
572.84,1619.9
567.76,1603.4
578.02,1580
578.9,1603.4
587.06,1580.9
568.7,1613
577.79,1616.7
584.08,1569.7
568.39,1595.1
570.89,1606.8
574.03,1622
577.62,1573.8
574.04,1595.5
543.94,1643.4
579.29,1585.6
577.24,1596.5
565.65,1596.9
578.18,1585.2
575.44,1586
570.52,1581.3
574.18,1616.2
571.86,1607
574.38,1580.2
559.29,1605.6
557.67,1637.8
575.05,1601.8
585.93,1601.4
580.14,1572.1
560.76,1635.4
563.79,1621.7
573.42,1609
576.28,1601.1
569.71,1616.8
571.18,1632.3
567.51,1607.1
568.39,1622.9
555.88,1629
586.1,1575.3
582.89,1564.4
570.78,1593.1
575.35,1605.9
570.36,1600.9
564.64,1585.1
578.59,1584.3
561.39,1634.2
571.48,1607.6
586.05,1578.7
580.78,1566.2
568.92,1630
563.38,1620.8
570.68,1628.4
581.27,1590.9
573.28,1585.1
584.55,1581.8
583.03,1595.1
571.61,1598.7
571.15,1582.8
560.36,1645
582.25,1603.7
575.52,1571.5
577.75,1599.2
575.55,1591.3
567.08,1617.3
585.32,1577.1
578.26,1602.4
565.29,1599.2
583.13,1548.2
576.45,1602.5
553.16,1642.1
573.34,1584.1
560.98,1619.1
548.37,1667.4
582.12,1579.6
570.24,1610.7
559.78,1649.5
576.81,1601.1
572.13,1621
561.27,1619.1
567.25,1612.4
583.7,1583.3
560.93,1629.5
572.69,1604.4
571.57,1621.6
581.79,1590.2
573.6,1615.5
581.52,1591.6
579.35,1580.5
581.81,1591.6
562.67,1607.3
574.55,1612.3
552.82,1644.9
564.3,1637.3
565.73,1633.7
569.46,1611.2
576.88,1595
578.11,1582.3
574.34,1608.3
573.74,1617.4
577.22,1593.8
561.42,1626
570.19,1597.5
576.55,1583.1
571.57,1621.2
566.16,1573.1
577.97,1607.7
570.92,1605.2
566.02,1613.1
562.94,1629.6
568.8,1590.6
560.62,1602.8
575.8,1612.2
573.77,1604.7
574.17,1592
591.87,1570.4
577.62,1617.1
583.28,1564.9
582.46,1592.6
560.49,1644.2
571.88,1614.2
570.47,1606.7
589.64,1574.3
567.03,1611.2
561.56,1611.9
587.7,1552.3
583.71,1575.1
577.25,1589.7
585.75,1572.6
564.01,1614.5
572.6,1588.6
564.55,1613.9
574.06,1579.9
563.37,1625.3
579.91,1588.1
571.58,1618
588.24,1583.8
587.02,1578.2
573,1613.6
563.66,1620.9
579.77,1598.9
571.77,1615.4
589.36,1587.4
569.91,1609.7
584.43,1558.4
574.55,1610.7
580.22,1597
582.7,1583.3
574.98,1593.6
577.27,1600.3
558.5,1634.9
583.35,1579.5
574.08,1612.5
596.1,1570.9
570.91,1604.6
575.8,1604.1
556.02,1620.9
568.66,1614.7
571.41,1615.4
569.6,1601.5
568.72,1581.9
572.66,1606.7
563.76,1634.9
557.3,1626.5
580.02,1598
585.06,1575
556.88,1642.9
572.78,1618.4
569.81,1607.6
565.16,1612.4
567.25,1628
552.29,1659.3
573.88,1609.6
571.52,1607.4
559.66,1617.8
572.4,1614.9
586.78,1577.1
565.47,1628.9
575.86,1601.8
578.64,1589.7
572.56,1602.8
567.58,1627.7
573.88,1590.7
571.17,1605.3
584.56,1586.7
561.06,1623.1
563.99,1624.9
567.6,1596.4
564.84,1634.2
571.65,1623.2
569.55,1611
583.58,1576
590.99,1567.4
593.27,1578.4
574.77,1598
565.9,1581.1
568.51,1592.9
571.15,1600.6
578.15,1617.6
564.21,1616.2
577.3,1597.9
578.79,1596.9
581.06,1577.5
562.97,1614.6
592.95,1565.7
557.75,1631.6
568.04,1617.4
569.56,1614.8
569.99,1611.3
567.04,1606.3
561.13,1629.8
568.35,1606
571.49,1601.9
576.03,1594.1
581.61,1572.8
585.87,1580.6
568.67,1608.1
564.9,1609.9
576.56,1610
568.26,1622.5
577.02,1579.6
559.61,1612.8
557.37,1650.4
561.1,1638.9
565.83,1617.5
572.22,1618.7
580.99,1598.8
555.88,1616.2
558.72,1643
570.1,1610.6
568.34,1608.4
571.3,1619.7
564.19,1607.7
577.47,1609
555.71,1635.7
575.88,1594.7
578.73,1606.1
582.45,1606.8
571.35,1596.1
562.71,1648.9
575.32,1605.5
566.51,1629.3
587.98,1569.6
558.14,1610.5
578.07,1576.8
581.46,1568
582.72,1595
560.31,1623.1
594.09,1556.7
579.16,1601.5
583.46,1587.7
564.34,1636.3
581.81,1580.7
564.61,1614.7
581.41,1589.4
569.46,1611.6
560.88,1617.3
563.34,1624
579.26,1616.5
562.29,1644
568.62,1620
569.99,1605.6
563.29,1624.4
564.77,1609.5
574.33,1591.1
573.07,1592.7
580.56,1582.2
540.56,1675.3
585.15,1577.4
570.56,1594.4
574.64,1613.1
563.89,1626.3
577.83,1604.6
567.93,1598.8
571.94,1602.8
573.83,1586.4
564.98,1632.8
567.89,1607.9
570.72,1610
584.14,1569
575.03,1582.5
579.44,1597.8
584.52,1581.4
571.54,1606.9
582.91,1588.6
572.25,1583.1
570.59,1601.5
566.97,1607
572.57,1614.9
570.64,1606.1
551.73,1639.6
569.81,1614.4
586.57,1567.7
567.62,1642.7
587.93,1566.1
585.99,1566.2
567.93,1626
578.27,1586.7
585.33,1575.8
573.46,1610.9
579.21,1593.8
589.33,1569.6
565.15,1625.1
572.3,1600.8
578.37,1588.8
582.59,1541.5
559.35,1636.4
569.87,1614.7
578.28,1595.4
570.96,1601.7
576.43,1609.5
578.02,1586.5
572.41,1612.1
576.96,1602.2
568.81,1611
578.68,1587.9
577.91,1581.3
582.57,1597.2
570.64,1612
562.63,1617
563.75,1642.8
556.89,1613.1
573.57,1607.6
574.67,1594.7
582.32,1570.7
571.21,1611.4
571.55,1605.4
570.69,1602.1
566.75,1612.9
568.18,1606.2
579.39,1576.9
561.59,1619.3
576.76,1588.5
575.92,1602.5
559.74,1604.4
583.82,1572.5
574.05,1599.3
581.46,1590.7
580.23,1574.2
576.47,1588
583.79,1576.6
566.95,1610.5
574.79,1598.5
579.88,1595.5
589.87,1558
583.61,1582.3
586.51,1589.5
589.97,1575.9
571.18,1612.1
566.15,1619
565.3,1591.2
566.03,1619.8
567.81,1616
579.43,1593
563.83,1608.5
571.42,1623.5
572.06,1595
577.45,1587.6
587.09,1568.8
573.66,1605.1
573.04,1611.6
565.46,1635.9
575.44,1604.1
575.66,1616.2
573.38,1613.9
580.86,1575.8
578.44,1596.8
578.8,1588.3
565.92,1620.2
564.05,1610.2
580.48,1566.8
574.7,1597.5
555,1619.6
566.56,1606
579.81,1578.1
574.96,1606.1
563.05,1625.4
578.08,1590.6
554.27,1644.7
549.48,1636.4
578.11,1615
579.08,1584.7
580.7,1577.1
567.73,1597
567.73,1597.4
580.36,1580.9
565.78,1641.2
572.92,1622.4
581.05,1571.6
582.1,1581.4
573.2,1606.4
560.45,1619.7
576.97,1607.5
575.84,1609
561.35,1610.1
588.91,1575.5
590.35,1577.9
558.27,1640.6
587.26,1556.6
566.48,1610
571.39,1590.7
565.62,1619.3
562.78,1645.6
573.73,1603.6
577.52,1586.3
580.88,1587.6
554.09,1638.4
571.74,1595
589.89,1589.2
564.99,1606.8
564.5,1617.9
577.24,1599.5
566.04,1586
580.9,1587.3
568.73,1589
581.06,1579
575.48,1607.7
566.89,1624.8
575.29,1615
577.03,1596.4
580.78,1593.9
563.98,1630.9
572.64,1604.1
564.17,1609.5
587.31,1547.7
553.08,1654.9
581.56,1555
565.81,1609.1
579.78,1572.1
566.94,1625.1
565.39,1610.9
572.78,1604.3
571.7,1585.8
568.96,1589.5
577.2,1589.2
551.53,1636.1
571.96,1595.4
589.99,1555.2
564.71,1606
568.23,1591
568.04,1609.2
572.65,1622.3
577.11,1602
578.75,1583.7
570.63,1600.7
582.81,1598
560.72,1620.8
562.73,1622.6
590.18,1571.4
582.22,1592
576.06,1599.1
578.09,1595.8
564.11,1623
570.7,1616.1
564.99,1630.1
565.56,1616.4
571.62,1603.9
576.3,1579
572.69,1607.1
574.67,1585.1
576.97,1614.4
572.68,1606.7
566.81,1606.9
582.98,1557.1
569.04,1588.9
573.47,1613.4
574.84,1596.3
562.76,1625.4
572.64,1612.8
570.83,1608.7
574.1,1610.7
559.32,1640
577.96,1601.5
567.19,1619.4
561.3,1636.7
570.16,1592.6
577.8,1587.6
572.53,1618.7
582.03,1605.6
569.9,1616.4
555.73,1633
579.07,1592.3
565.99,1608.8
574.71,1574.4
559.76,1621
576.39,1605.9
567.88,1624.3
579.72,1610.2
569.96,1595.2
569.24,1615.4
582.39,1582.9
569.7,1614.1
570,1602.4
562.93,1634.1
571.39,1584.3
586.89,1555
583.11,1586.6
559.99,1633.7
578.88,1581.4
568.65,1608.3
573.6,1597
574.37,1600.4
575.02,1584.5
586.21,1593.7
582.65,1598.3
571.94,1584.5
575.95,1603.4
575.84,1600.7
572.43,1594.3
568.73,1633.8
581.67,1598.3
581.85,1582
577.09,1604.7
577.69,1580.2
582.79,1597
584.25,1537
572.61,1612.2
565.26,1626.4
566.35,1624.2
572.17,1598.3
563.5,1617.8
577.53,1592.7
578.25,1572.9
562.57,1623.9
572.99,1611.2
582.34,1596.5
572.9,1605.6
564.93,1620
569.37,1628.3
566.82,1646.6
582.53,1595.3
577.91,1603.3
590.23,1564
570.86,1590.7
586.44,1573.7
570.63,1600.7
581.38,1577.4
582.86,1596.6
580.16,1578.5
568.59,1601.4
574.99,1580.8
568.08,1627.5
563.94,1633.5
578.71,1590.6
559.71,1612.9
559.84,1613.9
571.4,1602.7
573.31,1611.1
570.62,1590.8
579.86,1593.3
575,1619.6
572.29,1587.8
564.58,1605.4
566.87,1591.3
593.73,1572.8
577.63,1571.7
565.01,1622.6
565.17,1644.6
569.64,1600.3
578.18,1595.3
570.32,1629.2
577.97,1586.7
586.76,1587.9
579.89,1607.2
578.53,1569.1
576.33,1575.7
575.2,1586.6
567.06,1599.2
572.99,1576
556.71,1642.4
572.66,1599.8
577.96,1607.9
571.96,1598.1
573.79,1577.4
581.53,1598.7
573.55,1601.2
562.39,1599.5
557.33,1652.8
552.72,1646.3
578.07,1559.9
569.05,1614.3
595.97,1555.3
575.37,1601.2
579.52,1598.7
583.25,1579.3
576.98,1598.5
569.85,1621.6
580.53,1610.1
580.44,1592.9
572.96,1611.4
571.56,1592.2
573.63,1590.3
593.73,1567.8
571.08,1609.4
573.63,1606.8
575.06,1588.9
593.04,1568.3
577.12,1592.8
571.59,1614.5
579.42,1602.3
589.48,1575.5
584.89,1574.9
571.05,1572.2
569.66,1626.5
569.79,1622.5
573.3,1580.8
573.08,1579.6
572.49,1571.6
558.14,1626.4
563.51,1606.2
573.62,1586.3
557.41,1625.2
575.14,1606.3
583.46,1587.7
563.03,1616.8
577.69,1582.5
575.32,1589.4
582.75,1576.2
577.42,1589.4
563.4,1611.5
574.91,1593
584.21,1568.8
566.94,1586.3
572.13,1624
602.86,1533.2
577.67,1599.8
584.5,1571.2
568.64,1625.4
566.98,1606
569.02,1629.1
578.72,1595.8
562.05,1626
574.91,1588.8
569.52,1573.7
572.67,1609.7
575.51,1596.4
556.14,1657.5
573.85,1611.9
587.46,1570.7
563.89,1640.4
572.41,1606
542.73,1675.1
581.2,1575.3
578.72,1598.2
571.39,1611.1
577.93,1605.9
564.51,1605.9
551.99,1649.3
569.53,1611.1
573.77,1594.8
551.76,1650
569.49,1606.3
566.21,1593.2
564.97,1616.5
554.96,1640.9
574.89,1619.1
570.02,1607
573.41,1604.3
568.35,1615.7
572.54,1612.5
544.31,1666.5
576.17,1586.2
572.05,1587
563.84,1612.3
565.48,1623.5
568.78,1606.4
557.79,1632.8
565.79,1611
572.93,1611.8
583.37,1559.1
562.35,1618.5
563.7,1625.4
586.47,1568.6
587.43,1572.8
573.34,1584.1
579.12,1581
560.73,1632.4
559.76,1618.6
568.29,1614.7
580.97,1603
582.54,1586
575.13,1602.4
557.84,1636.6
559.97,1630
556.12,1642.5
581.13,1596.1
585.84,1570.3
558.18,1633
579.64,1585
582.79,1597
581.21,1594.3
567.1,1615.3
562.53,1609.1
582.94,1591.3
575.96,1607.8
581.47,1575.3
557.98,1628.7
565.21,1630.8
562.58,1611.6
574.91,1593
567.95,1609
554.18,1646.1
582.15,1557.9
571.55,1626.5
593.58,1564.8
565.44,1609.2
565.04,1611.7
569.82,1604.6
571.58,1606.5
573.95,1611.3
566.28,1636
573.95,1594.1
575.34,1595.3
562.33,1597.3
582.76,1574.5
582.83,1594.6
581.42,1594
571.95,1580.8
572.51,1600.1
570.83,1611.4
576.68,1605.1
567.27,1598.3
591.22,1577.6
568.15,1598.6
574.4,1609
581.63,1600.6
574.94,1599.9
574.72,1599.8
578.02,1585.4
573.55,1580.2
571.9,1617.8
564.46,1632.3
553.64,1639.8
560.64,1626.6
583.71,1579.7
563.48,1643
568.08,1631.8
564.04,1618.4
577.47,1593.7
575.82,1587.8
560.46,1639.6
581,1573.2
584.62,1584
576.17,1606.3
572.44,1619.3
591.76,1576
560.53,1626.3
576.02,1593.3
587.31,1581.5
556.2,1656.7
585.2,1571
568.07,1627.1
576.2,1608.9
580,1555.1
566.17,1601.8
569.47,1599
578.78,1602.3
574.98,1601
572.34,1619.1
569.18,1606.3
572.67,1591.6
579.3,1569.1
564.91,1615.4
568.77,1612.2
567.61,1620.2
584.89,1566.7
560.66,1646.5
577.12,1602.8
577.43,1594.1
575.92,1602.8
582.67,1581
558.19,1633.3
557.5,1655.2
572.23,1606.3
584.4,1589.6
574.53,1589.9
568.3,1617.5
577.58,1586.5
584.28,1585.6
581.63,1578.6
560.73,1634.7
571.89,1596.4
580.27,1600.2
563.57,1602.8
575.22,1595.3
581.09,1585.5
570.5,1620.3
576.2,1605.2
584.43,1569.7
573.4,1609.3
580.37,1582.5
565.38,1589.1
566.46,1604.5
566.13,1621
548.95,1675.9
567.12,1621
568.71,1604.1
578.81,1603.4
572.86,1610.6
586.83,1576.5
568.41,1616.7
580.03,1608.3
579.83,1592.7
576.3,1579
574.17,1592
567.99,1622.6
589.24,1571.3
571.91,1587.9
560.28,1629
575.12,1600.6
579.34,1595.9
569.8,1611.7
568.77,1605
581.38,1592.9
572.13,1602.6
556.46,1631.5
582.77,1614.9
565.88,1610.2
572.76,1592.7
582.06,1580.9
581.64,1582.8
567.36,1606.4
571.04,1624.3
562.01,1619.2
575.54,1587
562.83,1628.4
563.39,1613.5
573.39,1586.2
553.67,1629.2
569.41,1610.5
574.39,1599.2
558.92,1612.2
576.34,1606
568.97,1596.6
579.78,1591.2
582.54,1581.5
567.66,1627.2
577.91,1588.6
571.64,1595.1
566.52,1597.2
594.24,1579.2
578.6,1580.6
573.6,1614.4
582.07,1576.1
577.9,1585.3
559.75,1609.8
574.53,1605.8
574.1,1597.4
566.74,1593.5
578.02,1580
564.18,1616.1
572.75,1614
565.24,1638.1
582.69,1595.8
556.12,1646.5
573.93,1598.8
581.8,1601.4
566.21,1594.4
575.13,1602.4
580.31,1582.9
582.4,1591.6
572.77,1591.8
582.11,1569.9
562.26,1598.4
577.2,1558.3
583.48,1588.3
570.4,1587.2
579.27,1588.7
562.03,1635.3
554.62,1660.3
557.78,1633
574.93,1583.1
567.83,1606.3
576.52,1613.1
567.1,1601.2
571.29,1592.1
570.12,1616.8
575.5,1632.4
589.79,1587.6
584.7,1593.7
564.06,1609.7
581.63,1585.1
590.86,1579.5
562.21,1627.2
556.71,1642.4
561.84,1609.8
583.06,1579.6
573.49,1587.7
573.06,1603.5
565.3,1639.3
587.9,1579.5
568.32,1611.8
573.86,1590.5
567.62,1612.5
589.57,1569.2
579.27,1588
582.25,1592
575.83,1612.7
559.09,1628.6
563.32,1598.5
568.48,1602.8
564.03,1631.4
553.64,1643.7
565.68,1626.8
575.35,1580.9
578.62,1591.5
572.43,1609
563.05,1632.6
587.09,1569.6
573.16,1612.5
558.09,1638.3
592.94,1541.7
583.51,1567.1
572.66,1580.2
573.43,1595.5
596.98,1552.4
565.92,1615.7
572.16,1596
560.27,1642.7
567.81,1608.7
567.58,1619
562.93,1603.9
589.6,1574.9
571.74,1595
576.05,1597
576.56,1572.3
552.86,1651.1
560.67,1640.3
565.37,1614
559.37,1621.9
580.43,1589.5
564.38,1621.3
560.72,1616
576.8,1623.5
574.73,1593.3
578.44,1572.7
561.35,1648.1
570.94,1611.4
578.73,1603.9
563.77,1624.7
574.17,1596.1
585.48,1568.9
584.1,1589.4
585.72,1575.9
569.56,1613
597.25,1546
577.09,1611.5
572.29,1612.9
569.09,1634.7
566.93,1604.1
578.89,1616.3
579.07,1589.8
563.46,1620.2
564.93,1607.2
568.92,1597.5
581.61,1591.2
576.43,1586.6
573.02,1597.9
562.66,1628.9
585.25,1574.7
567.92,1600.8
577.89,1590.9
571.74,1620.9
581.27,1585.2
573.62,1571.6
584.75,1584.4
559.91,1626.2
578.14,1575.3
580.35,1588.5
565.32,1624.2
589.7,1561.3
552.48,1619.1
566.04,1619.7
555.37,1625.1
571.89,1621.3
577.46,1584.4
562.85,1643.2
573.04,1589.1
570.44,1617.2
570.19,1631.3
580.57,1552.3
577.06,1553.1
570.69,1599.5
583.78,1592
571.67,1597.5
571.01,1610.4
581.09,1605.1
567.53,1619.4
566.82,1626.5
576.98,1595.9
569.75,1603.6
570.08,1614.6
583.87,1596.5
573.32,1568.5
571.16,1598.3
572.77,1584.3
576.02,1593.3
575.81,1598.9
556.31,1622.3
586.85,1578.5
583.63,1578.7
570.98,1606.2
566.69,1616.6
571.84,1613.1
581.26,1585.7
560.96,1640.9
571.09,1615.6
574.57,1571.9
565.23,1583.2
578.85,1606.5
567.37,1613.7
572.42,1585.4
579.16,1605.8
571.32,1591.7
576.43,1622.8
576.85,1579.1
571.67,1620.7
569.81,1595.5
569.59,1617.6
556.73,1609.4
590.46,1585.7
545.12,1640.5
573.64,1582.8
591.13,1578.3
574.99,1595.9
580.75,1605.9
578.53,1608.4
576.48,1598.3
580.08,1585.5
573.67,1603.3
571.45,1609.4
570.66,1596.7
555.2,1649.2
586.85,1588.6
564.88,1597.6
562.12,1603
569.59,1607.9
578.42,1597.5
572.91,1602.9
567.17,1612.1
574.12,1600.3
590.98,1557.6
571.53,1614.7
582.25,1566
577.55,1600.8
585.44,1574.5
582.46,1576.1
558.47,1643
570.41,1599
586.21,1585.1
570.82,1619.1
580.64,1562.7
571.61,1587.4
573.11,1592
554.64,1638.1
591.65,1538.1
565.78,1641.2
590.42,1574
586.04,1597.7
571.17,1605.9
571.82,1622.8
577.77,1606.8
585.57,1567
583.32,1591
577.28,1586
567.94,1630.4
573.51,1588.6
575.55,1610.5
558.26,1649.8
567.98,1603.7
577.39,1595.8
571.9,1600
582.53,1580.6
576.74,1588.7
587.81,1554
568.6,1605.8
578.58,1570.7
570.41,1618.6
565.91,1623.9
591.45,1559.1
578.82,1608.6
569.21,1612.6
564.6,1611.2
565.28,1626.6
579.01,1594.7
556.08,1651.1
565.23,1601.1
570.05,1601.9
553.27,1615.9
577.54,1603.8
580.19,1611.7
580.72,1593.6
566.59,1623.3
577.64,1601.6
579.48,1595.2
560.21,1617.7
572.62,1598.8
582.12,1597.6
576.62,1622.4
577.23,1611.7
585.42,1597.2
573.89,1594.9
581.65,1578.1
555.92,1638.4
560.18,1638.8
570.96,1617.1
580.88,1601.1
577.75,1609.9
570.81,1612.9
586.12,1590.7
574.66,1624.7
572.8,1614.2
585.48,1585.7
583.07,1596.3
591.9,1564.6
568.12,1605.2
593.68,1543.8
564.58,1624.6
564.25,1617.1
566.17,1635.4
566.21,1594.4
554.63,1659.6
570.43,1601
568.2,1600.2
569.71,1612
565.22,1613.5
566.8,1626.3
575.34,1584.9
554.28,1646.3
571.18,1621.9
574.41,1613.4
569.87,1602.9
563.28,1615.2
578.14,1594.3
581.14,1588.3
577.79,1594.3
566.58,1581.8
588.96,1581.6
564.88,1618.9
572.88,1599.5
574.17,1592
570.39,1627.9
570.04,1589.6
567.82,1608.7
596.43,1543.7
570.82,1590.5
579.38,1586.6
575.29,1604.5
564.73,1618.3
568.12,1615.6
586.29,1575.8
582.09,1566.5
565.62,1617.7
577.56,1595.9
567.43,1632.2
562.69,1600.4
552.45,1632.9
564.69,1595.7
568.36,1625.1
576.09,1616.4
578.3,1593
570.82,1573.7
581.33,1599
569.86,1591.9
576.17,1593.3
553.37,1639
574.62,1601.9
586.4,1566.3
572.56,1602.8
579.67,1593.4
569.05,1599.9
576.27,1590.6
564.29,1612.6
566.93,1617
572.8,1622.4
569.03,1621.1
579.51,1601.5
558.3,1616.8
577.91,1580.6
581.05,1561.6
578.3,1601.5
583.34,1583.9
561.29,1618.2
577.91,1603.3
557.66,1656.6
574.05,1600.9
566.84,1627.3
584.72,1575.1
570.55,1601.6
579.04,1594.4
577.44,1594.1
568.87,1610.1
567.01,1631.4
577.73,1606.3
572.95,1584.6
586.28,1586.1
567.12,1624.6
576.64,1596.5
567.79,1608.5
567.22,1623
563.93,1624.2
567.95,1617.1
568.31,1630.2
571.99,1594.3
566.89,1609.7
577.16,1607.1
575.2,1620.9
585.04,1580.4
578.26,1610.3
584.46,1585.4
558.75,1623.6
578.34,1591.3
586,1584.4
583.48,1585.4
553.61,1630.2
578.79,1591.2
568.55,1569.6
555.83,1631.4
578.23,1579.4
576.67,1598.7
573.88,1590.7
567.54,1614.5
568.57,1605.7
566.46,1610.9
572.85,1614
575.69,1595.2
561.71,1604.8
572.52,1593.9
576.45,1614.1
576.88,1608.3
573.86,1599.5
564.86,1610.2
588.11,1597.4
571.07,1607.4
579.25,1606.3
572.72,1595.5
574.32,1611.5
565.46,1625.2
561.55,1633.7
591.49,1560.6
588.97,1555.2
566.82,1613.9
555.44,1632.1
578.27,1603.5
565.38,1596.7
572,1599.3
575.59,1606.7
567.46,1577.2
575.77,1601.5
566.63,1629.1
593.27,1579.3
571.03,1599.1
574.88,1604.4
575.63,1599.6
562.63,1617
573.3,1608.4
571.09,1604.7
572.16,1585.6
570.88,1595.6
573.85,1587.1
574.74,1589.6
587.34,1556
584.32,1597.7
558.34,1659.5
564.65,1614.7
570.1,1598.2
580.28,1611.9
579.41,1600.1
561.21,1619.1
578.26,1598.6
577.38,1607.7
569.23,1606.3
581.19,1582
572.5,1621.3
573.01,1600.6
558.66,1645.6
561.73,1637.8
579.98,1596.9
584.76,1561.2
554.71,1632.2
580.65,1590.7
577.84,1601.4
565.66,1628.5
573.7,1607.6
576.39,1595.8
582.91,1571.6
576.41,1603.6
568.52,1599.8
585.46,1598.3
571.78,1621.8
575.2,1595.3
588.1,1590.2
574.7,1597.5
577.37,1611.1
566.51,1600.1
576.94,1598.7
587.07,1567.8
556.06,1620.9
570.52,1590.8
569.43,1615.1
574.09,1616.1
577.85,1599.5
586.38,1576.3
584.51,1573.5
569.34,1601.3
580.08,1615
587.99,1591.6
576.65,1573.5
573.39,1608.8
581.28,1601.5
575.22,1601.1
564.51,1623.3
563.45,1622.3
574.05,1599.2
565.94,1624.8
576.11,1607.7
581.08,1592.6
579.05,1579.4
571.15,1591.5
570.82,1612.1
572.74,1598
588,1584.2
573.18,1596
568.58,1603.8
578.57,1574
554.14,1651.5
571.27,1598.2
576.33,1572.3
589.45,1579.2
584.4,1564.8
575.81,1598.9
581.04,1584.2
574.24,1590.9
568.01,1610
567.73,1607.7
573.63,1587.3
579.16,1589.3
584.35,1579.9
574.68,1584.7
571.69,1634.1
571.67,1600
579.11,1597.9
569.31,1623.7
559.46,1625.2
577.77,1601.9
575.22,1601.1
571.81,1583.2
578.2,1601.5
567.24,1621.6
570.88,1610.4
564.69,1633.1
570,1608.4
558.25,1625.5
578.67,1597.5
574.5,1618.9
567.37,1620.8
559.79,1630.4
556.81,1628
577.11,1577
567.27,1574.7
574.67,1620.5
550.91,1636.2
572.38,1603.3
571.6,1601.1
565.65,1620.4
557.86,1648.6
583.24,1559.2
567.89,1607.9
591.93,1545.9
575.53,1595.5
558.78,1650.7
589.47,1541.7
566.07,1608
568.77,1605
555.38,1662
587.42,1574.1
569.5,1634.1
571.28,1611.8
579.97,1606.3
563.83,1628.6
552.89,1628
575.68,1602.1
584.36,1568.7
578.99,1596.2
581.76,1590.6
576.67,1598.7
567.06,1626.8
565.05,1623
566.55,1623.9
568.34,1629.8
576.99,1598.8
579.42,1602.3
580.61,1571.8
567.51,1618
558.8,1627.5
571.65,1613.5
574.6,1605.1
573.98,1603.4
600.37,1535
555.94,1644.2
580.2,1575.2
574.55,1573.2
568.1,1631.6
576.83,1589.8
572.12,1602.5
580.72,1601.6
578.33,1593.1
563.68,1630.8
568.57,1624.7
581.53,1585.9
564.17,1609.5
569.57,1613.7
576.02,1568.1
577.63,1601.8
572.05,1591
558.75,1636.9
577.16,1598.7
567.52,1620.7
569.03,1602.3
577.82,1589.3
568.38,1612.5
564.65,1614.7
583.36,1578
577.34,1613.8
569.85,1609.2
578.77,1573.2
564.66,1616.9
583.59,1590.6
566.1,1629.8
574.18,1591.8
586.96,1575.4
565.88,1610.2
568.58,1593.4
585.97,1575.9
580.65,1589.3
578.88,1580
570.05,1615.1
568.84,1621.4
569.82,1602.8
583.69,1581
567.23,1623.3
574.91,1598.4
568.55,1630.4
577.41,1595.3
572.47,1597.3
580.71,1606
558.07,1650.4
571.11,1616.6
578.7,1579.9
558.04,1644.7
584.98,1580
580.64,1563.9
559.46,1632.1
560.15,1640.2
558.44,1648.4
581.2,1606.1
579.08,1603
573.61,1606.1
554.35,1654.4
575.72,1603.1
582.13,1594.4
577.05,1606.9
569.74,1588.2
582.99,1599.2
573.65,1583.9
566.53,1599.6
569.34,1636.2
572.92,1586.8
564.06,1617.3
600.7,1537.5
569.43,1605.2
579.26,1581.8
579.53,1574.9
577.8,1574.7
585.26,1590.1
563.34,1624.4
578.15,1616.9
583.74,1586.7
580.41,1576.3
562.31,1616.7
556.33,1636.8
580.54,1584.6
579.08,1590.4
578.43,1578.5
584.76,1598.9
566.34,1606.1
572.04,1582.5
578.21,1609.7
570.17,1611
572.23,1606.3
587.03,1575.1
592.05,1573.3
594.63,1562.7
567.74,1605.8
581.91,1594.5
587.32,1597.5
563.86,1622.7
574.64,1596.9
565.36,1605.7
578.39,1582.4
563.7,1631.8
564.19,1625.1
569.78,1582
586.57,1580.1
582.39,1583.7
579.3,1576.1
562.35,1615.9
559.82,1641.7
593.98,1563.4
570.84,1605.8
575.67,1595
569.81,1611
585.64,1581.7
568.7,1580.8
579.56,1571.2
585.49,1576.8
572.05,1612
580.96,1588.6
571.51,1618.5
578.09,1593.7
562.7,1629.7
570.52,1608.5
561.39,1639.6
576.28,1588.3
565.98,1604
576.6,1596.1
580.62,1598.6
558.3,1626.1
557.11,1624.5
585.37,1556.2
569.06,1626.8
568.86,1600.8
571.63,1609
570.56,1624.6
584.73,1586
554.15,1638.7
574.33,1611.4
569.55,1604.8
570.76,1594.9
570.21,1603.5
566.25,1631
580.33,1568.4
565.28,1597.7
574.43,1596.8
591.01,1574
572.42,1590.5
569.46,1593.7
575.21,1624.4
570.55,1623.3
551.73,1649.2
579.22,1599.2
588.66,1576.5
569.86,1611
570.54,1587.1
587.52,1578.4
542.05,1689.9
573.41,1575.6
566.17,1634.5
570.86,1593.6
565.12,1592.7
577.78,1591.9
571.82,1602.4
570.9,1606
582.26,1576.4
570.65,1587.4
568.34,1579.7
569.17,1604.4
574.7,1597.5
578.75,1592.6
571.34,1617.3
580.38,1584
577.35,1572.8
568.91,1629
577.88,1595.3
565.57,1624.6
577,1612
576.67,1598.2
586.06,1586.2
564.27,1612.3
568.93,1591.4
583.28,1577.6
580.4,1559.9
568.47,1602.3
576.17,1614.9
571.18,1612.1
582.36,1587.4
568.5,1589.6
594.22,1550.8
560,1622
582.13,1596
573.75,1577.9
581.87,1552.2
577.2,1589.2
581.86,1582.2
570.22,1595
580.11,1592.9
576.88,1612.4
568.07,1594.4
570.81,1618.6
576.54,1587.1
586.01,1583.7
574.11,1617.1
565.25,1605.6
578.92,1593.8
577.91,1603.1
578.89,1604.2
559.6,1633.7
569.35,1621.2
571.82,1629.8
558.58,1617.2
582.03,1595.6
583.6,1575.3
597.27,1538
557.01,1645.5
563.13,1626.7
579.89,1584.4
581.28,1548.9
564.1,1604.8
566.46,1633.6
577.11,1593.3
556.13,1647.2
562.46,1608
571.22,1613.1
573.31,1610.4
566.72,1592.7
593.53,1551.4
564.31,1618
564.02,1622
580.61,1585.6
570.7,1592.9
581.46,1590.7
580.66,1600.6
592.88,1555
583.55,1571.2
570.99,1610.7
564.61,1625.4
579.47,1582.3
581.67,1593.8
562.67,1610.7
573.77,1605
569.27,1601.1
571.6,1591.9
571.98,1576.1
567,1599.8
573.06,1614.3
582,1576.7
566.9,1608.8
572.35,1607.7
572.26,1581.6
592.74,1568
574,1594
576.54,1584.7
582.42,1597.7
566.01,1623.1
564.22,1627.3
588.69,1565.6
551.68,1644.7
577.99,1591.1
579.57,1590.9
584.29,1571.1
567.42,1625.5
570.76,1592.5
590.12,1569.8
579.15,1596.2
564.58,1596.8
570.63,1624.1
562.23,1606.1
568.65,1588.7
577.75,1563.9
571.84,1615
570.4,1626.9
577.3,1594.4
567.19,1619.5
575.65,1600.7
577.9,1594.9
573.57,1605.7
566.67,1611.8
566.31,1612.5
571.64,1615.3
571.04,1614.8
581.74,1588.3
580.04,1591.9
569.49,1602.8
563.52,1626.9
573.67,1598
564.37,1631.9
575.31,1602.8
574.44,1606.5
562.01,1614.4
562.48,1620
576.28,1602.1
572.6,1590.2
571.76,1615.3
554.74,1617.7
579.58,1598.7
570.1,1610.6
573.23,1614.5
579.8,1573.3
570.89,1586.3
576.36,1593.5
573.93,1591.6
577.94,1570.4
568.41,1616.7
579.81,1602.6
565.16,1608.9
575.3,1612.2
581.08,1591.2
565.56,1613.7
588.4,1583
563.03,1644.3
557.63,1636.9
572.58,1599.3
573.21,1622.6
563.83,1601.5
557.59,1634.9
582.33,1604.3
571.3,1612.9
571.46,1602.8
571.51,1630.9
549.68,1647.5
569.24,1609.2
573.34,1593.4
554.03,1669.5
575.9,1593.1
576.69,1595.3
571.68,1600.3
580.96,1596.9
565.38,1621.6
580.96,1588.6
579.93,1604.5
567.21,1620.5
557.66,1629.5
572.71,1607.4
563.19,1627.9
585.81,1579.6
562.76,1628.1
584.58,1595.8
577.45,1595.7
565.68,1615.8
564.74,1615.6
576.26,1608.1
568.77,1618.7
579.36,1602.9
560.24,1609
574.98,1589.4
567.32,1615.3
575.37,1591.6
576.42,1582.1
575.72,1589.1
594.3,1552.7
569.89,1607.5
574.88,1588.2
564.99,1613.5
561.91,1598
562.22,1619.4
588.15,1573.4
588.06,1584.1
585.29,1560.2
573.18,1603.8
579.95,1597.6
572.08,1618.9
583.94,1597.6
586.85,1578.5
575.3,1602.5
574.88,1605.2
576.36,1604.9
547.25,1650.6
574.62,1559.7
556.68,1637.8
574.8,1603.1
586.17,1559.5
589.89,1584
572.08,1596.9
560.95,1637.7
585.31,1588.7
567.56,1616
558.96,1609.4
588.47,1580.2
569.94,1603.3
587.47,1566.7
564.94,1621
586.1,1589
586.06,1583.1
572.2,1618.6
594.39,1549.1
587.1,1573.8
571.73,1604
583.28,1567.8
576.77,1603.5
574.28,1614
573.98,1596.4
567.25,1617.7
578.55,1564
582.16,1588.7
569.06,1597
554.69,1639.1
571.81,1583.2
579.1,1607.5
576.26,1580.3
566.47,1624.4
566.89,1623
573.27,1592.8
591.77,1564.1
565.88,1610.7
566.75,1612.9
574.13,1598.5
569.97,1630
574.04,1604.4
572.28,1594
566.81,1632.3
597.33,1544.4
572.39,1598.1
568.55,1620.4
581.68,1586.5
575.17,1604.1
576.08,1592.3
571.28,1574.4
579.98,1571.5
564.36,1633.8
578.37,1599.2
574.96,1611.6
573.18,1593.6
589.22,1569.7
565.73,1605.7
585.41,1600.7
580.55,1574.1
558.4,1586.4
577.91,1594.9
581.09,1595.6
570.29,1618.6
573.27,1623.2
575.85,1581.4
577.14,1552
582.57,1592
576.78,1605.2
562.63,1620.4
582.58,1581.7
569.88,1599.8
570.62,1614
564.09,1607.4
583.74,1586.4
571.01,1621.4
585.14,1573.3
571.47,1629.6
578.14,1577.7
573.63,1606.8
564.47,1597.6
567.77,1619.9
576.17,1603.5
562.48,1626
574.16,1612.1
571.71,1592.5
584.3,1554.4
576.63,1589.6
557.46,1638.1
581.8,1563.2
570.22,1600.4
568.93,1605.1
569.6,1612
564.79,1621.7
557.92,1619.4
555.89,1638.1
567.3,1625
566.63,1628.6
580.61,1569.8
572.28,1596.6
579.38,1586.6
581.35,1586.2
580.73,1567.9
566.57,1588.8
563.86,1614
587.51,1572.4
579.05,1592.4
571.16,1623.4
559.61,1622.6
569.96,1621.1
584.2,1589.7
557.23,1654.1
564.21,1643.7
579.05,1589.3
568.51,1592.9
570.04,1612.4
575.25,1602.8
582.05,1604.1
580.86,1597.7
570.98,1588.6
577.1,1597.4
585.83,1579.1
567.67,1607.7
573.15,1608.1
567.35,1632.6
586.66,1560.1
590.06,1562.8
569.13,1589
574.69,1610.7
587.85,1568.5
572.87,1589.3
576.46,1590.3
564.5,1631.4
587.62,1585.7
571.54,1613.3
583.49,1601.1
581.11,1601
573.72,1615.3
586.32,1577.6
580.35,1572.6
579.99,1589.1
582.88,1578.9
590.27,1564.4
574.16,1612.1
560.23,1634.6
568.56,1622
576.04,1611
574.79,1592.5
565.27,1609.1
574.94,1618.7
595.51,1564.7
554.12,1648.8
573.7,1614.3
579.45,1606.6
565.24,1614.7
568.84,1589.2
573.77,1604.7
571.38,1592.4
587.57,1577.8
582.73,1581.5
554.58,1652.7
567.58,1622.5
558.57,1601.5
576.58,1601.1
582.94,1567.3
567.86,1606.9
582.96,1575.8
582.83,1611.1
571.43,1608.7
555.06,1629.1
563.68,1616.2
584.87,1581.3
582.72,1577.4
573.15,1592.2
566.62,1623.1
576.91,1592.6
574.04,1622
579.57,1610.5
584.16,1575.5
564.78,1610.9
563.57,1631.7
590.38,1567.3
571.43,1599
569.6,1612
584.78,1571.9
585.83,1590
577.37,1588.9
563.52,1630.3
587.24,1565
575.88,1601.8
577.12,1622.2
579.5,1589.1
567.39,1617.8
569.3,1605
568.46,1614.3
555.16,1636
570.88,1595.6
551.1,1652.5
575.78,1594.4
574.59,1596.2
580.48,1604.3
567.6,1618.8
580.5,1586.1
589.11,1528.5
570.26,1604.6
574.77,1622.4
565.64,1632.1
576.55,1583.1
578.73,1588.8
564.78,1611.4
567.9,1602.5
583.42,1572
571.65,1618.8
583.09,1589.3
565.71,1625.1
564.14,1621.3
586.23,1570.1
571.95,1613.6
568.89,1617.3
569.73,1616.4
566.09,1601.1
591.53,1565.2
583.51,1597.2
583.77,1589.3
571.85,1606.4
569.5,1608.1
571.29,1608
575.68,1604.8
575.63,1599.6
573.77,1590.4
573.14,1596.5
572.85,1616.3
588.12,1561.7
580.73,1584.3
571.79,1598.9
577.99,1591.1
580.89,1565.3
579.56,1586.4
568.97,1564.2
566.55,1634.5
575,1602.7
575.55,1574.7
573.24,1588.5
564.91,1614.4
572.43,1586.8
574.77,1598.6
570.21,1604
570.45,1614.7
563.92,1635.1
581.13,1577
562.34,1635.1
563.25,1628.7
568.69,1620.2
562.32,1630.5
572.17,1608.1
577.5,1595.1
555.51,1645
574.57,1621.1
565.87,1638.1
572.95,1605.1
572.87,1604.1
567.33,1602.6
591.23,1572.1
584.98,1554.8
587.84,1563.3
566.82,1631.8
581.31,1588
577.68,1594.6
569.18,1619.8
591.22,1570.9
568.04,1614.4
566.24,1623.8
577.5,1595.2
577.65,1577.8
572.08,1589.4
579.01,1584.9
551.79,1638.8
580.73,1570.3
560.56,1623.9
579.81,1607.7
579.08,1590.4
566.5,1618.4
576.57,1585.5
563.63,1633.4
582.03,1605.6
572.26,1604.6
570.44,1591.1
573.9,1623.3
568.22,1611.3
568.57,1591.3
572.33,1610.4
555,1623.3
565.73,1630.1
561.23,1641
565.68,1606.7
574.16,1595.6
574.13,1592.3
599.05,1543.7
586.81,1563.6
580.2,1600.9
563.08,1636.6
579.92,1583.9
567.15,1603.8
546.07,1658.6
571.23,1625.9
582.8,1601.2
579.21,1577.9
576.45,1586.9
569.72,1605.4
575.75,1613.9
557.51,1629
576.77,1577.5
591.44,1545.6
568.43,1628.3
576.3,1597.1
568.94,1591.6
569.86,1602.3
579.09,1584.7
569.46,1620.5
570.74,1590.1
576.96,1574.4
574.55,1600.1
591.44,1570
584.13,1591.3
578.37,1577.5
574.11,1579.7
574.47,1604.8
593.6,1550.8
581.89,1601.1
567.49,1618.4
570.25,1609
574.25,1581.3
569.13,1596.6
569.38,1613.4
570.9,1608.6
561.84,1610.3
580.1,1567.3
579.28,1600.1
570.46,1603.9
590.83,1571.5
583.26,1565.8
568.04,1617.4
585.57,1606.2
560.93,1623.7
577.81,1561.4
582.65,1602
577.75,1575.8
567.66,1634.1
578.37,1588.9
564.46,1632.8
576.52,1595
565.66,1619.7
583.91,1575.4
585.49,1562.6
559.69,1624.6
563.48,1637.1
557.42,1640
574.11,1618.7
589.67,1577.6
574.42,1604.1
568.95,1615.7
558.18,1608
554.06,1637.3
582.8,1571.2
583.28,1588
568.81,1617.8
564.95,1607.6
573.99,1592.7
578.86,1592.7
566.26,1609.6
575.83,1589.7
586.85,1578.5
568.69,1620.2
574.05,1582.8
589.02,1583.7
569.71,1613
571.55,1588.1
562.37,1605.4
585.35,1580.3
582.65,1587.3
551.82,1646.5
567.48,1612.2
582.44,1598.5
572.91,1607.4
578.25,1588.4
563.73,1626.5
580.12,1598.9
565.87,1619.4
573.95,1609.2
566.53,1618.3
569.55,1607.3
585.74,1584.1
579.06,1589
579.55,1593.8
559.82,1642.9
586.83,1576.5
575.36,1591.1
562.43,1628.2
580.49,1586.9
570.18,1605.6
571.63,1604.5
579.92,1570.7
589.45,1581.5
584.29,1591.2
571.05,1586
567.88,1594.7
570.97,1610.7
564.52,1620.6
573.14,1600.2
575.46,1596.8
566.52,1622.8
581.04,1583.8
577.43,1584.6
567.78,1623.8
589.97,1579.3
570.07,1589.9
580.26,1585.7
581.06,1577.5
574.36,1595.7
577.06,1594.7
576.78,1585
572.88,1599.5
555.44,1630.2
577.63,1583.5
570.91,1598.7
576.2,1598.4
565.26,1614.1
572.29,1587.8
569.99,1610.7
586.7,1586.4
584.71,1577
575.11,1582.8
564.33,1610.5
560.95,1616.3
576.89,1606.7
578.96,1606.2
573.95,1580.1
570.09,1616.1
577.91,1597.5
576.34,1606
584.38,1560.4
558.32,1634.6
581.32,1553.8
583.84,1592.9
570.83,1623.7
591.22,1570.9
557.64,1625.4
590.72,1574.6
575.49,1586.5
561.32,1633
560.27,1634.6
572.26,1595.1
575.44,1585
573.15,1592.2
560.85,1639.8
590.92,1580.4
577.56,1611.3
561.81,1625.3
574.27,1590.5
573.12,1589.3
567.16,1630
579.54,1588.7
585.63,1566.7
587.5,1575
585.3,1590.1
565.35,1613.5
573.67,1613.2
562.14,1616.2
567.47,1623.9
571.95,1589.1
565.91,1630.2
581.4,1607.3
568.69,1607.8
575.44,1603.1
571.74,1606.6
578.08,1614
584.43,1578.3
595.67,1546.6
575.16,1587.6
574.67,1588.5
565.54,1615.5
567.95,1633.3
572.32,1610.1
567.61,1605.2
580.94,1590.9
573.06,1621
565.66,1636.5
585.3,1583.3
573.71,1585.3
580.57,1575
580.26,1609.9
571.56,1603.5
577.52,1570.2
562.83,1644.6
574.29,1607.8
574.08,1593.1
583.58,1580.5
577.5,1595.1
579.86,1577.4
585.54,1553.2
578.44,1585.5
580.56,1588.6
569.48,1616.1
595.17,1563.4
573.16,1575.4
573.95,1594.1
565.66,1623
587.91,1571.8
586.2,1542.7
568.97,1597.2
572.93,1602.3
576,1616.3
571.41,1610.1
573.66,1605.1
572.08,1581.8
592.18,1566.9
559.27,1632.4
570.58,1611.4
580.23,1576.8
558.37,1627.1
561.33,1610.2
561.81,1628.1
569.14,1625.1
580.02,1573.4
578.71,1598.6
567.86,1619.3
578.24,1594.2
568.25,1628.7
576.81,1587.9
567.65,1606.6
560.27,1622.5
591.43,1561.4
584.08,1576.8
562.7,1629.7
565.59,1615.9
580.42,1584.9
574.74,1609.3
565.19,1623.4
578.11,1598.5
572.52,1613.3
570.29,1624.3
574.64,1619.5
579.77,1596.6
570.2,1609.3
576.96,1593.4
578.34,1603.7
554.81,1643.4
572.94,1619
565.59,1598.2
568.57,1619.7
581.53,1562.1
571.3,1616
582.05,1595.2
572.91,1607.4
571.49,1600.6
556.75,1650.6
570.59,1608.4
568.22,1629.6
590,1554.9
571.2,1576.8
549.7,1635.9
577.57,1607.4
582.15,1577.8
582.07,1581
595.23,1554.2
566.62,1616.7
573.95,1609.2
570.49,1602
560.07,1615.8
579.94,1588.9
569.68,1595.8
580.74,1581.9
579.31,1604.4
577.72,1592.9
582.11,1600.2
582.13,1553.1
571.13,1620
569.16,1611.6
574.12,1593.3
586.23,1582.8
555.62,1642
567.26,1617
574.75,1587.4
573.06,1621
567.53,1597
573.91,1605.8
572.33,1600.4
581.82,1590.9
577.56,1595.9
551.08,1629.1
570.42,1595.1
548.34,1625.7
569.74,1595.3
577.27,1603.3
574.25,1573
575.99,1604.9
592.11,1565.8
576.94,1577.3
565.03,1615.7
576.24,1608.2
572.09,1599.1
591.32,1579.6
562.59,1616.9
564.84,1628.3
591.31,1589.6
570.03,1618.1
586.63,1576.8
580.63,1587.9
570.45,1629.2
560.48,1620.6
570.99,1610.7
561.71,1624.2
569.35,1592.7
586.69,1570.6
553.61,1622.6
582.88,1579
569.89,1606.9
561.04,1604.5
566.93,1630.5
573.13,1585.7
570.6,1601
571.15,1616.6
555.13,1629.7
579.25,1595.9
546.92,1676.3
547.08,1659.5
571.04,1613.7
574.98,1616.2
566.09,1617.3
563.47,1640.2
565.1,1623.3
566.86,1600.7
583.83,1584
568.72,1607.7
593.25,1577.2
563.6,1625.9
569.46,1632.1
573.17,1577.9
562.03,1623.2
576.4,1601.5
581.24,1572.1
564.43,1629.7
580.29,1595.9
573.05,1597.2
574.42,1602.6
571.91,1604.6
581.25,1578.7
578.55,1604.1
563.69,1604.3
563.03,1608.1
578.86,1590.1
577.47,1596.8
568.15,1638.2
577.15,1597.8
578.82,1584.8
575.46,1592.2
573.46,1610.9
566.94,1624
561.83,1617.1
557.69,1602.4
580.14,1601.9
572.41,1606
589.35,1574.8
572.57,1614.3
573.9,1601.5
584.09,1587.1
573.84,1609.2
575.97,1601.1
574,1612.5
576.33,1575.7
572.06,1615.6
573.84,1614.5
582.68,1596.6
570.79,1612.8
581.64,1601.4
582.1,1595
571.88,1585.5
573.43,1603.7
574.25,1585.7
567.49,1596.7
570.88,1599.9
561.94,1624.2
580.88,1575.9
580.84,1585.8
580.88,1594.5
588.78,1578.5
582.78,1569.2
581.21,1573.3
565.68,1606.4
563.21,1608.4
575.59,1594.7
575.18,1591.4
564.05,1628.3
592.92,1571.4
582.79,1610.4
556.33,1638.6
586.84,1576.7
586.97,1570.9
590.55,1567.5
582.36,1563.6
584.72,1580.7
582.19,1573
578.85,1607.5
573.58,1626
564.05,1626.4
579.24,1589.9
575.9,1593.1
561.66,1619.8
557.18,1636.4
585.4,1584.8
570.29,1593.4
566.37,1608.5
561,1622.1
577.06,1594.7
560.58,1624.5
577.91,1603.3
573.49,1600.2
570.07,1606.6
573.78,1588
568.26,1622.5
584.79,1587.2
574.3,1613.2
569.56,1613
572.5,1580.5
574.01,1610.5
584.17,1570.1
606.4,1533.8
576.63,1606.6
568.94,1584.3
572.13,1597.9
563.2,1603.8
575.84,1589.3
577.66,1573.6
581.34,1574.3
568.11,1592.9
568.64,1625.4
583.51,1597.2
567.93,1603.6
576.52,1598.6
582.07,1587.7
566.94,1620.5
567.48,1623.4
574.31,1600
568.5,1594.3
574.71,1592.7
578.33,1595.2
576.98,1604.9
568.08,1617.9
585.13,1582
567.96,1635.4
572.18,1614.3
558.64,1611.1
567.85,1611.6
572.3,1580.3
565.63,1618.6
560.53,1613.9
579.39,1599
588.23,1564.4
573.31,1594.3
554.22,1640.1
573.61,1621.8
572.86,1617.3
564.8,1637.1
574.09,1592.7
577.06,1592.5
572.47,1615.9
560.29,1640.4
583.94,1599.8
587.14,1605.4
564.1,1613.1
570.05,1626.2
587.6,1578.7
559.8,1631
567.05,1627.3
581.65,1592.6
590.78,1575.6
558.21,1617.7
573.19,1611.7
569.31,1612.4
563.39,1603.1
561.75,1630
577.14,1615
572.83,1618.4
568.98,1595.9
576.52,1599.4
583.21,1599.9
551.6,1608.6
575.39,1591.7
565.45,1610.3
578.95,1588.6
571.22,1615.8
