2.98,0.89,0.2
2.71,0.93,0.09
2.78,0.98,0.04
2.51,1.05,0.21
2.86,0.92,0.05
2.78,0.99,0.29
2.79,0.9,0.42
2.59,0.99,-0.02
2.84,1.08,0.37
2.77,0.83,0.33
2.87,1.03,0.24
2.65,0.93,0.11
2.81,1.19,0.16
2.66,0.98,0.15
2.63,0.71,0.29
2.89,1.04,0.18
2.65,0.98,-0.02
2.79,1.07,0.15
2.91,0.94,0.39
2.79,1.02,0.26
3.1,1.13,0.1
2.85,0.98,0.21
2.79,0.97,0.34
2.82,0.86,0.06
2.71,1.09,0.06
2.78,0.96,0.17
2.75,1.07,-0.04
2.7,0.97,0.24
2.77,0.96,0.51
2.73,0.9,0.2
2.77,1.22,0.2
2.7,1.05,0.25
2.83,0.98,0.12
2.83,1.02,0.26
2.71,1.08,0.19
2.68,1.13,0.24
2.64,0.94,-0.01
2.66,0.87,0.24
2.8,0.92,0.17
2.78,1.02,0.25
2.78,1.11,0.03
2.78,1.06,0.14
2.75,1.02,0.22
2.77,1.05,0.11
2.71,0.94,0.12
2.81,1.01,0.21
2.77,1.08,0.29
2.72,1.16,0.12
2.67,0.89,0.07
2.68,1,0.19
2.64,0.91,0.2
2.79,0.81,0.26
2.64,1.09,0.09
2.71,1.01,0.1
2.76,0.94,0.28
2.81,0.8,0.3
2.86,1.05,0.02
2.7,0.84,0.08
2.74,1.09,0.27
2.96,1.05,0.14
2.85,1.05,0.23
2.75,1.08,0.13
2.62,0.9,0.27
2.64,1.15,0.16
2.74,1.02,0.13
2.72,1.1,0.17
2.93,1,0.34
2.86,0.72,0.36
2.73,0.74,0.15
2.84,1.01,0.23
2.75,0.93,0.14
2.86,0.85,0.17
2.79,0.98,0.32
2.71,0.91,0.15
2.71,1.02,0.17
2.88,1.08,0.23
2.8,0.81,0.28
2.89,1.06,0.28
2.78,1.12,0.27
2.83,0.89,0.13
2.73,0.9,0.19
2.79,0.99,0.14
2.89,1.21,0.24
2.66,0.8,0.22
2.69,0.81,0.35
2.77,0.93,0.1
2.87,0.96,0.17
2.91,0.96,0.27
2.7,0.91,0.19
2.75,1.1,0.09
2.92,1.15,0.34
2.71,0.97,0.31
2.75,1.04,0.04
2.69,1.06,0.07
2.58,0.89,0.31
2.74,1.24,0.28
2.83,0.95,0.04
2.86,0.88,0.19
2.9,0.98,0.22
2.92,1.07,0.25
2.77,1.1,0.07
2.7,1,0.14
2.8,1.05,0.24
2.81,1.05,0.19
2.74,1.03,0.31
2.76,0.99,0.16
2.73,1.08,0.2
2.61,1.24,0.38
2.81,1.02,0.19
2.82,0.95,0.23
2.74,0.85,0.22
2.82,0.79,0.16
2.73,0.93,0.21
2.77,1,0.18
2.89,0.95,0.05
2.74,0.77,0.31
2.78,1,0.34
2.76,0.86,0.39
2.95,0.88,0.02
2.77,1.19,0.2
2.89,0.92,0.28
2.77,1.02,0.28
2.66,0.94,0.38
2.7,0.85,0.26
2.74,0.88,0.24
2.73,1.09,0.18
2.7,1.22,0.18
2.85,1.09,0.14
2.85,0.97,0.28
2.69,1,0.02
2.87,0.98,0.14
2.73,0.93,0.23
2.66,0.9,0.19
2.62,1.08,0.05
2.75,1.03,0.31
2.84,1.04,0.08
2.86,0.89,0.27
2.75,0.89,0.19
2.68,1.08,0.13
2.8,1.05,0.24
2.94,1.05,0.36
2.69,1.07,0.04
2.81,1.16,0.3
2.53,0.91,0.12
2.73,1.06,0.29
2.83,1.08,0.15
2.81,0.95,0.33
2.8,1.04,0.12
2.84,1.06,0.09
2.63,1.01,0.28
2.73,0.84,0.08
2.75,0.96,0.18
2.83,1,0.16
2.68,1.09,0.19
2.98,1,0.09
2.87,0.87,0.13
2.71,1.1,0.18
2.85,1.06,0.19
2.79,0.91,0.19
2.75,1.06,0.12
2.75,1.01,0.18
2.78,0.97,0.19
2.53,0.93,0.26
2.85,0.97,0.18
2.67,1,0.15
2.87,0.99,0.26
2.81,1.19,0.26
2.79,1.11,0.3
2.72,1.17,0.09
2.78,1.09,0.26
2.64,0.98,0.06
2.73,1.11,0.11
2.71,0.96,0.24
2.7,0.81,0.28
2.71,0.91,0.26
2.72,0.86,0.21
2.82,0.91,0.39
2.81,0.88,-0.12
2.88,0.91,0.11
2.73,1.09,0.17
2.86,1.18,0.06
2.69,0.96,0.35
2.68,0.83,0.04
2.77,0.9,0.09
2.74,0.87,0.29
2.81,0.8,0.1
2.66,0.85,0.16
2.76,1.06,0.1
2.5,1.02,0.03
2.64,1.03,0.15
2.82,0.87,0.26
2.6,1.05,0.12
3,1.05,0.28
2.67,0.9,0.09
2.73,1.01,0.34
2.65,0.94,0.18
2.74,1.13,0.12
2.98,1.04,0.21
2.61,0.87,0.37
2.74,1.06,0.17
2.77,0.95,0.29
2.97,1.17,0.05
2.87,0.87,0.34
2.61,1.14,0.22
2.57,0.99,0.21
2.8,0.98,0.33
2.79,1,0.15
2.91,0.98,0.26
2.84,1.03,0.23
2.59,1.1,0.1
2.64,1.17,0.1
2.91,0.94,0.02
2.74,0.92,0.31
2.62,1.1,0.1
2.78,1.09,0.18
2.84,1.01,0.29
2.62,0.88,0.15
2.7,1.05,0.25
2.49,0.91,0.35
2.65,1.06,0.23
2.74,1.03,0.33
2.9,0.93,0.21
2.75,0.91,0.2
2.69,1.1,0.21
2.91,1.11,0.27
2.92,1,0.26
2.71,1.21,0.28
2.65,0.9,0.19
2.7,0.99,0.16
2.95,0.96,0.08
2.72,0.86,0.07
2.79,0.89,0.21
2.83,1.08,0.21
2.79,0.99,0.41
2.77,0.86,0.21
2.83,0.97,0.37
2.72,1.01,0.2
2.77,1.01,0.19
2.76,0.97,0.21
2.66,0.88,0.1
2.78,1,0.26
2.83,1.05,0.15
2.8,1.06,0.36
2.75,0.97,0.3
2.8,1.1,0.38
2.79,1.05,0.21
2.75,1.1,0.19
2.96,1.04,0.16
2.64,0.99,0.07
2.75,0.96,0.17
2.74,1.07,0.08
2.8,1.1,0.28
2.89,1.13,0.24
2.71,1.08,0.16
2.75,0.96,0.11
2.85,1.05,0.24
2.81,1.08,0.13
2.76,0.89,0.04
2.65,1.01,0.25
2.94,0.96,0.27
2.79,1.17,0.4
2.86,1.03,0.18
2.74,0.97,0.2
2.66,0.98,0.24
2.85,1.02,0.12
2.95,1.06,0.2
2.97,0.9,0.22
2.74,1.03,0.25
2.64,1.06,0.28
2.75,0.94,0.25
2.66,0.97,0.05
2.81,1.02,0.23
2.64,1.03,0.25
2.78,0.97,0.2
2.72,1.21,0.34
2.82,1.01,0.15
2.78,1.24,-0.02
2.9,0.83,0.29
2.76,0.81,0.15
3.03,1,0.2
2.73,1.1,0.32
2.89,1,0.29
2.83,1.01,0.17
2.86,0.88,0.24
2.74,0.96,0.06
2.92,0.88,0.13
2.65,0.93,0.17
2.88,1.06,0.34
2.78,1.05,0.19
2.73,1.11,0.31
2.76,1.07,0.23
2.71,0.98,0.1
2.73,0.99,0.18
2.81,1.03,0.22
2.82,1.19,0.28
2.72,0.95,0.19
2.6,0.98,0.34
2.83,1.03,0.19
2.65,0.99,0.15
2.73,0.98,0.39
2.69,1.03,0.04
2.67,1,0.22
2.87,0.98,0.33
2.64,1.06,0.21
2.8,1.1,0.28
2.76,1.1,0.14
2.75,1.13,0.34
2.77,0.94,0.21
3.05,1.17,0.21
2.63,1.01,0.21
2.8,1.02,0.11
2.69,1.12,0.11
2.61,0.95,0.29
2.89,0.99,0.38
2.72,0.75,0.2
2.79,1.03,0.15
2.72,0.85,0.2
2.82,1.16,-0.03
2.82,0.86,0.21
2.56,1.11,0.16
2.75,1.09,0.22
2.82,0.98,0.26
2.6,1.07,0.32
2.6,0.96,0.12
2.79,1.07,0.23
2.73,1.05,0.16
2.77,1.06,0.17
2.89,0.83,0.14
2.69,0.95,0.2
2.83,1.11,0.25
2.57,0.75,-0.02
2.75,1.15,0.09
2.76,0.95,0.4
2.74,1.15,0.25
2.73,0.88,-0.01
2.68,0.86,0.15
2.69,0.94,0.15
2.64,0.89,0.21
2.73,1.1,0.16
2.64,1.03,0.29
2.65,0.98,0.12
2.66,1.1,0.31
2.97,0.99,0.28
2.79,0.99,0.5
2.68,1.11,0.17
2.69,0.94,0.23
2.87,0.95,0.15
2.8,1.04,0.23
2.76,1.17,0.15
2.71,0.87,0.11
2.86,0.93,0.16
2.91,1.15,0.21
2.72,1.07,0.33
2.89,1.03,0.23
2.8,1,0.21
2.8,0.96,0.46
2.76,1.03,0.5
2.82,0.83,0.19
2.82,1.1,0.17
2.74,0.97,0.08
2.63,1.03,0.03
2.76,1,0.17
2.83,1.12,0.23
2.67,0.98,0.13
2.68,0.93,0.12
2.68,0.9,0.13
2.75,1,0.24
2.57,0.82,0.06
2.77,1.13,0.18
2.63,1.07,0.17
2.84,1.22,0.29
2.84,0.96,0.2
2.73,1.06,0.34
2.62,1.11,0.29
2.64,0.97,0.34
2.87,1.17,0.14
3.01,1.18,0.29
2.83,1.04,0.18
2.74,1.04,0.13
2.81,0.91,0.2
2.51,0.92,0.23
2.82,0.99,0.24
2.78,0.95,0.44
2.74,1.14,0.28
2.6,1.12,0.29
2.8,0.88,0.28
2.72,0.99,0.34
2.62,0.93,0.17
2.66,1.01,0.22
2.62,1.03,0.36
2.83,0.83,0.24
2.87,0.93,0.06
2.79,1,0.34
2.58,0.96,0.04
2.68,1.2,0.15
2.75,1.1,0.22
2.98,0.92,0.3
2.65,0.93,0.17
2.74,1,-0.06
2.74,1.02,0.21
2.7,1.21,0.1
2.75,1.03,0.22
2.73,1.14,0.18
2.79,0.93,0.29
2.81,1.11,0.09
2.64,1.08,0.14
2.8,0.96,0.26
2.8,1.01,0.13
2.63,0.88,0.15
2.69,0.94,0.23
2.86,1.04,0.25
2.75,0.96,0.26
2.72,0.93,0.18
2.77,1,0.2
2.82,1.13,0.22
2.87,1.05,0.29
2.71,1.25,0.21
2.68,1.01,0.2
2.87,1.2,0.17
2.71,0.88,0.19
2.87,1.05,0.28
2.81,0.87,0.26
2.85,0.83,0.17
2.68,1.14,0.1
2.89,1.08,0.2
2.71,0.86,0.18
2.62,1.18,0.25
2.7,1.01,0.2
2.76,1.06,0.29
2.78,1.01,0.02
2.74,0.98,0.27
2.75,0.95,0.08
2.73,1.1,0.22
2.81,0.94,0.17
2.71,0.86,0.2
2.68,0.89,0.16
2.82,0.86,0.4
2.77,1.11,0.17
2.71,0.9,0.2
2.82,1.22,0.33
2.8,1.05,0.11
2.57,0.92,0.13
2.69,0.99,0.17
2.71,0.92,0.11
2.81,1.11,0.18
2.7,0.93,0.39
2.78,1.03,0.16
2.78,0.95,0.14
2.9,0.95,0.1
2.82,0.8,0.05
2.74,1.04,0.15
2.66,1.03,0.32
2.66,0.95,0.08
2.67,0.99,0.22
2.87,1.04,0.03
2.62,0.95,0.2
2.68,1.09,0.28
2.75,1.02,0.2
2.78,1.08,0.17
2.66,0.98,0.16
2.82,0.83,0.09
2.86,1.08,0.25
2.72,1,0.1
2.73,0.99,0.22
2.84,1.03,0.23
2.88,0.93,0.38
2.6,0.84,0.31
2.8,1.14,0.18
3,1.1,0.3
2.75,1.01,0.27
2.82,0.88,0.3
2.71,0.86,0.02
2.85,0.98,0.29
2.61,1.22,0.35
2.75,1.17,0.13
2.96,1.13,0.19
2.77,0.96,0.14
2.68,1.03,0.2
2.81,0.99,0.26
2.78,1.06,0.28
2.51,1.06,0.23
2.64,1.12,0.22
2.73,0.92,0.07
2.76,1.03,0.08
2.88,0.97,0.15
2.74,0.93,0.09
2.84,1.05,0.14
2.7,0.89,0.29
2.9,0.92,0.06
2.66,0.92,0.24
2.5,1.01,0.19
2.73,0.75,0.47
2.64,1.04,0.17
2.74,0.98,0.22
2.78,0.99,0.19
2.81,1.18,0.27
2.63,0.97,0.04
2.91,0.96,0.35
2.59,1,0.28
2.61,0.84,0.3
2.83,1.02,0.25
2.73,1.08,0.26
2.54,1.09,0.15
2.73,0.87,0.12
2.77,0.96,0.18
2.92,1.04,0.11
2.82,0.9,0.27
2.79,1.03,0.15
2.57,0.86,0.25
2.67,1.08,0.09
2.83,1.01,0.26
2.82,1.1,0.07
2.89,1.05,0.15
2.94,0.98,-0.07
2.85,0.87,0.25
2.67,0.93,0.13
2.8,1.26,0.11
2.74,1.07,0.39
2.8,1.23,0.25
2.66,1.07,0.02
2.78,0.99,0.31
2.83,1.08,0.03
2.82,1.04,0.14
2.79,1.09,0.31
2.93,0.98,0.2
2.58,1.2,0.29
2.7,0.99,0
2.69,0.95,0.16
2.71,1.02,0.24
2.78,0.79,0.23
2.71,1.04,0.13
2.75,0.9,0.35
2.77,0.95,0.22
2.7,1.05,0.27
2.85,0.87,0.05
2.68,1.08,0.27
2.61,0.93,0.12
2.84,1.09,0.1
2.83,1.22,0.19
2.68,1.08,0.18
2.73,1.08,0.13
2.74,1.28,0.15
2.68,0.91,0.12
2.71,1.07,0.21
2.87,1.01,0.25
2.61,1.12,0.26
2.63,1.11,0.21
2.83,1.15,-0.04
2.67,1.08,0.18
2.81,1.03,0.22
2.81,0.95,0.13
2.76,1.1,0.3
2.78,1.16,0.12
2.93,1,0.16
2.71,0.93,0.19
2.73,0.97,0.19
2.77,1.12,-0.04
2.59,0.8,0.28
2.71,0.98,0.21
2.62,1.07,0.1
2.54,1,0.14
2.84,1.03,0.05
2.81,1.19,0.31
2.82,0.98,0.08
2.76,1.21,0.3
2.74,0.99,0.29
2.56,0.94,0.41
2.78,1,0.19
2.69,0.89,0.22
2.86,0.85,0.04
2.88,1.08,0.28
2.55,0.91,0.11
2.75,0.93,0.17
2.72,0.93,0.24
2.65,1.26,0.14
2.74,1.15,0.21
2.97,0.94,0.08
2.81,0.86,0.09
2.68,1.04,0.25
2.78,1.09,0.17
2.68,0.88,0.04
2.78,0.83,0.14
2.92,0.98,0.14
2.87,1.09,0.36
2.79,0.97,0.15
2.77,0.9,0.34
2.64,1.19,0.21
2.61,1.03,0.29
2.81,0.88,-0.01
2.83,0.9,0.42
2.85,0.8,0.06
2.82,1.08,0.46
2.66,1.07,0.17
2.93,1.07,0.02
2.78,0.99,0.51
2.84,1.08,0.33
2.78,1.2,0.33
2.72,1,0.28
2.81,1.06,0.18
2.94,0.9,0.4
2.65,1.1,-0
2.74,0.96,0.12
2.72,1.2,0.35
2.8,0.95,0.31
2.68,1.02,0.26
2.76,0.88,0.23
2.86,1,0.15
2.53,0.8,0.15
2.65,1.04,0.17
2.69,1.01,-0.04
2.74,1,0.15
2.72,1.01,0.19
2.74,0.94,0.15
2.78,0.89,0.18
2.63,1.17,0.26
2.66,0.89,0.19
2.72,1.08,0.06
2.69,1.04,0.2
2.62,1.08,0.16
2.67,0.98,-0.01
2.77,1.03,0.07
2.74,0.93,0.17
2.84,1.15,0.13
2.65,1.18,0.21
2.99,1.02,0.38
2.65,0.83,0.16
2.7,1.03,0.18
2.73,1.09,0.21
2.84,1.12,0.07
2.74,0.95,0.28
2.78,0.83,0.21
2.85,0.96,0.33
2.68,1.07,0.32
2.66,1.06,0.23
2.88,1.02,0.1
2.89,1.1,0.19
2.66,1.09,0.13
2.67,1.1,0.12
2.96,1.12,0.27
2.86,0.82,0.1
2.67,0.89,0.23
2.97,0.88,-0.1
2.72,1.02,0.19
2.69,1.2,0.27
2.76,1.11,0.02
2.88,1.13,0.06
2.7,0.77,0.27
2.85,0.93,0.24
2.57,1.05,0.2
2.74,1.05,0.27
2.71,1.04,0.18
2.84,0.93,0.22
2.81,0.89,0.2
2.64,0.94,0.22
2.67,0.94,0.19
2.79,0.9,0.21
2.81,0.96,0.12
2.85,0.9,0.31
2.82,0.91,0.31
2.68,1.08,0.08
2.57,1.08,0.25
2.75,1.01,0.03
2.73,1,0.39
2.83,1.11,0.27
2.75,0.94,0.12
2.72,1.13,0.24
2.75,1.05,0.29
2.76,1.12,0.16
2.79,0.97,0.27
2.68,1.04,0.18
2.68,0.87,0.24
2.51,1.15,0.17
2.8,1.14,0.08
2.9,1.14,0.13
2.86,1.01,0.38
2.77,1.05,0.23
2.66,1.15,0.14
2.61,1.11,0.24
2.69,0.95,0.16
2.78,0.75,0.14
2.78,0.86,0.2
2.8,0.91,0.12
2.81,1.07,0.19
2.77,0.79,0.18
2.62,0.91,0.28
2.68,1.1,0.12
2.68,0.89,0.12
2.75,0.96,-0.04
2.7,1,0.2
2.63,1.15,0.12
2.86,0.89,0.16
2.66,1.1,0.29
2.77,1.11,0.08
2.64,0.95,0.17
2.74,0.92,0.05
2.86,1.02,0.26
2.61,0.95,0.05
2.74,1.01,0.23
2.74,0.92,0.29
2.72,0.99,0.12
2.82,0.81,0.07
2.78,0.97,0.23
2.72,0.92,0.15
2.64,1.1,0.18
2.76,1.07,0.17
2.65,0.98,0.21
2.72,0.94,0.14
2.66,1,0.2
2.76,1.04,0.27
2.88,0.99,0.14
2.64,0.94,0.11
2.72,0.92,0.1
2.55,0.87,0.19
2.8,1.03,0.18
2.7,0.92,0.12
2.63,0.96,0.36
2.74,0.93,0.2
2.74,1.03,0.34
2.61,1.25,0.26
2.66,1.03,0.12
2.76,0.85,0.37
2.55,0.91,0.16
2.63,0.98,0.24
2.81,0.77,0.25
2.7,1.09,0.35
2.71,1.02,0.05
2.69,1.03,0.18
2.86,1.03,0.21
2.56,0.78,0.07
2.64,1.22,0.23
2.91,1.14,0.02
2.9,1.02,0.02
2.74,0.93,0.26
2.74,0.95,0.23
2.74,0.92,0.26
2.76,0.91,0.17
2.73,0.95,0.11
2.78,1.07,0.11
2.64,0.99,0.13
2.75,0.89,0.02
2.87,0.77,0.18
2.8,0.86,0.14
2.64,0.9,-0.01
2.61,1.14,0.16
2.71,0.86,0.19
2.66,1.2,0.24
2.64,1.03,0.08
2.56,1.12,0.09
2.63,0.99,0.37
2.69,1.19,0.31
2.62,0.92,0.29
2.72,0.92,0.27
2.78,1.18,0.35
2.79,1.26,0.28
2.66,0.82,0.08
3.06,0.98,0.29
2.66,1.02,0.32
2.95,1.03,0.23
2.66,1.01,0.34
3.02,1.15,0.2
2.64,0.95,0.28
2.73,0.94,0.04
2.74,0.86,0.36
2.83,1.08,0.34
2.78,1.07,0.1
2.89,1.03,0.28
2.6,0.9,0.14
2.76,1.27,0.06
2.72,1.15,0.33
2.86,0.92,0.24
2.92,0.96,0.06
2.58,0.96,0.17
2.64,0.84,0.16
2.62,1.02,0.1
2.85,0.97,0.16
2.69,0.92,0.21
2.98,1.18,0.22
2.81,0.97,0.3
2.76,1.03,0.09
2.78,1.13,0.47
2.81,0.85,0.19
2.76,1,0.11
2.76,0.97,0.13
2.76,1.11,0.24
2.73,1.06,0.23
2.85,0.82,0.11
2.83,1.13,0.23
2.84,0.89,0.43
2.85,1.11,0.01
2.53,0.97,0.21
2.87,0.87,0.24
2.67,0.96,0.33
2.58,1.2,0.35
2.68,0.9,0.24
2.79,0.94,0.23
2.64,1.06,0.22
2.54,1.27,0.17
2.86,0.94,0.23
2.81,0.92,0.2
2.78,0.9,0.19
2.89,1.02,0.16
2.78,1.04,0.14
2.79,0.87,-0.04
2.83,1.02,0.22
2.84,1.09,0.18
2.64,1,0.17
2.86,1.02,0.25
2.79,1.01,0.09
2.85,1.12,0.29
2.76,0.97,0.3
2.78,1.09,0.23
2.89,0.98,0.17
2.53,1.07,0.25
2.88,0.98,0.18
2.77,0.98,0.18
2.8,0.88,0.18
2.92,0.99,0.21
2.71,0.93,0.1
2.82,1.02,0.29
2.63,1.1,0.16
2.58,1.09,0.35
2.75,1.07,0.2
2.76,1.16,0.24
2.74,0.86,0.17
2.76,0.88,0.18
2.72,0.94,0.3
2.73,1.04,0.32
2.88,0.97,0.25
2.74,0.97,0.2
2.84,1.08,0.24
2.75,0.96,0.24
2.64,1,0.21
2.89,1.16,0.26
2.76,0.9,0.38
2.8,0.99,0.2
2.72,0.93,0.13
2.83,0.99,0.28
2.69,1.15,0.12
2.79,0.99,0.29
2.8,1.17,0.08
2.69,1.1,0.15
2.79,1.3,0.37
2.82,0.98,0.21
2.71,0.68,0.22
2.65,1.18,0.14
2.88,1.08,0.34
2.91,1.03,0.18
3.02,1.06,0.33
2.67,0.99,0.19
2.63,1.12,0.26
2.75,0.95,0.26
2.73,1.1,0.22
2.65,1.07,0.24
2.63,1.11,0.19
2.96,1.03,0.27
2.75,0.83,0.2
2.65,1.03,0.36
2.55,1.04,0.13
2.58,0.99,0.23
2.83,0.91,0.29
2.92,0.98,0.03
2.82,1.13,0.21
2.71,0.92,0.18
2.78,1,0.14
2.87,1.14,0.17
2.82,0.99,0.07
2.96,0.99,0.31
3.08,1.13,0.11
2.64,0.75,0.25
2.77,1.08,0.13
2.72,1.03,0.19
2.68,0.99,0.29
2.64,0.97,0.14
2.91,1.08,0.13
2.56,0.88,0.04
2.87,0.98,0.27
2.71,0.89,0.1
2.88,0.85,0.08
2.59,0.86,0.2
2.74,0.87,0.12
2.73,1.11,-0.04
2.63,1.03,0.1
2.8,0.91,0.42
2.69,0.86,0.03
2.72,1.08,0.11
2.64,0.99,0.07
2.86,0.96,0.54
2.78,1.02,0.25
2.95,1,0.28
2.76,0.96,0.35
2.68,1.02,0.18
2.64,0.87,0.35
2.81,0.91,0.01
2.81,1.06,0.19
2.72,1.11,0.22
2.74,1.04,0.18
2.84,1.06,0.17
2.85,1.05,0.18
2.78,0.98,0.13
2.66,1.06,0.1
2.72,0.9,0.14
2.66,1.04,0.14
2.88,1.1,0.3
2.66,0.99,0.23
2.75,1.06,0.13
2.71,0.85,0.13
2.91,1.13,0.22
2.62,0.99,0.25
2.87,0.8,0.18
2.72,0.89,0.33
2.78,1.19,0.33
2.81,0.99,0.29
2.8,0.77,0.22
2.87,0.97,0.21
2.64,1.13,0.16
2.79,1.04,0.23
2.69,0.69,0.06
2.68,1.17,0.35
2.73,1.15,0.21
2.74,1.02,0.15
2.6,1.13,0.29
2.55,0.94,0.36
2.75,1.03,0.19
2.63,1.01,0.08
2.9,1.14,0.32
2.74,0.86,0.25
2.76,1.01,0.21
2.74,0.96,0.02
2.66,1.06,0.01
2.75,0.88,0.25
2.69,0.87,0.09
2.83,0.91,0.24
2.73,1.13,0.16
2.73,0.89,0.28
2.7,0.98,0.4
2.85,0.78,0.25
2.78,0.9,0.21
2.69,1.16,0.35
2.94,0.9,0.07
2.81,0.89,0.15
2.76,0.98,0.16
2.76,1.2,0.29
2.77,0.97,0.1
2.83,1.08,0.16
2.78,1.04,-0.08
2.75,1.03,0.22
2.7,0.86,0.12
2.81,0.99,0.37
2.68,0.95,0.45
2.93,1.02,0.33
2.81,0.97,0.34
2.8,1.05,0.14
2.76,1.06,0.23
2.69,1.13,0.14
2.64,1.02,0.19
2.83,1.11,0.14
2.87,0.99,0.22
2.67,0.99,0.22
2.67,1.02,0.26
2.73,1.01,0.24
2.7,0.88,0.49
2.66,1.12,0.27
2.96,1.15,0.26
2.87,1.06,0.38
2.7,0.93,0.1
2.58,0.91,0.09
2.82,0.92,0.17
2.81,1.03,0.18
2.73,0.91,0.28
2.9,1.09,0.22
2.81,0.98,0.28
2.82,1.02,0.18
2.88,0.83,0.07
2.81,0.9,0.11
2.71,1.07,0.07
2.8,1.04,0.2
2.7,0.9,0.28
2.63,0.99,0.25
2.64,0.93,0.23
2.67,0.93,0.18
2.54,0.97,0.28
2.61,0.84,0.15
2.79,1.07,0.29
2.62,0.91,0.24
2.85,1.08,0.17
2.77,0.84,0.09
2.66,0.9,0.22
2.79,0.84,0.02
2.82,0.9,0.35
2.74,1.09,0.08
2.81,0.96,0.22
2.89,0.94,0.25
2.87,1,0.17
2.81,0.97,0.18
2.76,1.09,0.14
2.78,0.97,0.29
2.62,0.9,0.14
2.75,0.83,0.3
2.78,1.26,0.23
2.76,0.9,0.23
2.71,0.98,0.32
2.83,1.02,0.15
2.8,1.02,0.38
2.87,1.07,0.02
2.76,0.82,0.11
2.64,0.96,0.16
2.67,1.02,0.12
2.79,0.94,0.23
2.89,1.15,0.16
2.88,1.03,0.15
2.7,0.99,0.03
2.9,1.02,0.26
2.78,1.04,0.17
2.76,1.19,0.04
2.88,1.11,0.11
2.71,0.98,0.3
2.63,0.93,0
2.79,0.98,0.29
2.68,1,0.24
2.76,0.93,0.14
2.73,0.99,0.26
2.57,0.96,0.12
2.56,1.06,0.23
2.8,0.81,0.12
2.66,0.7,0.31
2.78,0.88,0.3
2.59,1.04,0.05
2.7,0.99,0.12
2.87,0.89,0.25
2.67,0.92,0.11
2.73,0.95,0.2
2.87,1.13,0.28
2.87,0.95,0.33
2.62,0.81,0.36
2.68,0.95,0.15
2.81,0.99,0.12
2.74,0.93,0.02
2.8,1.05,0.17
2.66,1.04,0.23
2.84,1.04,0.23
2.69,1.01,0.13
2.68,0.93,0.26
2.67,0.95,0.16
2.74,1.03,0.14
2.79,1.07,0.26
2.71,0.89,0.19
2.63,0.99,0.24
2.64,1.17,0.16
2.67,0.91,0.12
2.79,0.96,0.11
2.93,1,0
2.86,0.93,0.22
2.81,1.13,0.09
2.65,1.01,0.08
2.78,1.04,0.15
2.53,0.95,0.29
2.56,1.02,0.11
2.67,0.96,0.14
2.69,0.98,0.3
2.76,0.97,0.23
2.79,1,0.16
2.71,0.97,0.17
2.99,1.01,0.27
2.78,0.93,0.22
2.77,0.89,0.01
2.7,1,0.07
2.86,1.08,0.06
2.8,0.92,0.18
2.74,0.99,0.2
2.93,0.94,0.16
2.69,0.91,0.15
2.77,0.97,0.25
2.68,0.99,0.23
2.92,0.92,0.17
2.78,0.83,0.29
2.64,1.06,0.13
2.64,0.92,0.15
2.62,1.3,0.06
2.72,0.91,0.19
2.8,0.85,0.1
2.82,0.9,0.38
2.62,0.96,0.17
2.6,1.04,0.12
2.73,1.04,0.27
2.74,0.96,0.22
2.59,0.87,0.17
2.78,1.02,0.34
2.66,1,0.36
2.75,0.88,0.35
2.87,1.04,0.17
2.94,1.03,0.19
2.59,0.84,0.07
2.61,1.06,0.07
2.84,1.14,0.12
2.73,0.99,0.31
2.79,1.01,0.16
2.78,0.96,0.34
2.77,0.79,0.1
2.92,0.84,0.18
2.56,1.05,0.18
2.86,1.07,0.2
2.82,1.04,0.02
2.62,1.12,0.26
2.55,0.94,0.2
2.8,1.18,0.19
2.71,1.13,0.16
2.81,0.97,0.22
2.69,1.04,0.27
2.84,0.93,0.26
2.59,0.88,0.15
2.55,1.12,0.29
2.66,0.97,0.35
2.59,0.9,0.35
2.75,0.92,0.35
2.84,1.02,0.07
2.67,0.9,0.08
2.61,1.04,0.19
2.92,1,0.42
2.68,0.97,0.24
2.69,1.12,0.26
2.76,1.01,0.31
2.89,1.01,0.15
2.74,0.82,0.08
2.61,1.1,0.18
2.72,1.1,0.16
2.75,1.1,0.2
2.99,0.91,0.06
2.73,0.95,0.32
2.62,1.01,0.25
3,0.98,0.3
2.59,1.03,0.16
2.82,0.96,0.23
2.63,0.95,0.29
2.73,1.11,0.31
2.85,1,0.27
2.98,0.99,-0.01
2.7,0.97,0.3
2.77,0.96,0.38
2.65,0.94,0.16
2.9,1.13,0.24
2.73,0.87,0.06
2.89,1.05,0.04
2.69,0.97,0.2
2.77,0.93,0.26
2.86,1.08,0.13
2.84,0.9,0.12
2.72,1.18,0.24
2.6,1.03,0.32
3.03,0.94,0.29
2.87,1.09,0.2
2.86,0.88,0.15
2.82,0.88,0.25
2.7,1,0.35
2.76,0.92,0.34
2.73,1.02,0.17
2.63,1.07,0.17
2.79,0.93,0.19
2.6,0.99,0.21
2.7,1.08,0.16
2.72,1.18,0.23
2.72,0.98,0.25
2.72,0.89,0.21
2.74,0.98,0.05
2.64,0.9,0.24
2.71,1.04,0.06
2.78,0.87,0.2
2.7,0.96,0.19
2.88,0.94,0.27
2.66,1.04,0.35
2.86,1.15,0.11
2.69,1.02,0.11
2.7,1.12,0.2
2.94,0.97,0.02
2.78,1.07,0.21
2.81,1.08,0.22
2.79,1.16,0.4
2.89,0.95,0.15
2.88,0.96,0.11
2.76,1.11,0.42
2.48,1.15,0.24
2.79,0.96,0.06
2.86,0.96,0.22
2.88,1.02,0.29
2.88,1.15,0.2
2.69,0.98,0.29
2.92,0.94,0.09
2.81,0.86,0.32
2.85,0.94,0.21
2.67,1.01,0.25
2.82,0.86,0.18
2.7,1.07,0.18
2.89,0.86,0.28
2.76,0.85,0.04
2.9,1.08,0.32
2.69,1,0.27
2.86,0.91,0.18
2.66,1.19,0.14
2.73,1.16,0.23
2.75,1.06,0.15
2.73,1.06,0.07
2.66,1.17,0.1
2.65,0.97,0.29
2.63,1.1,0.29
2.93,0.97,0.31
2.66,0.86,0.21
2.92,0.97,-0.02
2.62,0.95,0.18
2.79,0.91,0.26
2.79,1.22,0.26
2.85,1.18,0.15
2.67,1.06,0.28
2.87,0.92,0.27
2.61,0.97,0.18
2.52,0.99,0.15
2.71,1.02,0.49
2.74,0.75,0.28
2.58,1,0.14
2.88,1.02,-0.01
2.73,1.1,0.08
2.66,1.1,0.16
2.75,1.15,0.11
2.85,0.97,0.13
2.89,1.14,0.33
3.01,1.15,0.12
2.9,0.94,0.23
2.82,1.12,0.22
2.73,1.14,0.31
2.7,0.85,0.25
2.45,1.03,0.35
2.73,0.88,0.16
2.78,0.99,0.1
2.7,0.93,0.19
2.75,0.94,0.15
2.76,1.02,0.36
2.76,1.07,0.2
2.87,1.04,0.24
2.68,1.1,0.42
2.49,1.02,0.13
2.75,1.06,0.13
2.61,1.08,0.21
2.91,1.14,0.19
2.67,1.15,0.32
2.64,1.05,0.33
2.77,0.89,0.1
2.76,1.05,0.29
2.83,0.97,0.26
2.62,1.03,0.34
2.89,1,0.15
2.74,1.12,0.27
2.66,0.98,0.05
2.75,0.9,0.21
2.8,0.92,0.25
2.73,1.12,0.09
2.8,1.19,0.06
2.77,1.09,0.04
2.74,0.95,0.01
2.74,0.93,0.05
2.74,1.04,0.15
2.58,1.16,0.25
2.87,1.13,0.21
2.79,0.7,0.22
2.75,0.99,0.11
2.68,0.93,0.16
2.63,0.93,0.21
2.63,1.04,0.17
2.65,0.96,0.35
2.85,0.87,0.34
2.88,0.94,0.19
2.83,1.2,0.08
2.82,0.97,0.32
2.68,1.01,0.27
2.57,0.91,0.23
2.58,1.06,0.31
2.73,1.15,0.22
2.69,1,0.06
2.8,1.01,-0.01
2.77,0.97,0.26
2.65,0.88,0.08
2.63,1.1,0.11
2.83,1.11,0.36
2.88,1.13,0.1
2.81,1.08,0.38
2.69,1.07,0.31
2.81,1.27,0.23
2.54,1.15,0.34
2.74,0.99,0.31
2.79,1.02,0.33
2.83,1.12,0.14
2.64,0.8,0.2
2.67,1.13,0.14
2.78,1.03,0.09
2.67,0.84,0.01
2.81,0.95,0.18
2.78,1.1,0.22
2.71,1.05,0.16
2.75,1.05,0.17
2.87,1.05,0.19
2.79,0.99,0.14
2.67,1.15,0.11
2.79,1.02,0.32
2.56,1.06,0.14
2.92,1.07,0.33
2.64,1.15,0.23
2.84,0.88,0.15
2.73,0.88,0.15
2.76,0.93,0.23
2.78,1.12,0.19
2.85,0.93,0.2
2.78,1.11,0.23
2.73,1.05,0.13
2.74,1.08,0.3
2.78,0.97,0.26
2.63,1.07,0.23
3.04,1.06,0.32
2.83,1.16,0.22
2.69,1.04,0.12
2.81,0.96,0.16
2.81,0.84,0.23
2.65,0.87,0.19
2.49,0.94,0.11
2.7,1.07,0.06
2.68,1.04,-0.01
3.02,0.98,0.24
2.75,1.01,0.12
2.61,1.23,0.12
2.63,0.95,0.07
2.81,1.13,0.05
2.98,0.86,0.33
2.65,0.9,0.33
2.92,1.02,0.26
2.82,1.2,0.26
2.71,1.06,0.26
2.92,0.95,0.28
2.72,0.89,0.25
2.6,0.95,0.13
2.71,1.07,0.26
2.68,1.07,0.31
2.61,0.96,0.21
2.53,1.02,0.39
2.66,0.99,0.15
2.82,0.96,0.09
2.91,1.02,0.2
2.79,0.98,0.18
2.8,1.18,0.14
2.72,0.94,0.22
2.6,0.74,0.09
2.88,0.85,0.12
2.7,0.94,0.14
2.84,0.9,0.14
2.69,0.88,0.15
2.72,1.09,0.24
2.67,0.86,0.12
2.68,1.12,0.15
2.7,1,0.25
2.89,0.95,0.08
2.58,1.13,0.27
2.72,0.89,0.26
2.78,0.94,0.25
2.89,0.81,0.23
2.71,0.88,0.27
2.92,1.1,0.04
2.76,0.92,0.1
2.49,1.02,0.23
2.75,1.13,0.45
2.86,0.98,0.29
2.83,0.92,0.15
2.77,0.89,0.16
2.73,0.94,0.18
2.75,1.03,0.23
2.8,0.96,0.16
2.64,0.91,0.34
2.86,0.99,0.23
2.89,0.99,0.04
2.76,0.92,0.22
2.86,1.11,0.24
2.65,1.01,0.14
2.79,0.87,0.24
2.96,0.97,0.17
2.6,0.97,0.23
2.74,1.14,0.23
2.65,0.95,0.23
2.67,0.84,0.14
2.7,0.97,-0.03
2.68,0.93,0.23
2.85,0.94,0.29
2.63,1.05,0.17
2.66,1.03,0.02
2.95,0.93,0.23
2.96,0.98,0.22
2.55,1.1,0.29
2.83,1.04,0.32
2.66,0.9,0.31
2.75,1.11,-0.05
2.67,1.03,0.19
2.88,0.98,0.33
2.79,0.95,0.17
2.61,1.24,0.3
2.93,0.92,0.22
2.92,1.19,0.08
2.76,1.07,0.23
2.64,1.06,0.09
2.8,0.94,0.32
2.72,1.05,0.2
2.56,1.03,0.21
2.67,1.06,0.35
2.89,0.88,0.31
2.83,0.91,0.01
2.8,0.81,0.2
2.85,1.01,0.01
2.92,1.09,0.21
2.66,0.79,0.15
2.8,1.08,0.27
2.86,0.8,0.22
2.77,0.86,0.22
2.88,1.13,0.21
2.69,1.21,0.33
2.78,0.97,0.13
2.79,0.85,0.15
2.96,0.95,0.22
2.88,0.91,0.28
2.79,1.07,0.25
2.51,0.93,0.37
2.58,0.92,0.14
2.85,1.05,0.32
2.69,0.84,0
2.91,0.98,0.22
2.69,1.03,0.22
2.87,0.97,0.21
2.71,0.93,0.16
2.72,0.92,0.33
2.71,0.99,0.28
2.84,0.97,0.27
2.7,0.91,0.09
2.63,1.18,0.15
2.8,0.9,0.09
2.72,0.94,0.36
2.93,1.17,0.21
2.85,1.05,0.16
2.71,1.06,0.28
2.7,1.09,0.07
2.72,0.93,0.09
2.73,0.98,0.01
2.72,0.88,0.28
2.68,0.91,0.18
2.73,1.02,0.36
2.86,1.15,0.08
2.8,0.91,0.26
2.84,1.03,0.24
2.65,0.98,0.19
2.79,0.93,0.23
2.63,0.96,0.31
3.05,1.19,0.29
2.79,0.92,0.09
2.82,0.94,0.16
2.74,0.93,0.19
2.71,0.95,0.19
2.86,0.85,0.2
2.57,0.93,0.38
2.84,0.98,0.13
2.82,1.05,0.12
2.79,0.96,0.2
2.59,1.3,0.12
2.9,1.13,0.43
2.83,0.92,0.16
2.61,1.04,0.32
2.87,1.06,0.11
2.86,1.05,0.35
2.83,1.18,0.22
2.74,1.14,0.12
2.77,1.01,0.14
2.73,0.92,0.33
2.55,1.06,0.06
2.64,1.01,0.14
2.88,0.91,0.15
2.9,1.13,0.07
2.8,1.09,0.12
2.73,0.96,0.2
2.91,0.87,0.3
2.7,0.97,0.11
2.61,1.3,0.18
2.77,0.9,0.15
2.7,1.13,0.25
2.64,0.97,0.26
2.76,0.99,0.19
2.85,1.05,0.33
2.78,0.91,0.11
2.69,0.99,0.16
2.65,1.03,0.23
2.67,1.1,0.25
2.69,1,0.16
2.76,0.92,0.26
2.85,1.1,0.3
2.76,1.12,0.18
2.77,1,0.17
2.77,0.9,0.34
2.65,0.88,-0.04
2.69,0.9,0.27
2.68,1.04,0.22
2.74,1.03,0.09
2.84,0.95,0.15
2.69,1.02,-0.02
2.8,1.04,0.24
2.66,1.04,0.18
2.9,0.99,0.05
2.76,1.16,0.18
2.75,1.03,0.26
2.68,0.89,0.15
2.57,0.75,0.14
2.77,1.36,0.09
2.7,0.95,0.25
2.68,0.88,0.23
2.84,1.07,0.12
2.68,0.93,0.2
2.82,1.13,0.29
2.86,0.97,0.29
2.84,0.83,0.3
2.79,0.9,0.27
2.75,0.9,0.29
2.74,1.13,0.26
2.64,1.01,0.29
2.9,1.01,0.2
2.95,1.13,0.11
2.69,0.99,0.18
2.67,0.97,0.13
2.63,1.11,0.08
2.64,1.13,0.33
2.82,1.19,0.32
2.79,1.11,0.21
2.68,0.99,-0
2.88,0.99,0.34
2.73,1.05,0.28
2.56,0.73,0.09
2.73,1.19,0
2.89,1.18,0.05
2.72,1.05,0.15
2.64,1.06,0.28
2.65,1.09,0.18
2.85,0.95,0.13
2.79,0.95,0.14
2.61,1.17,0.28
2.76,1.1,0.3
2.71,0.85,0.07
2.81,0.97,0.3
2.64,1.01,-0.01
2.86,1.13,0.28
2.72,1.05,0.16
2.76,0.99,0.28
2.93,1.01,0.4
2.84,1.05,0.17
2.73,1.07,0.17
2.67,1.06,0.07
2.75,0.94,0.26
2.65,1.24,0.24
2.92,0.92,0.24
2.83,1.01,0.25
2.78,1.05,0.18
2.41,1.04,0.18
2.69,0.98,0.25
2.65,1.01,0.02
2.62,0.91,0.21
2.77,1.18,0.33
2.55,0.93,0.1
2.82,1.01,0.32
2.81,1.06,0.31
2.61,0.83,0.24
2.67,0.99,-0.05
2.72,0.99,0.33
2.47,0.99,0.22
2.8,0.96,0.11
2.84,1.09,0.18
2.72,1.02,0.28
2.79,0.93,0.04
2.76,1.07,0.35
2.78,1.08,0.18
2.78,1.03,0.09
2.55,0.95,-0.02
2.86,0.9,0.28
2.91,0.96,0.28
2.77,0.99,0.23
2.78,0.88,0.2
2.59,1,0.22
2.88,1.1,0.15
2.49,0.96,0.32
2.88,1.12,0.25
2.74,0.88,0.25
2.66,1.09,0.29
2.72,0.94,0.22
2.72,0.95,0.14
2.63,1.08,0.33
2.69,1.07,0.39
2.86,0.84,0.26
2.63,0.93,0.14
2.83,0.93,0.12
2.69,0.8,0.18
2.64,1.15,0.24
2.66,1.04,0.26
2.63,0.93,0.09
2.73,0.93,0.11
2.83,1.02,-0.03
2.7,0.89,0.31
2.79,0.9,0.21
2.85,0.85,0.26
2.75,1.18,0.17
2.8,0.96,0.2
2.69,1.1,0.33
2.78,0.96,0.16
2.84,0.93,0.21
2.79,1.03,0.24
2.83,0.97,0.17
2.81,0.94,0.12
2.75,0.91,0.27
2.84,1.01,0.13
2.68,1.16,0.22
2.92,0.89,0.16
2.72,1.03,0.19
2.79,0.93,0.3
2.76,0.91,0.15
2.81,1.04,0.37
2.63,1.01,0.02
2.93,0.84,0.36
2.87,1.17,0.08
2.72,1.11,0.25
2.65,0.93,0.22
2.75,0.99,0.26
2.6,1.25,0.07
2.85,0.9,0.21
2.86,1.08,0.17
2.69,1.06,0.41
2.9,0.9,0.19
2.81,1.05,0.11
2.77,0.94,0.27
2.93,1.17,0.26
2.76,0.97,0.26
2.83,0.83,0.08
2.91,0.98,0.13
2.78,1.05,0.13
2.77,0.86,0.41
2.74,0.94,0.36
2.89,0.95,0.04
2.54,0.88,0.04
2.81,0.83,0.19
2.62,0.77,0.17
2.76,0.98,0.31
2.78,0.94,0.11
2.87,0.98,0.32
2.83,1.04,0.15
2.69,1.04,0.33
2.91,1.13,0.05
2.75,0.94,0.12
2.63,1,0.3
2.92,0.99,0.34
2.93,1.12,0.41
2.69,0.97,0.07
2.83,0.94,0.17
2.67,1.05,0.17
2.61,0.95,0.06
2.63,0.88,0.08
2.61,0.92,0.33
2.87,1.24,0.14
2.69,0.8,0.19
2.65,0.95,0.24
2.97,0.99,0.18
2.93,0.99,0.42
2.79,1.05,0.12
2.76,1.06,0.46
2.88,0.98,-0.05
2.74,0.93,0.17
2.68,0.98,0.24
2.83,1.01,0.24
2.8,1.15,0.22
2.71,1.06,0.05
2.84,0.98,0.12
2.81,0.95,0.08
2.73,1.18,0.17
2.84,0.9,0.18
2.76,0.9,0.12
2.84,0.92,0.29
2.76,1.15,0.3
2.74,0.79,0.27
2.78,1,0.2
2.59,1.1,0.3
2.75,1.17,0.15
2.87,0.91,0.27
2.48,0.96,0.25
2.72,0.9,0.1
2.79,1.16,0.05
2.59,1,0.14
2.58,0.9,0.23
2.89,0.84,0.13
2.77,0.84,0.08
2.79,0.99,0.3
2.7,1.1,-0
2.81,0.92,0.18
2.68,1.07,0.13
2.64,1.05,0.06
2.82,1.06,0.15
2.72,0.89,0.18
2.87,1.09,0.17
2.75,0.92,0.16
3.02,0.81,0.18
2.8,0.87,0.08
2.78,0.97,0.16
2.74,1.05,0.41
2.86,1.04,0.25
2.73,1.02,0.16
2.78,0.82,0.15
2.88,1.13,0.09
2.7,1.2,0.02
2.87,1.08,0.11
2.71,0.97,0.14
2.85,0.97,0.2
2.76,1.17,0.21
2.67,0.79,0.02
2.63,0.9,0.24
2.83,0.98,0.21
2.73,1.08,0.24
2.76,0.85,0.26
2.83,0.82,0.34
2.6,0.94,0.2
2.94,1,0.24
2.75,0.84,0.2
2.79,1.08,0.14
2.83,0.94,0.04
2.79,0.91,0.2
2.78,0.94,0.43
2.71,1.02,-0.05
2.78,1.12,0.07
2.59,1.05,-0.04
2.8,1.02,0.14
2.69,1.22,0.23
2.87,1,0.26
2.6,0.88,0.24
2.7,0.92,0.06
2.73,0.97,0.19
2.87,1.19,0.05
2.9,0.84,0.07
2.9,0.99,0.21
2.68,1.03,0.16
2.73,1.03,0.22
2.72,1.12,0.29
2.77,0.97,0.15
2.7,1.02,0.07
2.81,0.87,0.32
2.88,0.9,0.06
2.82,0.93,0.19
2.69,1.09,0.21
2.79,0.93,0.04
2.81,0.98,0.4
2.68,1.1,0.07
2.76,1.07,0.05
2.74,0.95,0.29
2.66,0.77,0.23
2.95,1.1,0.01
2.78,1.07,0.16
2.76,0.93,0.23
2.63,1.1,0.18
2.74,1.06,0.19
2.9,1.08,0.09
2.72,0.92,0.23
2.71,1.04,0.27
2.81,0.99,0.22
2.5,1.04,0.23
2.79,0.98,0.14
2.87,1.09,0.07
2.79,1.02,0.19
2.85,1.03,0.23
2.78,1.16,0.29
2.72,0.88,0.18
2.74,0.89,0.19
2.75,1.05,0.19
2.73,0.9,0.2
2.65,1.1,0.27
2.76,0.99,0.12
2.81,0.98,0.2
2.75,1.08,0.33
2.8,0.98,0.04
2.79,1,0.12
2.61,0.99,0.22
2.8,0.95,0.1
2.83,0.85,0.31
2.75,1,0.12
2.71,0.93,0.15
2.81,0.99,0.26
2.76,1.02,0.26
2.72,0.97,0.26
2.7,0.91,0.15
2.88,0.87,0.38
2.95,1.04,0.11
2.83,0.83,0.28
2.76,0.99,0.34
2.59,1.02,0.28
2.97,1.12,0.07
2.8,0.82,0.18
2.82,0.84,0.08
2.88,1.01,0.24
2.67,0.99,0.22
2.72,0.89,0.01
2.63,1.11,0.16
2.73,1.04,0.39
2.71,1.07,0.22
2.6,0.83,0.18
2.68,1.02,0.24
2.68,0.9,0.1
2.89,1.01,0.28
2.66,1.04,0.16
2.73,0.97,0.13
2.51,1.24,0.08
2.62,1.02,0.1
2.88,0.84,0.23
2.87,0.99,0.15
2.79,1.1,0.22
2.82,0.98,0.05
2.71,0.99,0.16
2.76,0.95,0.12
2.77,1.04,0.08
2.85,0.91,0.06
2.68,1,0.12
2.68,0.98,0.08
2.74,1.13,0.19
2.93,1,0.41
2.89,1.1,0.26
2.58,1.14,0.32
2.66,1.06,0.23
2.79,1.09,0.11
2.64,0.86,0.32
2.68,0.85,0.12
2.65,0.87,0.17
2.65,0.89,0.22
2.7,0.89,0.3
2.65,1.12,0.18
2.84,1.11,-0.01
2.59,1.02,0.24
2.73,1.22,0.2
2.71,0.77,0.29
2.84,1.12,0.25
2.82,0.68,0.28
2.74,1.06,0.27
2.82,1.05,0.24
2.78,0.99,0.47
2.77,1.12,0.01
2.68,0.94,0.17
2.7,1.08,0.37
2.83,1.07,0.24
2.83,1.09,0.37
2.79,1.02,0.06
2.75,1.07,0.3
2.78,0.89,0.33
2.64,1.09,0.04
2.66,0.86,0.21
2.82,0.93,0.07
2.94,1.25,0.34
2.71,1.08,0.31
2.75,1,0.16
2.86,0.9,0.13
2.88,1.03,0.37
2.75,0.92,0.07
2.78,1,0.29
2.78,1.01,0.19
2.85,1,0.27
2.53,0.89,0.32
2.77,1.03,0.11
2.69,1.06,0.19
2.73,0.88,0.08
2.83,1.02,0.17
2.87,0.9,0.16
2.78,1.02,0.17
2.74,0.92,0.21
2.74,0.95,0.15
2.77,1.04,0.2
2.89,1.16,0.21
2.73,0.97,0.09
2.66,1.18,0.04
2.73,1.05,0.39
2.69,1.02,0.33
2.73,1.06,0.19
2.58,0.95,0.14
2.8,1.04,0.12
2.77,0.98,0.27
2.8,1.14,0
2.64,1.26,0.24
2.64,0.79,0.22
2.88,1.06,0.16
2.77,1.07,0.22
2.85,1.09,0.24
2.84,0.95,0.03
2.68,0.8,0.22
2.64,0.98,0.15
2.65,1.08,0.19
2.66,1.1,0.22
3,0.93,0.13
2.89,1.14,0.11
2.76,1.01,0.33
2.6,1.18,0.27
2.75,1.19,0.03
2.53,0.91,0.11
2.78,1.28,0.43
2.85,0.9,0.37
2.76,1.01,0.1
2.7,1.01,0.17
2.74,1.13,0.16
2.85,1.08,0.22
2.83,1.05,0.28
2.68,1.05,0.21
2.69,0.97,0.18
2.69,0.97,0.19
2.73,1.05,0.39
2.74,0.99,0.22
2.75,1.06,0.3
2.74,1.16,0.24
2.63,0.96,0.07
2.77,1.15,-0.11
2.71,0.98,0.4
2.69,1.12,0.26
2.77,0.93,0.13
2.68,0.86,0.3
2.72,0.88,0.07
2.66,1.16,0.23
2.83,0.88,0.25
2.74,0.91,0.03
2.56,0.93,0.36
2.67,0.87,0.04
2.69,0.82,0.11
2.77,1.07,0.04
2.86,0.98,0.28
2.82,1.1,0.08
2.7,0.97,0.01
2.75,1.03,0.14
2.84,0.97,0
2.77,0.84,0.2
2.74,1,0.44
2.78,1.04,0.26
2.77,0.85,0.21
2.81,0.86,0.46
2.62,0.89,0.23
2.71,0.99,0.17
2.64,1.01,0.04
2.74,0.78,0.15
2.78,1.05,0.1
2.79,1.03,0.23
2.74,0.93,0.25
2.83,0.87,0.25
2.81,0.92,0.03
2.9,1.1,0.19
2.77,0.87,0.19
2.71,0.96,0.1
2.54,1.07,0.22
2.52,0.96,0.32
2.82,0.99,0.1
2.52,0.91,0.23
2.69,1,0.18
2.84,0.92,0.09
2.81,0.95,0.21
2.7,0.89,0.16
2.66,0.95,0.16
2.89,1.18,0.19
2.65,0.93,-0.05
2.76,0.99,0.03
2.74,1.02,0.36
2.55,0.95,0.14
2.65,0.99,0.1
2.79,0.97,0.24
2.86,0.85,0.01
2.75,1.01,0.13
2.71,0.95,0.18
2.74,0.92,0.34
2.88,1.15,0.23
2.72,0.93,0.21
2.75,1.05,0.16
2.78,0.93,0.28
2.77,1.09,0.25
2.68,0.9,0.31
2.75,1.03,0.39
2.76,0.94,0.15
2.82,0.88,0.31
2.76,1.06,0.12
2.8,0.88,0.31
2.85,1.06,0.18
2.85,1.19,0.29
2.68,0.91,0.11
2.76,1,0.21
2.81,0.98,0.25
2.72,1.03,0.14
2.79,1.03,0.21
2.66,1.04,0.24
2.66,0.98,0.18
2.74,1.05,0.14
2.75,0.84,0.29
2.71,1.21,0.21
2.96,0.95,0.12
2.81,1.01,0.21
2.67,0.92,0.18
2.61,1.12,0.17
2.82,1.02,0.14
2.82,0.86,-0
2.69,0.92,0.24
2.65,1.03,0.17
3.03,0.98,0.07
2.77,0.95,0.09
2.87,0.98,0.29
2.84,1.2,0.22
2.71,1.13,0.31
2.9,0.88,0.18
2.79,0.85,0.09
2.61,1.02,0.01
2.65,0.96,0.04
2.77,1.04,0.06
2.81,1.01,0.28
2.73,1.08,0.22
2.81,1.03,0.34
2.61,1,0.31
2.61,1.16,0.26
2.82,0.95,0.19
2.76,0.88,0.24
2.79,0.95,0.29
2.88,1.08,0.26
2.63,0.85,0.25
2.65,0.89,0.27
2.94,1.06,0.26
2.65,1.03,0.34
2.74,0.84,0.38
2.9,1.06,0.26
2.78,0.99,0.15
2.89,0.83,0.08
2.79,0.86,0.27
2.73,0.94,0.25
2.66,0.98,0.14
3.02,0.9,0.29
2.87,1,0.07
2.76,0.95,0.21
2.76,1.09,0.21
2.64,1.05,0.18
2.74,0.93,0.08
2.7,1.03,0.08
2.79,1.12,0.18
2.74,0.99,0.13
2.93,1,0.23
2.79,1.11,0.21
2.79,1.07,0.05
2.69,1.05,0.32
2.92,0.96,0.24
2.6,0.89,0.19
2.71,1.09,0.27
2.75,0.88,0.29
2.87,1.15,0.06
2.72,1.13,0.31
2.75,0.97,0.19
2.74,0.96,0.08
2.69,0.83,0.1
2.84,1.03,0.43
2.9,1.05,0.03
2.96,1.01,0.35
2.87,1.05,0.21
2.6,0.89,0.05
2.64,1.06,0.17
2.73,1.03,0.33
2.82,1.01,0.17
2.81,1.05,0.22
2.68,0.87,-0.04
2.85,1.1,0.24
2.85,0.85,0.18
2.59,1.06,0.23
2.8,1.07,0.06
2.73,0.96,0.38
2.89,1.18,0.15
2.79,1.08,0.21
2.73,0.89,0.17
2.67,1.04,0.43
2.8,1.14,0.25
2.8,1.13,0.17
2.85,0.99,0.27
2.7,1.09,0.16
2.89,0.91,0.11
2.81,0.88,0.32
2.63,1.2,0.35
2.78,1.09,0.06
2.83,1.03,0.3
2.81,0.9,0.15
2.78,1.06,0.11
2.78,0.93,0.13
2.75,1.12,0.04
2.8,0.89,0.25
2.66,1.02,0.18
2.76,0.96,0.11
2.66,0.81,0.24
2.71,1.03,0.24
2.75,0.91,0.26
2.87,1,0.24
2.76,1.03,0.05
2.83,1,0.12
2.72,1.14,0.06
2.67,1,0.11
2.68,1.05,0.12
2.77,0.99,0.18
2.93,0.86,0.16
2.76,0.84,0.34
2.94,1.06,0.22
2.67,0.99,0.13
2.73,1.03,0.17
2.66,0.9,0.22
2.8,1.02,0.31
2.75,0.97,0.13
2.7,0.95,0.3
2.45,1.01,0.25
2.76,1.06,0.07
2.78,1.15,0.03
2.72,0.96,0.33
2.66,1.07,0.19
2.8,1.02,0.33
2.7,0.96,0.1
2.59,0.96,0.1
2.72,0.96,0.13
2.94,0.89,0.21
2.86,1.02,0.15
2.74,1.01,0.3
2.81,1.07,0.16
2.59,0.93,0.37
2.69,0.86,0.28
2.67,1.18,0.23
2.8,0.97,0.29
2.65,0.96,0.14
2.62,0.97,0.26
2.74,0.96,0.21
2.93,1.02,0.21
2.64,1.08,0.09
2.78,0.93,0.11
2.7,0.89,0.21
2.75,1.01,0.29
2.66,1.03,0.25
2.86,0.97,0.28
2.69,0.8,0.17
2.6,1.17,0.08
2.71,1.06,-0.04
2.65,0.96,0.21
2.95,1.08,0.21
2.73,0.84,0.3
3.08,0.99,0.25
2.75,1.03,0.25
2.78,0.94,0.1
2.88,1.14,0.33
2.52,1.01,0.16
2.78,0.94,0.22
2.72,1.09,0.34
2.91,0.89,0.23
2.8,1.03,0.16
2.63,0.82,0.16
2.86,0.9,0.32
2.86,1.1,0.18
2.78,1.23,0.28
2.68,0.87,0.2
2.66,1.1,0.15
2.74,1.01,0.17
2.84,1.01,0.12
2.78,1.03,0.1
2.8,1,0.22
2.75,1.12,0.3
2.75,0.95,0.19
2.68,0.94,0.17
2.88,1.08,0.2
2.8,1.02,0.26
2.76,1.23,0.07
2.83,0.94,0.36
2.75,0.99,0.31
2.72,0.84,0.28
2.85,0.94,0.12
2.66,0.99,0.07
2.64,1.07,0.12
2.58,1.11,0.13
2.86,1.06,0.24
2.71,0.88,0.41
2.94,1.03,0.29
2.56,0.92,0.15
2.63,1.09,0.24
2.73,1,0.25
2.79,0.85,0.19
2.89,1.05,0.25
2.74,1.13,0.13
2.78,0.94,0.35
2.59,0.83,0.17
2.72,1.13,0.11
2.74,1,0.2
2.63,0.96,0.09
2.69,1.07,0.1
2.82,1.05,0.11
2.67,1.04,0.2
2.77,1.04,0.29
2.67,0.98,0.02
2.75,1.1,0.08
2.9,0.89,0.02
2.78,0.89,0.33
2.71,1,0.12
2.77,0.98,0.13
2.57,1.12,0.3
2.77,0.89,0.14
2.72,0.94,0.36
2.94,1.05,0.3
2.53,1.1,0.29
2.75,1,0.22
2.79,1.17,0.06
2.76,0.95,0.21
2.74,0.87,-0.08
2.91,0.86,0.42
2.56,0.91,0.21
2.86,0.75,0.07
2.73,1.06,0.17
2.64,1.1,-0
2.92,0.98,0.45
2.86,1.08,0.21
2.78,1.08,0.34
2.86,0.98,0.12
2.86,1.09,0.08
2.76,1.16,0.21
2.71,1.04,0.08
2.66,0.87,0.22
2.78,0.96,0.26
2.81,1.02,0.04
2.74,0.96,0.05
2.8,1.05,0.11
2.7,0.95,0.22
2.8,1.13,0.17
2.94,1.18,-0.02
2.82,0.92,0.13
2.51,0.93,0.15
2.69,1.02,0.29
2.82,1.01,0.12
2.71,0.87,0.31
2.59,0.97,0.27
2.84,1.02,0.26
2.8,1.05,0.15
2.66,1.19,0.14
2.92,1.2,0.22
2.8,0.94,0.31
2.71,0.99,0.3
2.73,1,0.06
2.7,0.99,0.22
2.82,1.01,0.23
2.91,0.94,0.33
2.9,1.15,0.2
2.77,0.98,0.32
2.91,1.03,0.17
2.91,0.77,0.25
2.81,0.93,0.1
2.69,0.77,0.3
2.65,1.07,0.24
2.63,1.08,0.18
2.67,0.93,0.25
2.74,0.84,-0.03
2.83,0.88,0.42
2.74,0.87,0.15
2.75,0.99,0.17
2.63,1.01,0.03
2.75,0.97,0.13
2.65,1.11,0.17
2.82,1.01,0.31
2.69,1.16,0.11
2.77,1.06,0.16
2.76,1.22,0.13
2.83,1.05,0.38
2.83,1.05,0.1
2.72,1.05,0.05
2.46,1.1,0.22
2.76,1.12,0.15
2.68,0.99,0.07
2.7,0.88,0.23
2.79,1.03,0.2
2.76,1.07,-0.01
2.81,1.08,0.17
2.74,0.89,0.17
2.89,0.96,0.13
2.57,0.99,0.32
2.84,0.95,0.42
2.8,0.9,0.14
2.75,1.03,0.29
2.81,1.01,0.29
2.83,1.03,0.18
2.73,0.83,0.2
2.7,0.97,0.12
2.7,0.89,0.21
2.72,1.03,0.16
2.66,1.32,0.21
2.68,1.06,0.33
2.87,0.97,0.14
2.74,0.9,0.13
2.79,1.07,0.23
2.78,1.22,0.26
2.8,1.03,0.07
2.83,0.87,0.19
2.77,1.07,0.25
2.68,0.99,0.04
2.89,0.97,0.11
2.73,1.27,0.14
2.8,1.02,0.15
2.83,1.11,0.2
2.77,1,-0.02
2.71,1.05,0.14
2.74,1,0.3
2.73,1.18,0.21
2.72,0.84,0.25
2.84,0.99,0.12
2.76,1,0.15
2.54,0.99,0.17
2.72,0.91,0.25
2.66,1,0.17
2.8,1,0.25
2.76,0.99,0.25
2.69,0.8,0.22
2.8,1.18,0.17
2.88,0.98,0.1
2.69,1.06,0.36
2.55,1.07,0.22
2.82,1.06,0.21
2.79,1,0.28
2.64,0.93,0.21
2.92,1.12,0.1
2.86,1.12,0.2
2.72,1.05,0.14
2.68,1.18,0.06
2.69,1.09,0.3
2.73,1.08,0.26
2.63,0.99,0.15
2.77,1.02,0.21
2.86,0.97,0.3
2.84,0.87,0.2
2.87,1.04,0.16
2.76,1.03,0.25
2.66,0.84,0.23
2.69,1.1,0.2
2.88,0.8,0.36
2.53,1.16,0.18
2.66,1.07,0.23
2.7,1.08,0.3
2.87,0.86,0.29
2.84,0.94,0.3
2.85,1.02,0.23
2.8,0.87,0.14
2.64,0.97,0.28
2.89,1.18,0.09
2.85,0.97,0.19
2.72,0.92,0.15
2.89,0.77,0.16
2.6,0.99,0.24
2.64,0.76,0.34
2.63,1.1,0.31
2.69,0.82,0.09
2.8,0.96,0.03
2.88,0.99,0.28
2.8,1.04,-0.01
2.9,1.05,0.28
2.72,1.04,0.19
2.63,0.97,0.2
2.61,0.96,0.16
2.53,1.08,-0.02
2.77,1.03,0.3
2.57,1.13,0.29
2.82,0.99,0.32
2.72,1.01,0.15
2.86,1.04,0.41
2.8,1.01,0.22
2.84,1,0.09
2.71,0.97,0.22
2.91,0.89,0.27
2.91,0.97,0.37
2.83,0.93,0.36
2.95,1.01,0.17
2.71,1.06,0.36
2.74,1.15,0.33
2.69,0.96,-0.07
2.75,1.15,0.22
2.82,1.08,0.43
2.89,1.04,0.33
2.85,1.05,0.11
2.72,1.02,0.28
2.89,0.97,0.11
2.84,0.91,0.22
2.81,0.88,0.25
2.77,0.92,0.14
2.79,1.15,0.11
2.89,1.09,0.24
2.81,1.06,0.18
2.87,0.99,0.27
2.83,0.99,0.09
2.77,1.11,0.14
2.71,1.12,0.12
2.7,0.95,0.24
2.67,0.81,0.3
2.79,1.07,0.11
2.63,0.83,0.38
2.6,1.09,0.27
2.62,0.95,0.28
2.76,0.95,0.24
2.51,1.16,0.32
2.76,0.97,0.06
2.77,1.01,0.39
2.92,0.85,0.23
2.83,1.03,0.35
2.85,1.13,0.1
2.8,1.05,0.37
2.71,1.02,0.26
2.61,0.98,0.19
2.71,1.22,0.14
2.85,1.03,0.19
2.53,1.02,0.27
2.84,1.03,0.14
2.76,0.98,0.06
2.77,1.17,0.18
2.78,0.91,0.01
2.83,0.94,0.3
2.69,0.98,0.17
2.78,0.94,0.26
2.73,0.9,0.21
2.65,1.02,0.16
2.88,0.96,0.09
2.5,0.88,0.21
2.67,1.14,0.17
2.97,1.19,0.34
2.71,0.99,0.17
2.89,0.77,0.11
2.72,1.02,0.28
2.71,1.15,0.28
2.67,1.05,0.2
2.77,0.93,0.09
2.78,0.99,0.1
2.58,0.8,0.16
2.88,0.83,0.12
2.72,1.05,0.46
2.67,0.87,0.33
2.92,0.97,0.23
2.84,0.9,0.13
2.87,1.02,0.15
2.67,1,0.15
2.68,0.96,0.09
2.93,0.92,0.17
2.59,0.8,0.16
2.68,0.99,0.14
2.76,1.21,0.12
2.82,1.04,0.24
2.93,0.86,0.16
2.81,1.01,0.22
2.6,1.13,0.26
2.77,1.08,0.03
2.85,1.02,0.38
2.89,1.03,0.11
2.79,0.9,0.19
2.8,0.89,0.15
2.76,1.13,0.08
2.97,0.94,0.1
2.75,1.03,0.16
2.76,0.97,0.18
2.99,1.01,0.2
2.93,1.08,0.23
2.77,0.89,0.22
2.75,0.81,0.19
2.6,0.92,0.31
2.75,0.96,0.28
2.77,1.1,0.2
2.86,0.94,0.3
2.83,0.93,0.19
2.83,1.12,0.06
2.9,1.03,0.13
2.68,0.86,0.12
2.54,0.93,0.09
2.89,0.99,0.12
2.75,1,0.42
2.62,1.06,0.14
2.76,0.92,0.05
2.78,1.12,0.41
2.68,1.02,0.1
2.75,1.09,0.15
2.81,1.01,0.28
2.8,1.05,0.3
2.62,0.77,0.26
2.83,0.99,0.25
2.82,1.17,0.38
2.69,1.05,0.15
2.64,1.14,0.26
2.57,1.01,0.07
2.72,1.05,0.08
2.75,0.75,0.16
2.83,1.14,0.25
2.81,1.12,0.31
2.79,0.97,0.27
2.79,0.93,0.27
2.81,0.93,0.37
2.62,0.97,0.21
3.07,0.93,0.14
2.63,1.05,0.37
2.68,1.18,0.13
2.64,1.01,0.02
2.83,0.94,0.13
2.79,0.88,0.31
2.77,0.95,0.15
2.75,1.03,0.19
2.7,1.05,0.07
2.78,0.74,0.32
2.62,0.96,-0.11
2.88,1,0.34
2.68,0.87,0.23
2.68,1.04,0.17
2.69,0.91,0.11
2.67,1.28,0.25
2.58,0.98,0.26
2.57,0.9,0.41
2.73,0.96,0.18
2.67,1.1,0.22
2.68,1.04,0.19
2.68,0.88,0.23
2.7,1.02,0.36
2.68,0.96,0.25
2.65,0.99,0.13
2.81,1.11,0.24
2.63,0.84,0.11
2.55,0.91,0.22
2.79,1.12,0.05
2.75,1.1,0.12
2.66,0.9,0.37
2.64,0.87,0.18
2.81,0.79,0.28
2.83,1.11,0.17
2.7,1.18,0.39
2.66,1.04,0.13
2.61,1.06,0.06
2.68,0.87,0.12
2.73,0.93,0.22
2.6,0.87,0.37
2.87,1.12,0.19
2.78,0.97,0.28
2.73,0.83,0.04
2.69,0.91,0.34
2.66,0.94,0.21
2.75,1.04,0.11
2.65,1.01,0.31
2.64,0.94,0.19
2.79,1.07,-0.03
2.72,0.8,0.21
2.63,1.02,0.16
2.9,1.02,0.24
2.75,1.07,0.27
2.73,1.07,0.19
2.67,1.04,0.16
2.9,1.09,0.2
2.72,0.93,0.32
2.86,1.15,0.21
2.88,1.07,0.05
2.62,1.06,0.28
2.67,0.9,0.21
2.62,0.86,0.15
2.74,0.99,0.35
2.58,0.94,0.23
2.79,1.09,0.29
2.94,1.01,0.17
2.87,1.03,0.22
2.69,1.04,0.25
2.75,0.95,0.15
2.9,1.02,0.26
2.73,1,0.21
2.79,1.09,0.32
2.83,1.06,0.14
2.44,1.01,0.34
2.73,1.21,0.22
2.67,1.05,0.46
2.85,1.13,0.22
2.92,0.89,0.28
2.8,0.93,0.16
2.71,1.12,0.21
2.87,1.06,0.3
2.82,0.93,0.32
2.77,0.95,0.02
2.73,1,0.18
2.7,0.88,0.07
2.63,0.84,0.23
2.67,1.01,0.16
2.85,0.94,0.27
2.8,1.02,0.15
2.77,1.05,0.21
2.79,0.83,0.17
2.61,1.07,0.22
2.67,1.04,0.3
2.74,0.96,0.2
2.67,0.83,0.21
2.75,0.83,0.19
2.75,1.11,0.2
2.61,1.2,0.19
2.74,0.94,0.29
2.79,0.94,0.06
2.58,0.94,-0
2.59,1.1,0.27
2.96,1,0.35
2.69,0.94,0.17
2.72,1.18,0.29
2.69,0.92,0.15
2.75,1.01,0.35
2.85,0.92,0.16
2.63,1.14,0.23
2.98,0.96,0.34
2.75,0.91,0.31
2.69,0.97,0.19
2.79,0.95,0.32
2.66,0.68,0.13
2.74,0.98,0.26
2.65,1.17,0.21
2.76,1.06,0.26
2.77,0.92,0.18
2.84,0.89,0.3
2.77,1.15,0.28
2.78,1.03,0.12
2.9,1.08,0.08
2.85,0.94,0.22
2.86,1.09,0.29
2.83,0.94,0.21
2.83,1.08,0.1
2.65,1.12,0.27
2.85,1.05,0.19
2.76,1.01,0.2
2.76,1.09,0.26
2.69,0.91,0.28
3.01,0.8,0.15
2.69,1,0.19
2.62,0.93,0.26
2.82,0.89,0.12
2.85,1.03,0.44
2.69,1,0.15
2.67,1.11,-0.04
2.68,0.9,0.28
2.83,0.96,0.41
2.69,0.78,0.21
2.75,1.02,0.04
2.63,0.88,0.12
2.89,1.1,0.13
2.74,0.96,0.1
2.83,1.19,0.14
2.77,0.97,0.22
2.76,0.94,0.28
2.65,0.95,0.19
2.83,1.08,-0.02
2.52,1.14,0.13
2.92,1.13,0.38
2.63,0.95,0.15
2.75,1.09,0.44
2.68,0.97,0.3
2.67,1.02,0.16
2.98,0.88,0.02
2.83,0.93,0.19
2.7,1.05,0.22
2.97,1.04,0.17
2.86,1.06,0.1
2.84,1.13,0.12
2.69,0.84,0.24
2.65,1.06,0.11
2.59,0.98,0.09
2.87,1,0.32
2.8,0.93,0.24
2.76,0.97,0.18
2.79,0.97,0.29
2.68,1.13,0.17
2.88,1.02,0.12
2.94,0.89,0.11
2.74,1.17,0.23
2.61,1.15,0.12
2.68,0.86,0.21
2.78,0.98,0.3
2.8,1.02,0.27
2.77,1.08,0.14
2.77,0.9,0.24
2.71,0.99,0.26
2.69,0.9,0.28
2.65,1.11,0.19
2.68,0.96,0.3
2.77,1.04,0.1
2.83,0.86,0.08
2.88,0.96,0.24
2.86,1.27,0.27
2.88,0.81,0.37
2.67,1.04,0.02
2.79,0.92,0.13
2.72,0.98,0.32
2.62,0.77,0.08
2.84,0.89,0.34
2.9,0.99,0.18
2.69,1,0.36
2.63,1.07,0.24
2.87,1.03,0.24
2.74,1.12,0.16
2.9,1.11,0.07
2.99,0.95,0.25
2.68,1.03,0.23
2.7,1.01,0.27
2.78,0.82,0.22
2.74,1.06,0.23
2.63,0.96,0.05
2.66,0.95,0.19
2.68,0.96,0.2
2.92,1.01,0.3
2.8,1.19,0.21
2.58,1.11,0.11
2.55,0.94,0.17
2.66,1,0.23
2.72,0.85,0.06
2.75,1.16,0.22
2.86,0.96,0.24
2.77,1.05,0.26
2.76,0.98,0.13
2.86,1.05,0.2
2.8,1.08,0.25
2.67,0.95,0.35
2.75,1.06,0.26
2.76,1.13,0.04
2.81,1.04,0.18
2.81,0.92,0.21
2.59,0.98,0.21
2.81,0.92,0.07
2.78,1.02,0.21
2.86,1.02,0.39
2.71,1.01,0.23
2.72,0.93,0.19
2.7,0.93,0.2
2.77,0.99,0.24
2.82,0.84,0.17
2.76,1.12,0.22
2.8,1.04,0.37
2.71,1.08,0.09
2.69,1.11,0.29
2.66,0.78,0.13
2.85,0.89,0.15
2.61,0.99,0.24
2.93,1.1,0.37
3.03,1.02,0.04
2.69,1.11,0.31
2.92,0.92,0.29
2.74,1.07,0.24
2.77,1,0.2
2.8,1.12,0.2
2.82,0.96,0.28
2.88,0.91,0.18
2.63,0.97,0.2
2.86,1.14,0.3
2.91,1.04,0.02
2.76,1,0.24
2.71,0.92,0.24
2.52,1.1,0.19
2.81,1.07,0.31
2.78,0.82,0.09
2.82,0.92,0.24
2.64,0.89,0.26
2.73,0.94,0.12
2.7,0.97,0.29
2.67,0.86,0.13
2.7,1.22,0.41
2.66,1.05,0.15
2.75,1.03,0.45
2.61,1.11,0.01
2.7,0.92,0.15
2.67,1.16,0.21
2.83,1.02,0.28
2.74,1.08,0.25
2.8,0.77,0.29
2.81,1.02,0.15
2.74,0.98,0.35
2.69,0.93,0.28
2.61,0.92,0.04
2.72,1.16,0.16
2.78,1.07,0.34
2.67,1.17,0.25
2.86,1.05,0.39
2.8,1.04,0.23
2.61,0.93,0.08
2.81,0.85,0.3
2.75,1.05,0.15
2.84,1.13,0.33
2.8,0.91,0.4
2.7,0.86,0.28
2.74,1.15,0.1
2.91,0.95,0.26
2.71,0.94,0.14
2.9,0.87,-0.02
2.79,1.12,0.22
2.66,0.92,0.3
2.79,0.94,0.32
2.8,1.03,0.16
2.67,0.99,0.04
2.82,1.11,0.13
2.88,1.04,0.16
2.79,1.06,0.27
2.68,1.18,0.1
2.74,1.1,0.02
2.87,1.13,0.12
2.8,1.04,-0.01
2.66,0.98,0.24
2.68,0.95,0.33
2.74,1.07,0.2
2.73,0.93,0.38
2.79,1.03,0.01
2.82,1.11,0.39
2.53,1.11,0.05
2.71,0.83,0.46
2.87,1.15,0.32
2.65,1.04,0.16
2.62,1.03,0.21
2.71,1.17,0.18
2.92,1.04,0.15
2.83,0.88,0.2
2.59,1.15,0.08
2.71,1.1,0.09
2.85,1.02,0.24
2.71,0.76,0.18
2.76,0.83,0.14
2.78,0.93,0.27
2.81,1.12,0.22
2.65,1.03,0.21
2.9,0.93,0.02
2.83,1,0.16
2.62,0.81,0.03
2.86,1,0.14
2.91,0.99,0.34
2.78,1.06,0.26
2.69,0.81,0.32
2.57,1.16,0.18
2.79,1.15,0.1
2.77,0.89,0.13
2.73,0.98,0.21
2.66,0.76,0.15
2.83,0.96,0.24
2.55,0.84,0.19
2.66,1.21,0.16
2.83,1.01,0.22
2.74,1.05,0.12
2.78,0.99,0.19
2.76,1.13,0.19
2.73,1.12,0.29
2.8,0.94,0.26
2.75,0.73,0.23
2.84,0.83,0.21
2.89,1.04,0.07
2.61,0.94,0.34
2.59,1.07,0.06
2.74,1.13,0.28
2.54,0.97,0.3
2.87,1.21,0.18
2.49,1.03,0.29
2.68,0.87,0.38
2.83,1.24,0.34
2.73,0.96,0.33
2.76,1.02,0.24
2.77,1.03,0.4
2.7,0.86,0.31
2.84,1.06,0.13
2.67,0.89,0.07
2.76,1.07,0.26
2.78,1,0.21
2.88,1.18,0.25
2.78,0.85,0.21
2.88,0.9,0.33
2.8,0.92,0.25
2.77,1.03,0.19
2.59,0.99,0.11
2.95,0.93,0.19
2.76,1.12,0.2
2.66,0.9,0.18
2.8,1.08,0.18
2.81,1,0.2
2.6,0.94,0.55
2.7,1.16,0.17
2.84,1,0.17
2.84,1.03,0.32
2.79,0.84,0.32
2.93,1.15,0.22
2.73,0.96,0.27
2.6,0.92,0.18
2.9,0.95,0.15
2.8,0.98,0.4
2.76,1.09,0.13
2.82,0.87,0.11
2.8,0.93,0.22
2.67,0.86,0.25
2.86,1.02,0.14
2.77,1.17,0.13
2.79,1,0.28
2.86,0.94,0.08
2.91,1.07,0.13
2.75,0.99,0.16
2.9,1.21,-0.06
2.66,0.92,0.09
2.65,1.01,0.23
2.85,1.08,0.03
2.76,1.03,0.11
2.75,1.05,0.27
2.96,1.19,0.23
2.64,0.83,-0.06
2.83,1.14,0.15
2.71,0.96,0.2
2.43,1.04,0.37
2.67,0.96,0.2
2.64,0.87,0.11
2.7,1.11,0.07
2.83,0.89,0.14
2.86,0.82,0.15
2.62,0.86,0.26
2.81,1.06,0.14
2.81,0.88,0.06
2.66,0.96,0.21
2.75,1.13,0.27
2.92,1.09,0.29
2.82,0.96,0.26
2.81,0.97,0.1
2.64,1,0.25
2.66,1.1,0.21
2.7,0.83,0.21
2.68,1.04,0.06
2.71,0.95,0.24
2.89,0.98,0.21
2.66,0.93,0.02
2.81,0.78,0.27
2.78,1.14,0.26
2.64,1.01,0.13
2.84,1.22,0.13
2.93,1.02,0.18
2.89,1.05,0.37
2.76,1.08,0.21
2.7,1.19,0.37
2.78,1.12,0.23
2.87,1.07,0.32
2.68,0.97,0.23
2.72,1.15,0.39
2.79,1.07,0.32
2.75,0.9,0.1
2.78,1,0.11
2.84,0.86,0.17
2.73,1.08,0.25
2.82,1.13,0.18
2.78,0.94,0.27
2.77,1.02,0.04
2.62,0.88,0.24
2.71,0.74,0.13
2.78,1.05,0.19
2.83,0.85,0.33
2.74,1.08,0.1
2.85,1.05,0.13
2.74,1.03,0.4
2.62,0.99,0.28
2.8,0.94,0.23
2.92,0.89,0.28
2.67,0.98,0.34
2.73,0.87,0.24
2.61,1.02,0.15
3.02,0.88,0.06
2.65,0.97,0.23
2.7,1.06,0.04
2.82,0.95,0.19
2.83,1.15,0.04
2.71,0.96,-0.02
2.71,0.91,0.29
2.75,0.86,0.24
2.74,0.97,0.27
2.73,0.98,0.04
2.6,1.12,0.35
2.82,0.96,0.03
2.87,0.92,0.16
2.69,1.06,0.23
2.77,0.92,0.38
2.75,1.04,0.14
2.67,1.05,0.28
2.9,1.12,0.2
2.8,0.96,0.35
2.54,1.11,0.22
2.73,0.98,0.19
2.89,1.04,0.18
2.6,0.91,0.21
2.66,1.03,0.27
2.94,1.19,0.1
2.83,1.13,0.29
2.47,0.86,0.37
2.64,1.07,0.32
2.79,0.96,0.13
2.78,0.9,0.18
2.78,1.15,0.4
2.78,0.99,0.25
2.64,0.94,0.26
2.68,0.95,0.19
2.69,0.98,0.2
2.75,1.1,0.04
2.81,1.07,0.21
2.78,1.09,0.21
2.8,0.86,0.34
2.91,1,0.06
2.53,1.2,0.23
2.92,0.9,0.29
2.65,0.87,0.1
2.84,0.94,0.23
2.71,1.04,0.31
2.68,0.9,0.19
2.67,1.2,-0.01
2.92,1.21,0.38
2.87,0.99,0.16
2.88,1.01,0.18
2.68,1.24,0.02
2.66,0.9,0.22
2.66,0.99,0.28
2.65,0.89,0.42
2.88,1.08,0.24
2.68,1.06,0.32
2.69,1.11,0.2
2.95,0.85,0.05
2.78,1.15,0.22
2.68,0.95,0.28
2.85,1.04,0.13
2.66,1.04,0.26
2.77,0.98,-0.01
2.73,0.89,0.32
2.72,0.89,0.22
2.92,0.9,0.11
2.67,1.17,0.15
2.58,0.86,0.16
2.65,1.07,0.4
2.71,1.11,0.16
2.71,1.09,0.24
3.07,0.95,0.18
2.93,1.03,0.21
2.57,1.02,0.18
2.83,0.95,0.4
2.76,1.09,0.41
2.78,1.04,0.08
2.87,1.2,0.27
2.76,0.89,0.11
2.71,1,0.25
2.81,0.95,0.2
2.9,1.14,0.25
2.69,1.02,0.24
2.74,0.94,0.21
2.84,0.98,0.24
2.81,0.96,0.34
2.9,1.05,0.24
2.68,0.98,0.22
2.73,0.86,0.26
2.65,1.12,0.08
2.83,0.97,0
2.66,1.01,0.13
2.7,0.91,0.16
2.75,1.09,0.3
2.85,1.09,0.09
2.88,0.86,0.02
2.8,1.1,0.11
2.67,1.24,0.2
2.65,1.13,0.21
2.88,0.99,0.19
2.62,0.95,0.23
2.69,1.1,0.16
2.69,1.04,0.24
2.7,1.15,0.26
2.72,0.97,0.1
2.95,1.02,0.1
2.74,1.15,0.18
2.77,0.85,0.13
2.79,0.83,0.19
2.58,0.98,0.11
2.87,0.93,0.08
2.74,0.96,0.06
2.8,1.03,0.13
2.69,1.02,0.19
2.77,0.97,0.38
2.82,0.97,0.44
2.89,1.02,0.35
3.03,0.96,0.2
2.75,1.14,0.21
2.77,1.02,0.24
2.76,0.9,0.27
2.67,0.91,0.14
2.64,1.07,0.2
2.73,1.12,0
2.88,1.18,0.25
2.78,1.02,0.21
2.7,0.99,0.22
2.85,1.01,0.3
2.71,0.99,0.22
2.82,1.04,0.18
2.91,0.96,0.28
2.8,1.13,-0.08
2.67,1.14,0.08
2.53,0.85,0.15
2.81,0.96,-0.03
2.85,1.02,0.18
2.7,0.83,0.3
2.72,1.03,0.1
2.92,1.07,0.23
2.63,1.02,0.24
2.62,1.12,0.1
2.68,0.93,0.32
2.88,1.01,0.31
2.82,0.84,0.06
2.85,0.84,0.32
2.89,1.03,0.24
2.76,0.96,0.17
2.7,0.99,0.13
2.82,1.2,0.38
2.72,1.06,0.24
2.63,0.93,0.35
2.78,1.04,0.03
2.77,0.83,0.17
2.81,0.87,0.06
2.83,1.03,0.26
2.71,0.82,0.19
2.73,0.98,0.44
2.67,1,0.36
2.87,0.95,0.4
2.66,0.96,0.31
2.75,1.04,0.35
2.75,1.1,0.23
2.52,0.99,0.16
2.65,0.95,0.23
2.8,0.84,0.3
2.61,1.3,0.29
2.71,1.08,0.03
2.69,0.88,0.22
2.62,1,0.34
2.77,1,0.17
2.7,0.72,0.4
2.88,1.09,0.16
2.88,0.93,0.24
2.49,0.99,0.16
2.77,0.98,0.28
2.72,0.88,0.29
2.72,0.86,0.23
2.85,0.99,0.18
2.85,1.17,0.22
2.62,0.91,0.19
2.78,0.8,0.29
2.74,1.05,0.38
2.85,0.76,0.34
2.76,1.06,0.23
2.81,0.91,0.16
2.64,0.92,0.23
2.65,0.93,0.21
2.83,1.07,0.2
2.65,1.06,0.38
2.64,1.05,0.24
2.71,1.07,0.32
2.62,1.11,0.05
2.81,1.02,0.18
2.8,1.1,0
2.83,1.26,0.22
2.65,1.09,0.09
2.87,1.05,0.24
2.74,1.06,0.15
2.7,1.04,0.35
2.77,0.81,0.16
2.66,1.07,0.08
2.71,1,0.23
2.7,1.1,-0.08
2.62,1.01,0.3
2.92,1.04,0.37
2.53,1,0.3
2.51,1.13,0.2
2.64,1.07,0.24
2.7,1.01,0.31
2.7,1.12,0.06
2.72,1.1,0.14
2.71,1.02,0.34
2.79,1.06,0.43
2.81,1.04,0.25
2.8,0.94,0.21
2.65,1.08,0.3
2.77,0.99,0.05
2.7,0.99,0.14
2.6,1.02,0.19
2.83,1.03,0.3
2.8,0.96,0.32
2.83,1.03,0.15
2.82,0.98,0.12
2.76,1.02,0.24
2.86,1.08,0.13
2.84,0.85,0.22
2.75,0.99,0.07
2.59,0.94,0.15
2.72,0.88,0.04
2.66,0.95,0.28
2.8,0.93,0.21
2.77,0.95,0.29
2.69,0.95,0.24
2.63,0.82,0.23
2.63,0.91,0.08
2.83,0.85,0.14
2.64,1.09,0.37
2.76,1.05,0.24
2.74,0.94,0.22
2.97,0.93,0.19
2.73,1.01,0.26
2.77,1.01,0.45
2.7,1.02,0.26
2.82,0.98,0.2
2.69,1.09,0.19
2.83,0.94,0.28
2.66,1.02,0.25
2.71,1.06,0.34
2.91,1.23,0.31
2.76,0.99,0.23
2.66,0.9,0.22
2.87,1.14,0.07
2.73,1.07,0.11
2.78,0.94,0.22
2.63,0.89,0.18
2.86,0.96,0.27
2.74,1.03,0.21
2.69,1.03,0.34
2.82,0.93,0.19
2.78,1.07,0.16
2.8,1.04,0.17
2.82,0.95,0.25
2.91,1.04,0.18
2.8,1.07,0.15
2.75,0.98,0.14
2.6,0.93,0.21
2.77,1,0.47
2.72,0.94,0.2
2.79,0.9,0.14
2.8,1.03,0.22
2.78,0.99,0.17
2.9,0.95,0.3
2.81,1,0.15
2.65,1.06,0.3
2.75,1.2,0.11
2.56,0.98,0.18
2.84,0.87,-0.02
2.64,1.11,0.09
2.85,0.89,0.28
2.8,1.13,0.27
2.94,1.03,0.17
2.84,1.05,0.44
2.82,1.04,0.34
2.78,0.89,0.2
2.68,0.96,0.27
2.89,0.97,0.22
2.76,1.03,0.29
2.81,0.93,0.1
2.69,1.15,0.13
2.73,1,0.31
2.69,0.92,0.22
2.74,0.93,0.04
2.87,1,0.15
2.82,0.88,0.17
2.72,1.13,0.17
2.69,1.01,0.21
2.82,0.96,0.41
2.89,0.93,0.41
2.89,0.89,0.26
2.53,0.92,0.24
2.68,0.91,0.21
2.61,1.01,0.18
2.8,1.07,0.19
2.76,0.91,0.08
2.8,1.13,0.12
2.75,0.84,0.1
2.81,1.12,0.13
2.68,1.03,0.17
2.62,1,0.19
2.54,0.97,0.17
2.63,0.89,0.1
2.67,0.97,-0.01
2.71,0.98,0.32
2.6,0.98,0.27
2.63,0.99,0.18
2.77,0.99,0.18
2.76,0.97,0.25
2.71,0.92,0.25
2.78,1.04,0.24
2.7,1.01,0.25
2.63,0.99,0.18
2.77,1.05,0.14
2.8,1,0.23
2.67,1.04,0.4
2.68,0.93,0.19
2.72,1.22,0.05
2.9,0.96,0.27
2.89,1.09,0.19
2.7,1.04,0.14
2.81,0.99,0.46
2.59,0.86,0.27
2.72,0.95,0.22
2.66,0.96,0.31
2.67,1.23,0.26
2.73,0.92,0.23
2.71,0.9,0.29
2.7,0.95,0.06
2.69,1,0.05
2.78,0.78,0.18
2.88,1.11,0.32
2.76,0.87,0.23
2.67,0.92,0.25
2.87,1.07,0.07
2.7,0.94,0.33
2.72,0.92,0.15
2.79,1.2,0.24
2.77,0.95,0.19
2.91,0.94,0.32
2.73,1.03,0.15
2.66,0.98,0.22
2.81,1.1,0.2
2.64,1.04,0.22
2.72,1.1,0.33
2.89,1.02,0.32
2.77,0.98,0.35
2.8,0.98,0.3
2.78,0.75,0.24
2.85,0.92,0.13
2.9,0.76,0.28
2.73,0.99,0.01
2.95,0.95,0.07
3.01,1.12,0.13
2.79,0.98,0.17
2.76,1.13,0.18
2.81,0.94,0.06
2.73,1.04,0.32
2.55,0.89,0.4
2.57,0.95,0.22
2.59,1.13,0.27
2.87,0.99,0.25
2.72,0.99,0.35
2.8,1.21,0.09
2.81,0.93,0.24
2.69,1,0.23
2.5,0.94,0.36
2.9,0.96,0.23
2.73,0.91,0.19
2.94,0.76,0.15
2.84,0.99,0.08
2.68,0.93,0.19
2.83,0.91,0.3
2.74,1.05,0.23
2.72,0.95,-0.12
2.82,0.87,0.09
2.6,1.23,0.21
2.89,0.75,0.26
2.7,0.87,0.24
2.79,0.83,0.01
2.69,0.9,0.32
2.78,1.09,0.27
2.73,0.74,0.19
3.01,1.17,0.14
2.87,1.05,0.2
2.83,0.89,0.14
2.73,0.92,0.12
2.87,0.92,0.37
2.68,0.88,0.22
2.59,0.89,0.29
2.73,1.06,0.03
2.59,1.03,0.29
2.76,0.91,0.18
2.8,1,0.27
2.88,1.06,0.19
2.77,0.97,0.17
2.63,1,0.03
2.8,1.02,0.26
2.9,1.09,0.34
2.66,1.11,0.3
2.62,0.9,0.19
2.83,1.12,0.26
2.74,1,0.38
2.72,1.07,0.29
2.82,1.01,0.1
2.87,1.01,0.21
2.74,1.17,0.28
2.65,0.86,0.19
2.7,0.91,0.01
2.66,1.04,0.31
2.77,1.06,0.12
2.57,1.19,0.24
2.79,1.09,0.1
2.81,0.85,0.21
2.77,1.01,0.31
2.77,0.92,0.22
2.84,1.1,0.26
2.65,1.05,0.18
2.77,1.08,0.3
2.78,0.93,0.06
2.79,0.9,0.13
2.83,0.97,0.24
2.55,1.01,0.26
2.66,0.99,0.02
2.73,0.98,0.26
2.57,0.95,0.09
2.84,1.14,0.04
2.77,1.18,0.11
2.6,0.96,0.32
2.91,1.03,0.39
2.85,0.94,0.21
2.7,0.89,0.2
2.91,0.96,0.1
2.78,1.05,0.05
2.71,0.94,0.35
2.76,0.97,0.25
2.87,0.97,0.26
2.64,1.14,0.29
2.54,1.08,0.28
2.71,1.02,0.4
2.79,1.06,0.08
2.79,1.04,0.05
2.9,1.03,0.2
2.73,1.07,0.15
2.87,0.89,0
2.74,1.03,0.28
2.75,0.95,0.34
2.77,1.24,0.27
2.72,1.01,0.34
2.56,0.92,0.29
2.95,1.08,0.17
2.51,0.9,0.32
2.67,0.89,0.04
2.8,1.01,-0.05
2.77,0.92,0.17
2.67,0.81,0.19
2.87,0.98,0.23
2.54,1.1,0.17
2.86,0.93,0.38
2.93,0.97,0.19
2.78,1.19,0.09
2.6,0.86,0.31
2.69,1.04,0.14
2.83,1.01,0.03
2.61,0.8,0.1
2.7,0.85,0.14
2.91,1.16,0.25
2.86,0.97,0.18
2.69,1.04,0.1
2.76,1.05,0.34
2.75,0.93,0.34
2.76,0.84,0.05
2.59,0.96,0.34
2.74,0.87,0.04
2.81,1.11,0.37
2.71,0.96,0.42
2.68,0.88,0.18
2.82,0.9,0.11
2.65,1.06,0.31
2.69,1.07,0.25
2.78,0.99,0.2
2.83,0.81,0.28
2.67,0.98,0.35
2.7,1.06,0.22
2.82,0.89,0.24
2.91,0.84,0.1
2.75,1.11,0.15
2.61,1.08,0.29
2.56,0.8,0.17
2.88,1.03,0.1
2.65,1.01,0.36
2.8,1.04,0.28
2.79,0.99,0.22
2.75,1.15,0.29
2.97,0.95,0.14
2.6,1.08,0.07
2.72,1.18,0.38
2.8,1.04,0.1
2.92,0.9,0.19
2.63,0.91,0.18
2.62,1.05,0.11
2.72,1.09,0.18
2.71,0.95,0.09
2.79,1.11,0.17
2.7,1.14,0.27
2.53,1.3,0.13
2.59,0.95,0.24
2.72,1.03,0.08
2.99,1.03,0.23
2.77,0.97,0.19
2.62,1.04,0.09
2.81,0.96,0.14
2.57,1,0.23
2.77,0.9,0.24
2.75,0.95,0.15
2.71,1.01,0.13
2.9,0.93,0.25
2.63,0.92,0.35
2.55,0.91,0.09
2.83,1.02,0.31
2.61,0.73,0.28
2.85,1.03,0.13
2.87,1.06,0.2
2.74,0.93,0.05
2.63,1.04,0.15
2.64,1.02,0.06
2.6,0.95,0.23
2.79,0.95,0.26
2.77,1.03,0.34
2.58,1.07,0.13
2.77,1.09,0.29
2.77,0.98,0.17
2.71,1.03,0.13
2.61,1.01,0.25
2.71,1.1,0.16
2.79,1.14,0.39
2.71,1.07,0.18
2.67,0.96,0.12
2.79,1.04,0.25
2.71,0.91,0.12
2.77,0.93,0.12
2.55,1.08,0.27
2.71,0.78,0.23
2.77,0.98,0.36
2.87,0.84,0.08
2.77,1.12,0.15
2.69,0.9,0.17
2.68,0.94,0.1
2.9,1.12,0.28
2.69,1,0.15
2.78,0.91,0.31
2.74,0.92,0.11
3.03,1.16,0.11
2.77,1.04,0.23
2.66,0.88,0.02
2.71,0.99,0.2
2.69,0.82,0.25
2.78,0.87,0.18
2.73,0.94,-0.05
2.71,1.2,0.09
2.6,1.2,0.22
2.77,1.18,0.16
2.9,0.94,0.12
2.71,1.04,0.15
2.8,1.02,0.2
2.74,0.85,0.16
2.87,0.81,0.28
2.59,1.16,-0.02
2.75,0.89,0.02
2.76,1.03,0.16
2.7,1.08,0.17
2.71,1.09,0.24
2.7,0.98,0.18
2.86,1.01,0.33
2.69,1.07,0.1
2.66,1.08,0.28
2.86,1,0.21
2.8,1.02,0.15
2.8,0.91,0.05
2.76,0.97,0.26
2.93,0.95,0.23
2.83,0.92,0.26
2.75,0.98,0.25
2.81,1.04,0.05
2.7,1.07,0.16
2.63,0.92,0.22
2.66,1.28,0.25
2.84,0.97,0.17
2.83,1.09,0.29
2.81,0.96,0.32
2.65,1.11,0.18
2.88,1.04,0.09
2.59,1,0.26
2.8,0.88,0.23
2.64,1.01,0.27
2.82,1.11,0.26
2.89,1.08,0.19
2.67,0.96,0.2
2.8,1.14,0.11
2.63,0.97,0.17
2.78,1.13,0.2
2.89,1.05,0.13
2.73,0.91,0.13
2.8,0.95,0.07
2.86,0.89,0.12
2.56,1.26,0.28
2.8,0.95,0.39
2.72,0.91,0.24
2.65,0.92,0.23
2.68,1.08,0.22
2.78,1.12,0.23
2.78,1.04,0.19
2.75,1.09,0.19
2.72,1.09,0.16
2.85,0.98,0.34
2.86,1.03,0.09
2.86,1.12,0.16
2.89,1.02,0.25
2.73,1.04,0.36
2.7,0.98,0.04
2.71,1.2,0.12
2.66,0.98,0.35
2.69,0.92,0.09
2.74,0.97,0.24
2.79,0.95,0.14
2.63,1.1,0.34
2.86,1.13,0.2
2.65,0.83,0.07
2.85,0.93,0.31
2.77,0.73,0.03
2.84,1.09,0.11
2.73,0.93,0.33
2.79,0.81,0.21
2.69,1.04,0.2
2.69,0.9,0.18
2.8,0.91,0.18
2.8,0.98,0.3
2.71,1.05,0.21
2.73,0.84,0.14
2.54,1.02,0.14
2.87,0.91,0.36
2.58,1.14,0.19
2.65,1.02,0.23
2.61,0.96,0.24
2.77,1.04,0.16
2.77,0.88,0.28
2.75,0.98,0.03
2.7,1.1,0.32
2.88,1.1,0.04
2.65,1.1,0.11
2.78,0.96,0.09
2.69,1.12,0.17
2.69,0.79,0.13
2.74,0.96,0.31
2.8,1.04,0.27
2.61,1.12,0.28
2.7,0.92,0.19
2.81,0.85,0.22
2.59,1.04,0.1
2.62,1.06,0.31
2.83,0.95,0.14
2.8,1.07,0.17
2.52,1.06,0.25
2.68,1.21,0.3
2.8,1.01,0.23
2.85,0.96,0.24
2.78,1.13,0.1
2.88,0.9,0.36
2.72,1.25,0.25
2.87,1.06,0.22
2.72,1.07,0.29
2.61,0.94,0.5
2.78,1.07,0.31
2.71,1.07,0.18
2.59,1.15,0.06
2.68,0.84,0.04
2.57,1.05,0.1
2.77,1,0.29
2.83,0.98,0.12
2.6,1.08,0.23
2.81,1.13,0.11
2.83,0.82,0.32
2.67,0.92,0.21
2.63,0.93,0.24
2.57,1.19,0.19
2.77,1.05,0.03
2.85,1.13,0.26
2.86,1.04,0.26
2.6,1.1,0.33
2.57,0.96,0.04
2.74,0.82,0.19
2.74,1,0.14
2.74,1.06,0.14
2.76,0.98,0.1
2.7,1,0.2
2.83,1.1,0.15
2.78,0.96,0.07
2.7,0.89,0.26
2.75,1.13,0.01
2.52,1.08,0.09
2.68,0.84,0.2
2.64,0.89,0.21
2.84,1.11,0.25
2.97,0.92,0.28
2.67,1.08,0.09
2.88,1.15,0.32
2.82,0.89,0.17
2.77,1.05,0.14
2.69,0.92,0.17
2.74,1.02,0.17
2.89,1.14,0.13
2.73,1,0.21
2.6,1,0.27
2.85,0.87,0.27
2.66,1.17,0.4
2.65,0.97,0.3
2.7,0.95,0.25
2.6,0.82,0.17
2.91,0.89,0.24
2.84,1.12,0.28
2.84,0.95,0.07
2.77,1.01,0.25
2.7,1.05,0.15
2.77,1.12,0.1
2.88,0.93,0.3
2.78,1.03,0.18
2.68,0.96,0.22
2.67,1,0.39
2.63,0.99,0.2
2.64,0.99,0.24
2.91,1.12,0.16
2.72,0.84,0.35
2.72,1.02,0.13
2.53,1.04,0.42
2.68,1,0.13
2.85,0.9,0.37
2.87,0.99,0.23
2.64,1.02,0.1
2.86,0.95,0.08
2.84,0.9,0.3
2.65,1.04,0.26
2.64,1.21,0.14
2.71,1.11,0.16
2.69,1.09,0.04
2.6,1.1,0.13
2.74,1.09,0.21
2.71,0.72,0.23
2.75,0.99,0.16
2.83,0.91,0.3
2.71,1.04,0.24
2.72,0.93,0.48
2.67,1.03,0.14
2.53,1.15,0.21
2.64,0.99,0.11
2.77,0.83,0.16
2.8,1.17,0.09
2.78,0.8,0.22
2.75,1.03,0.09
2.67,0.98,0.27
2.69,0.96,0.05
2.75,0.92,0.3
2.69,1.14,0.35
2.69,0.84,0.21
2.7,0.96,0.09
2.65,0.89,0.32
2.87,1.02,0.31
2.83,1.11,0.27
2.74,0.8,0.25
2.7,1.13,0.2
2.95,1.12,0.17
2.84,1,0.3
2.83,1.02,0.18
2.81,0.97,0.29
2.73,0.91,0.2
2.78,0.82,0.14
2.78,1.04,0.2
2.61,0.9,0.31
2.63,1.04,0.05
2.57,1.01,0.03
2.72,1.02,0.11
2.66,1.07,0.2
2.72,1.03,0.07
2.65,1.03,0.2
2.77,1.03,0.34
2.61,1,0.18
2.65,0.95,0.22
2.85,0.83,0.33
2.91,1.08,0.28
2.76,1,0.27
2.86,0.85,0.27
2.78,0.92,0.18
2.81,1.07,0.28
2.68,0.99,0.21
2.71,1.05,0.09
2.84,1.14,0.26
2.62,1.19,0.25
2.52,0.98,0.41
2.79,1.02,0.14
2.89,1.08,0.18
2.92,0.73,0.17
2.64,0.86,0.12
2.92,1.01,0.14
2.7,1.09,0.06
2.93,0.93,0.1
2.66,0.79,0.14
2.87,0.9,0.13
2.79,1.3,0.02
2.61,1.12,0.12
2.86,0.72,-0.06
2.73,1,0.15
2.69,1.04,0.16
2.84,1.11,0.18
2.8,0.93,0.13
2.76,0.85,0.16
2.67,1.04,0.2
2.65,1.05,0.17
2.83,1.07,0.1
2.59,1.05,0.24
2.81,1.04,0.16
2.8,1.13,0.03
2.7,1.03,0.13
2.94,0.97,0.06
2.87,1.11,0.08
2.73,1.02,0.1
2.69,1.06,0.28
2.64,0.95,0.39
2.9,1.13,0.31
2.84,1.06,0.3
2.67,0.94,0.35
2.62,1.02,0.14
2.81,1.03,0.18
2.73,1,0.16
2.82,1.04,0.12
2.56,1.03,0.18
2.77,1.04,0.16
2.64,0.91,0.38
2.66,1.1,0.27
2.94,0.97,0.34
2.75,0.83,0.29
2.72,1.11,0.22
2.81,1.12,0.21
2.58,1.01,0.17
2.83,0.98,0.18
2.64,1.08,0.11
2.69,1.07,0.1
2.57,1.08,0.17
2.68,1.02,0.18
2.93,1.02,0.2
2.65,0.94,0.12
2.77,1.09,0.15
2.84,0.96,0.09
2.66,0.86,0.1
2.92,0.9,0.34
2.7,1.03,0.21
2.71,0.96,0.37
2.81,0.95,0.19
2.98,0.95,0.08
2.66,1.18,0.15
2.75,0.95,0.02
2.88,0.98,0.23
2.73,0.77,0.18
2.76,0.88,0.07
2.72,0.92,0.24
2.82,1.01,0.27
2.55,1.05,0.15
2.91,1.02,0.22
2.77,1.03,0.35
2.62,0.97,0.18
2.68,1.06,0.29
2.71,1.1,0.08
2.82,1,0.13
2.8,1.12,0.23
2.87,1.11,0.24
2.63,1,0.31
2.7,0.99,0.25
2.87,0.89,0.21
2.79,1.2,0.16
2.76,1,0.18
2.71,0.99,0.19
2.9,1.01,0.22
2.78,1.05,0.21
2.95,1.15,0.27
2.61,0.95,0.18
2.61,0.96,0.13
2.72,0.94,0.4
2.75,1.09,0.04
2.8,0.96,0.26
2.77,1.13,0.13
2.83,0.81,0.12
2.55,1.01,0.17
2.81,1.04,0.07
2.72,1.1,0.21
2.84,1.07,0.17
2.98,1.1,0.05
2.67,1.03,0.51
2.86,0.83,0.09
2.88,0.85,0.16
2.73,1.02,0.21
2.76,0.95,0.24
2.91,0.9,0.22
2.66,0.98,0.28
2.77,0.94,0.2
2.6,1.07,0.09
2.83,1.01,0.02
2.69,0.96,0.25
2.91,1,0.21
2.82,1.06,0.37
2.74,1.07,0.18
2.6,1.04,0.01
2.53,0.99,0.27
2.64,0.92,0.32
2.51,0.91,0.31
2.7,1.15,0.29
2.74,1.04,0.02
2.71,0.95,0.23
2.68,0.97,0.24
2.77,1.09,0.2
2.63,0.97,0.05
2.62,0.81,0.22
2.83,0.92,0.27
2.61,1.13,0.35
2.68,1.06,0.37
2.66,0.99,0.23
2.85,0.94,0.33
2.85,1.02,0.06
2.79,1.06,0.28
2.66,0.97,0.33
2.75,1.07,0.13
2.59,1.06,0.35
2.66,1.1,0.26
2.62,0.89,0.17
2.8,1.13,0.34
2.92,1.1,0.24
2.86,0.89,0.43
2.7,1,0.19
2.86,1.07,0.2
2.91,1,0.33
2.79,0.81,0.07
2.76,1.05,0.18
2.73,1.02,0.19
2.71,0.94,0.2
2.86,1.04,0.09
2.74,0.96,0.3
2.71,0.83,0.28
2.78,1.04,0.03
2.84,1.02,0.34
2.94,1.15,0.3
2.74,1.05,0.39
2.8,0.84,0.11
2.74,1,-0.01
2.74,1.14,0.19
2.78,0.98,0.09
2.8,1.04,0.21
2.71,1.13,0.16
2.68,1.06,0.28
2.86,1,0.16
2.8,1.11,0.08
2.67,1.17,0.18
2.77,1.04,0.08
2.87,0.88,0.02
2.74,1.05,0.31
2.83,1.01,0.07
2.65,0.94,0.22
2.61,0.93,0.2
2.47,1.06,0.21
2.8,1.06,0.23
2.82,0.99,0.13
2.64,0.89,0.17
2.79,1.13,0.27
2.68,1.06,0.19
2.69,0.99,0.23
2.97,1.06,0.02
2.77,0.82,0.14
2.78,0.91,0.23
2.65,0.97,0.22
2.73,1.08,0.12
2.62,0.96,0.29
2.76,1.01,0.11
2.69,1.08,0.16
2.67,0.96,0.22
2.91,1.01,0.16
2.76,1.1,0.24
2.71,1.05,0.36
2.73,0.89,0.19
2.74,1,0.22
2.75,1.02,0.22
2.67,0.98,0.27
2.84,0.92,0.33
2.8,1.05,0.34
2.73,1.03,0.21
2.68,1.02,0.05
2.84,0.86,0.29
2.76,0.96,0.23
2.67,1.1,0.21
2.77,0.94,0.25
2.65,1.05,0.29
2.82,1.04,0.16
2.71,1.01,0.14
2.81,1.12,0.14
2.79,1.14,0.2
2.74,1.01,0.1
2.66,1.09,0.22
2.71,0.93,0.21
2.77,1.02,0.12
2.75,0.94,0.16
2.7,0.94,0.22
2.67,0.98,0.05
2.68,1.1,0.24
2.71,0.99,0.14
2.73,1.01,0.15
2.79,1.03,0.23
2.79,1.07,0.32
2.77,1.06,0.15
2.9,1.06,0.06
2.79,0.91,0.24
2.93,0.95,0.13
2.6,0.97,0.26
2.86,0.96,0.15
2.6,1.07,0.07
2.77,0.93,0.2
2.92,1.09,0.12
2.78,1.07,0.35
2.63,0.78,0.16
2.75,1.03,0.02
2.82,1.01,0.11
2.7,0.95,0.08
2.71,0.81,0.19
2.78,1.15,0.24
2.86,1.05,0.17
2.79,0.93,0.31
2.79,0.95,0.2
2.85,0.92,0.27
2.67,0.9,0.13
2.83,0.97,0.23
2.77,0.95,0.22
2.93,1,0.12
2.94,0.96,0.26
2.91,1.16,0.25
2.76,0.86,0.19
2.67,1.13,0.18
2.74,0.96,0.17
2.85,1.02,0.12
2.88,0.82,0.11
2.82,0.93,0.27
2.94,0.94,-0.08
2.73,0.95,0.31
2.93,1.09,-0.02
2.81,0.91,0.2
2.88,0.92,0.34
2.64,0.96,0.45
2.58,0.96,0.28
2.73,1.1,0.32
2.69,1.25,0.21
2.72,1.12,0.23
2.78,0.94,0.02
2.83,1.11,0.38
2.79,0.9,0.28
2.7,0.96,0.11
2.47,0.95,0.37
2.51,0.96,0.18
2.83,1.03,0.28
2.7,1,0.24
2.81,1.15,0.21
2.54,1.05,0.29
2.62,1,0.2
2.82,1.02,0.04
2.68,1.07,0.33
2.67,1.1,0.28
2.79,1.12,0.2
2.68,0.9,0.26
2.71,1.01,0.21
2.79,0.9,0.28
2.88,1.17,0.22
2.67,0.93,0.15
2.74,0.83,0.33
2.63,0.93,0.13
2.69,0.97,0.14
2.79,0.9,0.22
2.6,1.06,0.18
2.78,1.18,0.02
2.79,0.79,0.2
2.72,1.02,0.16
2.67,1.02,0.13
2.77,0.88,0.12
2.75,1,0.18
2.72,1.01,0.16
2.78,0.9,0.27
2.75,1.01,0.2
2.81,1.25,0.18
2.86,1.08,0.19
2.93,0.96,0.2
2.62,1.07,-0.03
2.86,1.03,0.29
2.7,0.87,0.22
2.8,1.03,0.1
2.74,1.02,0.07
2.65,0.87,0.22
2.73,1,0.12
2.75,1.09,0.24
2.56,0.99,0.21
2.68,0.9,0.21
2.89,0.86,0.19
2.61,1,0.21
2.82,1.13,0.21
2.74,1.02,0.14
2.67,0.96,0.22
2.66,0.96,0.2
2.77,0.94,0.05
2.7,1.05,0.18
2.86,1.25,0.26
2.71,1.13,0.07
2.69,1.15,0.21
2.53,1,0.14
2.77,0.87,0.09
2.75,1.08,0.14
2.82,1.07,0.29
2.71,1,-0.04
2.7,1.02,0.22
2.83,1.09,0.12
2.71,0.98,0.08
2.85,1,0.1
2.76,1.04,0.28
2.83,1.34,0.1
2.84,0.96,0.32
2.78,1.15,0.03
2.97,1.21,0.2
2.76,1.04,0.16
2.85,1.16,0.21
2.63,1.08,0.34
2.62,1.1,0.14
2.81,0.97,0.24
2.83,1.12,0.08
2.84,1.1,0.07
2.76,0.87,0.29
2.75,1.02,0.28
2.69,1.15,0.31
2.77,1.1,0.27
2.63,1.01,0.25
2.61,1.05,0.12
2.88,0.95,0.21
2.71,1.08,0.09
2.87,1.13,0.06
2.76,1.04,0.2
2.81,1.16,0.24
2.9,0.93,0.12
2.88,1.05,0.05
2.57,1,0.34
2.6,0.94,0.21
2.79,1.08,0.18
2.83,1.08,0.39
2.79,1,0.06
2.76,1.07,0.26
2.51,1.02,0.14
2.94,1,0.28
2.73,1.04,0.28
2.88,1.05,0.27
2.94,0.86,0.3
2.82,0.88,0.24
2.72,1,0.43
2.91,1.09,0.53
2.81,1.06,0.21
2.97,0.93,0.31
2.83,0.97,0.28
2.79,1,0.13
2.53,0.95,0.47
2.84,0.8,0.22
2.81,1.03,0.16
2.65,1.03,0.26
2.75,1.02,0.25
2.58,1.06,0.09
2.84,0.9,0.15
2.81,1.16,0.34
2.85,1.1,0.19
2.86,1.02,0.25
2.64,0.97,0.41
2.85,1.15,0.05
2.84,1.03,0.18
2.59,1.08,0.11
2.53,1.06,0.25
2.68,1.05,0.16
2.87,0.93,0.3
2.69,1.05,0.26
2.47,1.06,0.23
2.63,0.93,0.2
2.68,1.08,0.27
2.69,1.16,0.1
2.82,0.98,0.19
2.65,1.22,0.19
2.55,0.83,0.01
2.67,0.95,0.13
2.85,1.18,0.19
2.72,1.2,0.2
2.9,0.96,0.39
2.85,1.03,0.37
2.75,1.17,0.08
2.66,1.01,0.07
2.71,1.17,0.06
2.58,0.89,0.26
2.79,1.22,0.28
2.69,0.93,0.03
2.59,1,0.24
2.61,1.05,0.17
2.86,0.91,0.29
2.81,0.96,0.15
2.76,1.02,0.26
2.75,1.02,0.16
2.82,1.14,0
2.76,0.78,0.13
2.72,0.86,0.16
2.83,0.95,0.08
2.7,0.9,0.18
2.71,1.01,0.16
2.79,0.98,0.27
2.76,1.17,0.07
2.76,0.79,0.14
2.79,0.86,0.41
2.61,1.04,0.23
2.84,1.15,0.12
2.91,1.12,0.13
2.96,1.12,0.16
2.75,1.03,0.14
2.83,0.94,0.34
2.58,1.01,0.22
2.63,0.93,-0.08
2.75,1,0.2
2.84,1.04,0.16
2.62,0.98,0.11
2.83,0.85,0.19
2.63,1.05,0.1
2.59,1.01,0.31
2.77,0.93,0.13
2.72,0.93,0
2.7,0.93,0.19
2.87,0.86,0.23
2.76,0.99,0.19
2.78,1.07,0.16
2.73,0.87,0.22
2.91,0.99,0.06
2.55,0.94,0.23
2.74,1.14,0.24
2.73,1.02,0.22
2.81,1.11,0.28
2.68,1.13,0.22
2.75,0.99,0.11
2.76,1.07,0.1
2.58,1.07,0.26
2.97,1.01,0.24
2.63,1.08,0.08
2.69,1.2,0.24
2.75,1.08,0.11
2.76,0.92,0.14
2.65,1,0.21
2.89,1.15,0.39
2.89,1.14,0.16
2.86,1.06,0.12
2.8,1,0.17
2.69,1,0.35
2.68,0.95,0.08
3.01,1.14,0.15
2.84,0.91,0.08
2.74,1.15,0.22
2.77,1.05,0.19
2.74,1.06,0.25
2.72,0.82,0.39
2.68,1.15,-0.01
2.69,1.03,0.23
2.64,1.14,-0.01
2.75,0.96,0.18
2.83,1.02,0.31
2.82,0.95,0.33
2.73,1.2,0.26
2.76,1.03,0.07
2.72,0.93,0.28
2.63,1.02,0.09
2.67,1.19,0.26
2.88,1.18,0.31
2.72,1.07,0.21
2.77,1.03,0.15
2.85,0.89,-0
2.85,0.89,0.4
2.74,1.08,0.3
2.76,1.22,0.18
2.8,0.98,0.38
2.61,0.93,0.18
2.67,1.01,0.25
2.85,1.09,0.11
2.74,1.12,0.32
2.82,1.07,0.25
2.7,1.16,0.31
2.63,1.04,0.12
2.7,0.88,0.16
2.56,1.09,0.19
2.57,1.15,0.11
2.75,1.13,0.01
2.72,1.15,0.11
2.93,0.85,-0.04
2.92,0.82,0.12
2.53,0.99,0.15
2.81,1.29,0.18
2.83,0.86,0.16
2.69,0.81,0.15
3,1.06,0.38
2.79,0.96,0.18
2.87,1.02,0.18
2.72,1.1,0.23
2.8,1.21,0.22
2.74,1.06,0.41
2.71,1.16,0.38
2.75,1.05,0.35
2.92,1.08,0.32
2.65,1.11,0.14
2.76,0.92,0.27
2.85,0.76,0.19
2.85,0.99,0.15
2.83,0.97,0.13
2.66,0.98,0.27
2.76,0.76,0.36
2.8,0.99,0.24
2.72,1.07,0.33
2.75,0.99,0.25
2.98,1.01,0.03
2.83,1,0.15
2.61,0.95,0.23
2.68,1.09,0.26
2.74,1.06,0.11
2.67,0.98,0.22
2.87,0.98,0.25
2.67,0.83,0.11
2.77,0.98,0.09
2.8,1.1,0.29
2.92,1.06,0.31
2.82,1.11,0.46
2.83,1.1,0.22
2.85,0.95,0.22
2.75,1.23,0.32
2.65,0.93,0.3
2.8,0.97,0.22
2.51,0.96,0.3
2.84,1.08,0.12
2.85,1.21,0.29
2.63,1.13,0.23
2.7,0.94,0.06
2.8,0.9,0.23
2.83,0.98,0.06
2.76,0.98,0.17
2.68,0.85,0.21
2.74,1.01,0.4
2.78,1.04,0.24
2.75,0.81,0.35
2.74,0.87,0.17
2.77,0.94,0.05
2.58,0.96,0.18
2.58,1.06,0.19
2.68,1.1,0.24
2.85,0.84,0.41
2.61,0.96,0.11
2.77,1.02,0.28
2.87,1.12,0.31
2.8,1.31,0.28
2.7,1.09,0.31
2.68,0.98,0.22
2.69,1,0.06
2.76,1.25,0.23
2.63,1,0.2
2.62,0.96,0.2
2.77,0.92,0.22
2.8,1.1,0.2
2.67,0.95,0.31
2.77,1.11,0.08
2.84,0.95,0.17
2.68,0.9,0.18
2.89,1.1,0.26
2.76,1.09,0.28
2.75,1.03,0.26
2.73,0.96,0.06
2.72,0.89,0.2
2.74,1.07,0.04
2.75,1.17,0.21
2.78,0.91,0.41
2.66,0.82,0.14
2.71,1.11,0.24
2.62,1.03,0.18
2.81,0.92,0.15
2.82,0.92,0.17
2.83,0.97,0.29
2.66,0.94,0.05
2.56,0.81,0.16
2.69,1,0.32
2.8,0.94,0.29
2.74,1.01,0.01
2.68,0.99,0.19
2.59,1.14,0.26
2.77,0.95,0.09
2.76,1.09,0.38
2.6,0.97,0.36
2.74,1.2,0.28
2.76,0.9,0.21
2.66,1.1,0.13
2.69,0.89,0.22
2.56,1.15,0.32
2.7,1.12,0.26
2.6,0.92,0.22
2.61,0.85,0.21
2.71,1.12,0.23
2.69,0.9,0.06
2.7,0.97,0.09
2.76,0.89,0.14
2.71,1.3,0.06
2.69,0.87,0.13
2.82,0.95,0.13
2.61,1,-0.05
2.85,0.89,0.34
2.83,1.06,0.23
2.6,1.1,0.22
2.82,0.98,0.31
2.51,0.93,0.3
2.72,1.09,0.17
2.85,1.06,0.26
2.74,1.16,0.19
2.71,0.98,0.5
2.58,0.96,0.23
2.82,1.03,0.31
2.87,0.8,0.2
2.87,0.94,0.28
2.84,1.08,0.26
2.56,1.01,0.05
2.82,0.95,0.46
2.67,0.86,0.26
2.82,1.01,0.11
2.73,1.07,0.1
2.67,0.92,0.14
2.67,0.78,0.23
2.71,0.9,0.07
2.7,1,0.13
2.7,0.76,0.05
2.68,0.89,0.3
2.67,0.87,0.1
2.87,1.18,0.03
2.73,0.96,0.12
2.73,0.99,0.16
2.68,1.1,0.28
2.85,1.05,0.28
2.6,0.95,0.18
2.7,0.91,0.35
2.73,1.03,0.28
2.69,0.95,0.15
2.65,0.79,0.11
2.74,1.17,0.17
3,0.79,0.16
2.92,1,0.15
2.76,1.21,0.05
2.81,1,0.35
2.81,1.09,-0.05
2.77,0.84,0.2
2.81,0.73,0.22
2.63,0.94,0.31
2.73,0.95,0.23
2.72,1.15,0.27
2.88,0.86,0.24
2.73,1.06,0.26
2.72,0.97,0.26
2.63,1.01,-0.01
2.85,0.88,0.41
2.61,0.85,0.31
2.73,0.89,0.23
2.79,1.04,0.07
2.66,1.13,0.11
2.69,0.89,0.12
2.67,0.93,0.31
2.89,0.95,0.29
2.83,1.03,0.09
2.59,0.97,0.11
2.58,0.99,0.15
2.8,1.03,0.24
2.72,0.9,0.23
2.71,1.07,0.24
2.72,1,0.26
2.88,0.97,0.19
2.97,1.12,0.44
2.85,1.07,0.17
2.93,1.01,0.23
2.95,1.02,0.15
2.66,1.04,0.19
2.75,0.96,0.2
2.58,1.15,0.25
2.75,1.15,0.33
2.71,1.1,0.22
2.67,1,0.04
2.64,1.13,0.44
2.87,1.02,0.34
2.67,0.97,0.17
2.59,1.14,0.02
2.77,0.85,0.33
2.77,1.05,0.14
2.82,1.01,0.2
2.72,0.9,0.16
2.69,1.19,0.06
2.74,1.18,0.23
2.8,1.18,0.06
2.81,0.8,0.18
2.78,1.02,0.27
2.67,1.03,0.18
3,0.94,0.14
2.68,0.96,0.09
2.8,0.98,0.15
2.7,0.96,0.46
2.69,0.97,0.09
2.71,0.87,0.01
2.79,0.92,0.27
2.57,0.94,0.14
2.86,1.11,0.31
2.68,1.13,0.27
2.88,0.78,0.09
2.79,1,0.25
2.84,1.15,0.1
2.76,1.12,0.29
2.57,1.08,0.2
2.71,1.01,0.21
2.75,1.01,0.39
2.75,0.89,0.18
2.6,1.11,0.14
2.71,0.9,0.11
2.69,0.99,0.24
2.86,1.03,0.15
2.58,0.91,0.22
2.71,1.02,0.17
2.74,0.88,0.13
2.57,0.94,0.15
2.66,1.02,0.24
2.67,0.94,0.05
2.84,1.01,0.18
2.74,0.98,0.15
2.78,0.88,0.02
2.72,0.87,0.12
2.76,0.92,0.14
2.75,1.08,0.28
2.8,1.02,0.44
3.14,1.1,0.14
2.74,0.98,0.1
2.85,1,0.23
2.92,1.2,0.25
2.59,1.29,0.27
2.73,0.91,0.17
2.65,0.89,0.34
2.9,0.89,0.18
2.63,0.91,0.14
2.75,0.89,0.11
2.74,0.8,0.49
2.79,1.08,0.22
2.7,0.98,0.04
2.97,0.94,0.1
2.76,1.01,0.27
2.81,1.14,0.36
2.53,0.9,0.18
2.61,1.04,0.11
2.69,1.22,0.15
2.84,1.09,0.2
2.66,1.05,0.38
2.85,0.88,0.17
2.94,0.98,0.24
2.71,1.06,0.26
2.75,0.98,0.3
2.67,1.07,0.24
2.75,0.99,0.09
2.64,0.93,0.11
2.69,1.13,0.35
2.62,1.06,0.42
2.69,1.09,0.33
2.73,1.11,0.21
2.92,0.87,0.24
2.76,1.08,0.32
2.67,1.03,0.22
2.71,1.05,0.16
2.82,1.07,0.19
2.96,0.98,0.31
2.72,0.94,0.3
2.69,0.98,0.24
2.77,0.96,0.23
2.77,1.06,0.32
2.85,1.07,0.02
2.81,1.03,0.2
2.81,1.02,0.03
2.88,1.1,0.13
2.85,1.14,0.04
2.54,1.01,0.25
2.89,1.09,0.18
2.78,1.08,0.22
2.76,0.98,0.29
3.1,0.99,0.06
2.79,1.01,0.06
2.7,0.88,0.33
2.67,1.15,0.27
2.72,0.92,0.18
2.85,1.06,0.19
2.77,1.1,0.28
2.84,1.01,0.26
2.74,1.01,0.13
2.81,0.91,0.34
2.68,1.11,0.21
2.8,0.95,0.01
2.75,1.09,0.36
2.81,1.05,0.3
2.75,1.16,-0
2.84,1.07,0.2
2.64,1.05,-0.07
2.67,0.92,0.25
2.69,1.05,0.09
2.8,0.95,0.32
2.74,0.93,0.16
2.79,1,0.09
2.8,0.96,0.32
2.67,1.02,0.06
2.61,1,0.15
2.79,0.86,0.28
2.69,1.05,0.17
2.76,0.97,0.14
2.68,1.12,0.2
2.82,1,0.17
2.72,0.78,0.13
2.79,1.2,0.23
2.64,0.92,0.2
2.83,0.98,0.25
2.79,1.05,0.32
2.75,0.92,-0.06
2.65,1.08,0.15
2.92,0.98,0.1
2.78,1.26,0.18
2.81,0.9,0.24
2.75,1.02,0.14
2.63,1.08,0.42
2.9,1.04,0.18
2.81,1.04,0.1
2.76,0.84,0.23
2.73,1.01,0.31
2.75,0.85,-0.04
2.83,1.14,0.32
2.7,0.91,0.19
2.64,1.05,0.18
2.75,1.2,0.18
2.92,1,0.11
2.65,1.03,0.32
2.58,0.99,0.18
2.74,0.99,0.14
2.79,0.86,0.32
2.75,0.99,0.4
2.81,0.87,0.15
2.7,1.12,0.2
2.78,0.93,0.18
2.85,1.03,0.24
2.5,0.82,0.24
2.77,0.86,0.03
2.73,0.99,0.3
2.8,0.9,0.29
2.73,1.13,0.17
2.77,0.98,0.18
2.8,1,0.17
2.86,1,0.14
2.81,0.96,0.22
2.77,1.05,0.18
2.61,0.88,-0.09
2.75,1.16,0.24
2.77,1.08,0.09
2.91,0.92,0.09
2.64,1.05,0.27
2.74,1.01,0.11
2.7,1.18,0.29
2.72,0.93,0.04
2.79,1.02,0.01
2.74,0.95,0.14
2.58,1.2,0.21
2.93,0.95,0.16
2.73,0.9,0.33
2.85,0.97,0.18
2.69,1,0.11
2.87,0.97,0.09
2.87,0.92,0.15
2.81,0.95,0.21
2.92,1.06,0.32
2.81,0.91,0.12
2.74,1.11,0.29
2.63,1.03,0.11
2.72,1.04,0.36
2.66,1.07,0.1
2.62,0.98,0.18
2.81,1.05,0.26
2.71,1.22,0.19
2.7,0.96,0.31
2.72,0.94,0.29
2.83,1.06,0.07
2.84,1.12,0.03
2.71,1.18,0.32
2.78,1.03,0.17
2.85,1.13,0.1
2.76,0.85,0.03
2.78,0.88,0.21
2.88,0.92,0.28
2.7,0.99,0.23
2.85,0.98,0.33
3.01,1.05,0.1
2.79,0.99,0.43
2.69,1.18,0.22
2.78,0.99,0.14
2.67,0.99,0.33
2.71,0.98,0.23
2.59,0.86,0.08
2.74,0.89,0.35
2.73,1.07,0.17
2.79,1.16,0.3
2.73,1.16,0.22
2.54,0.9,0.11
2.81,0.92,0.07
2.79,1.05,0.25
2.87,1.06,0.2
2.59,1.09,0.19
2.83,1.04,0.27
2.83,1.04,0.1
2.78,1.24,0.21
2.83,0.99,0.29
2.66,1.07,0.16
2.82,0.89,0.18
2.74,1.15,0.22
2.64,1.08,0.33
2.71,0.87,0.25
2.71,0.83,0.06
2.88,1.06,0.05
2.55,1,0.14
2.8,0.83,0.43
2.69,1.1,0.25
2.8,1.14,0.3
2.67,0.93,0.39
2.73,0.73,0.11
2.82,1.01,0.32
2.84,0.86,0.14
2.72,1.06,0.06
2.74,1.11,0.23
2.69,0.77,0.04
2.79,0.95,0.36
2.64,1.08,0.23
2.88,1.05,-0.06
2.77,1.08,0.08
2.86,0.94,0.23
2.91,1,0.13
2.87,0.95,0.07
2.86,0.96,0.3
2.61,1.05,0.29
2.85,0.76,0.18
2.75,0.99,0.21
2.87,1.11,0.17
2.85,0.88,0.4
2.73,0.88,0.08
2.72,1.05,0.14
2.84,0.99,0.17
2.59,1.17,0.31
2.8,1.11,0.24
2.81,0.9,0.13
2.84,0.82,0.29
2.87,0.99,0.3
2.56,0.9,0.13
2.81,0.9,0.12
2.7,0.91,0.04
2.67,0.99,0.28
2.63,0.94,0.29
2.82,0.99,0.29
2.8,0.9,0.08
2.62,1.15,0.14
2.93,0.96,0.3
2.65,0.9,0.27
2.79,0.81,0.3
2.74,1,0.22
2.68,1.04,0.14
2.9,1.14,0.15
2.71,1.06,0.33
2.67,1.09,0.34
2.73,1.06,0.21
2.79,0.92,0.23
2.81,0.88,0.19
2.67,0.74,0.28
2.66,0.9,0.17
2.89,1,0.31
2.8,1.01,0.08
2.72,1.3,0.3
2.86,0.97,0.14
2.77,1.05,0.05
2.56,1.06,0.2
2.67,0.8,0.31
2.72,1.03,0.19
2.76,0.95,0.31
2.81,1.03,0.11
2.75,1.04,0.18
2.6,1.11,0.11
2.87,1.04,0.35
2.53,1,0.31
2.79,1.04,0.24
2.59,0.88,0.2
2.98,0.92,0.18
2.79,1.05,0.26
2.79,1.02,0.14
2.68,1,0.3
2.72,1,0.17
2.66,1.07,0.18
2.59,1.16,0.31
2.82,1.16,0.13
2.83,1.03,0.07
2.65,0.94,0.15
2.92,0.9,0.4
2.93,0.89,0.13
2.64,0.7,0.2
2.67,0.95,-0.06
2.65,0.89,0.16
2.74,0.91,0.25
2.72,0.94,0.36
2.65,1.11,-0.04
2.79,1.06,0.24
2.73,1.23,0.27
2.9,1.02,0.16
2.76,0.94,0.24
2.8,1.05,0.22
2.6,1.07,0.2
2.78,1.03,0.27
2.66,0.93,0.29
2.69,1.04,0.24
2.62,1.09,0.22
2.7,1.01,0.21
2.69,0.93,0.31
2.56,1.11,0.14
2.79,1.04,0.36
2.65,1.1,0.2
2.78,0.96,0.16
2.67,0.93,0.16
2.82,0.9,0.17
2.82,0.97,0.37
2.93,0.92,0.11
2.79,0.95,0.11
2.71,0.96,0.14
2.7,1.16,0.12
2.65,1.01,0.08
2.59,0.85,0.21
2.72,1.09,0.2
2.76,0.92,0.24
2.58,0.98,0.09
2.72,1,0.36
2.71,1.05,0.35
2.89,1.09,0.19
2.61,0.9,0.03
2.85,0.99,0.06
2.59,0.87,0.14
2.78,1.07,0.26
2.65,1.04,0.08
2.87,1.01,0.2
2.77,0.88,0.1
2.71,1.13,0.35
2.72,0.91,0.37
2.88,1.01,0.22
3,0.98,0.21
2.98,1.03,0.34
2.71,0.98,0.02
2.63,0.95,0.18
2.78,1.03,0.17
2.69,1.04,0.07
2.53,1.03,0.11
2.67,1.11,0.31
2.81,1.12,0.13
2.7,1.11,0.29
2.77,0.98,0.2
2.87,0.95,0.12
2.91,0.99,0.26
2.99,0.85,0.18
2.6,1.16,0.33
2.76,0.78,0.22
2.8,1.1,0.16
2.72,1.15,0.34
2.62,0.97,0.24
2.61,0.96,0.14
2.61,1.18,0.24
2.95,0.97,0.29
2.64,0.92,0.33
2.87,0.93,0.2
2.74,0.94,0.25
2.82,0.9,0.24
2.7,1.02,0.3
2.63,0.93,0.28
2.58,1.2,0.21
2.67,0.97,0.29
2.65,0.95,0.16
2.82,0.92,0.24
2.59,1.05,0.14
2.75,1.03,0.23
2.9,1.01,0.09
2.64,0.94,0.21
2.57,0.81,0.29
2.81,1.15,0.15
2.75,0.97,0.23
2.75,0.75,0.24
2.76,0.91,0.28
2.71,0.95,0.17
2.81,1.11,0.41
2.76,0.98,0.07
2.82,1.12,0.34
2.72,1.09,0.23
2.82,1.08,0.21
2.74,0.68,0.19
2.7,1.02,0.34
2.73,1.01,0.13
2.9,1.08,0.25
2.84,0.72,0.17
2.82,1.12,0.12
2.77,0.9,0.15
2.86,0.92,0.13
2.77,0.93,0.02
2.94,1.03,0.27
2.88,1.15,0.03
2.65,0.89,0.16
2.68,1.03,0.18
2.9,1.01,0.37
2.85,0.96,0.13
2.76,0.88,0.21
2.78,0.9,0.16
2.69,0.89,0.06
2.77,0.99,0.27
2.81,1.28,0.16
2.78,1.05,0.35
2.62,0.99,0.13
2.82,1.12,0.1
2.69,1.21,0.11
2.79,1.08,0.3
2.66,1.08,0.08
2.66,1.03,0.16
2.79,1.15,0.14
2.88,0.91,0.29
2.7,1.07,0.13
2.68,1.15,0.2
2.74,0.93,0.16
2.93,1.1,0.37
2.54,1.1,0.33
2.69,1.02,0.25
2.95,0.99,0.21
2.69,0.99,0.22
2.7,0.99,0.16
2.82,1.01,0.24
2.78,1.03,0.14
2.82,1.21,0.27
2.65,1.04,0.23
2.65,1.1,0.27
2.8,0.97,0.35
2.72,0.97,0.18
2.71,1.13,0.21
2.66,0.91,0.15
2.7,1,0.33
2.7,0.96,0.14
2.54,0.89,0.16
2.73,0.77,0.1
2.51,1.14,0.51
2.84,1.04,0.13
2.67,1.17,0.33
2.55,1.04,0.27
2.59,0.88,0.21
2.66,1.12,0.38
2.85,0.97,0.33
2.72,0.96,0.05
2.82,0.96,0.12
2.74,1.17,0.17
2.69,1.26,0.14
2.84,0.97,0.04
2.82,1.22,0.28
2.96,0.97,0.18
2.76,1.01,0.16
2.68,0.96,0.3
2.9,0.99,0.18
2.77,1.06,0.28
2.71,0.99,0.16
2.67,1.36,0.29
2.7,1.05,0.23
2.92,1.03,0.11
2.8,0.84,0.26
2.85,0.98,0.14
2.9,1.2,0.09
2.68,0.94,0.25
2.81,1.08,0.28
2.68,1.08,0.19
2.88,1.18,0.37
2.77,1.04,0.26
2.71,0.95,0.23
2.57,0.94,0.09
2.95,0.8,0.16
2.8,0.95,0.12
2.78,1.06,0.15
2.95,0.84,0.15
2.77,0.93,0.13
2.58,0.95,0.07
2.96,1.01,0.18
2.71,0.91,0.25
2.64,1.01,0.29
2.84,1.23,0.19
2.82,0.83,0.14
2.88,1.01,0.32
2.85,1.17,-0
2.74,0.95,0.2
2.74,0.9,0.04
2.64,0.9,0.07
2.86,0.94,0.23
2.66,0.98,0.32
2.78,0.84,0.05
2.86,1.02,0.12
2.73,0.92,0.26
2.63,1.04,0.01
2.88,1.15,-0.08
2.63,0.9,0.31
2.73,0.99,0.3
2.86,1.06,0.12
2.6,1.05,0.23
2.88,0.83,0.2
2.81,1.05,0.21
2.71,0.94,0.42
2.81,1.17,0.04
2.88,1.01,0.11
2.86,0.98,0.27
2.77,0.93,0.18
2.62,0.88,0.32
2.68,1.05,0.21
2.9,1.02,0.28
2.84,0.99,0.12
2.86,0.98,0.17
2.77,0.98,0.18
2.78,0.82,0.21
3.02,0.79,0.18
2.9,0.85,0.15
2.7,1,0.07
2.69,1.14,0.25
2.86,1.12,0.2
2.81,0.83,0.24
2.72,0.99,0.27
2.86,0.99,0.08
2.8,1.06,0.2
2.76,1.08,0.14
2.58,1,0.21
2.78,0.75,0.23
2.68,0.99,0.07
2.72,1.06,0.16
2.66,1.09,0.05
2.72,1.03,0.38
2.67,1,0.05
2.68,0.89,0.35
2.65,0.95,0.33
2.49,1.05,0.13
2.88,0.99,0.08
2.65,0.85,0.13
2.7,1.11,0.23
2.69,1.11,0.08
2.45,1.03,0.26
2.7,0.84,0.2
