583.85,990.44
567.65,1024.5
561.46,999.31
572.56,1078.2
565.23,988.61
587.07,1042.4
601.69,1067.4
550.99,1025.3
590.98,1041
596.23,1058.6
582.07,1013.4
568.89,1039.7
567.89,1002.4
571.88,1041.9
593.64,1085.3
576.08,998.09
552.25,1014.5
570.95,1011.2
599.01,1036
583.38,1033.6
565.32,935.72
580.76,1014.6
592.35,1050.3
567.58,1001.8
559.59,1009.7
576.5,1022.7
548.88,985.9
581.9,1050.4
605.75,1085.4
580.74,1041
570.01,1016.2
580.02,1048.2
571.18,1003
583.87,1025.5
573.45,1033.7
575.81,1046.2
554.32,1020.7
584.46,1063.4
578.03,1020.8
582.32,1033.8
556.53,989.5
570.13,1012
579.06,1034.4
567.15,1009.2
570.72,1029.1
579.25,1021.1
583.51,1040.2
563.86,1014.4
565.78,1031.3
575.68,1043.9
578.83,1058.4
590.54,1043.5
561.75,1028.7
566.44,1021.6
587.67,1047
595.04,1046.6
558.01,975.76
568.76,1030
580.95,1042
572.15,976.22
580.19,1014.6
568.02,1015
585.59,1075.1
566.92,1038
569.82,1020.4
570.95,1027
592.59,1020.5
603.95,1049.5
579.94,1040.9
581.54,1018.6
573.82,1025.1
580.91,1012.2
590.24,1046.3
574.86,1035.9
573.51,1033.4
579.35,1007.1
592.65,1044.8
584.74,1015.1
580.33,1032.6
574.99,1009.6
579.71,1039.3
572.53,1013.9
575.12,1000.4
584.58,1063.4
597.32,1079
569.68,1014.4
577.58,1004.6
587.79,1013.8
578.9,1044.7
563.13,1006.6
586.17,1016.2
588.5,1061
559.36,1001.5
561.31,1017.2
588.75,1090.5
575.72,1036.5
562.89,991.21
582.12,1014.1
582.23,1006.1
581.88,1003.1
561.22,999.13
570.89,1031.1
580.55,1026.5
575.89,1015.5
586.75,1052.2
574.22,1023.3
574.72,1031.6
581.38,1081.7
576.94,1017
583.4,1025.6
584.49,1044.9
581.06,1021.8
580.79,1041.2
576.08,1024.3
564.7,980.79
595.86,1063.8
591.05,1051
600.27,1069.7
563.4,967.78
571.19,1017.8
589.99,1021.5
584.92,1041.2
594.69,1084.9
587.79,1059.8
585.55,1046.9
572.43,1027.4
567.22,1026.1
569.92,996.33
587.77,1027.4
557.25,1012.3
573.78,998.33
582.78,1044.7
578.5,1053.2
557.32,1025.9
586.9,1050.2
565.02,990.63
589.79,1027.2
580.33,1035.8
566.96,1028.7
580.55,1026.5
592.22,1020
557.63,1011.3
581.61,1030.3
568.19,1065.9
583.71,1049.1
571.08,1002.7
592.51,1045.3
568.93,1005.6
565.5,991.19
582.92,1069.6
569.24,1024.1
577.1,1030.4
574.8,1008.8
572.62,1039.1
568.5,966.2
576.03,1002.5
571.78,1030.8
575.99,1006.9
580.3,1026.7
567.63,1014.3
575.46,1027.8
578.22,1025.7
581.71,1089.6
578.08,1009.8
571.43,1038.8
585.4,1018.9
576.98,1021.2
583.44,1036.7
560.42,1008.2
580.62,1032.2
561.67,1030.1
564.66,1013.5
582.41,1049
591,1065
586.01,1054.9
582.83,1046.7
599.26,1055.6
543.2,974.36
572.72,995.02
571.45,1025.6
558.5,974.69
591.99,1072.6
563.86,1028
569.39,1014.4
590.69,1056
573.79,1013.6
576.82,1050.7
565.63,1008.8
554.46,1049.1
569.95,1043
589.01,1034.6
565.46,1044.2
585.7,993
567.82,1034.1
589.92,1060.6
576.05,1051.3
565.17,1012.2
579.6,984.99
595.36,1096
572.63,1025.3
588.38,1046.3
558.46,951.47
597.05,1038.2
572.38,1055.7
575.86,1069.7
591.24,1046
573.26,1015.1
586.13,1011.1
580.82,1017.6
561.6,1039.5
560.22,1025.6
561.52,972.43
590.8,1057.2
562.15,1033.7
573.13,1017.5
587.07,1029.4
574.12,1055.3
580.02,1048.2
589.43,1114.6
576.94,1053.9
588.46,1055.9
582.96,1006.8
580.74,1036.5
574.33,1040.3
582,1006.9
585.46,1008.2
576.56,1043.9
578.31,1055.2
573.29,1035.2
568.41,972.94
567.38,1023.3
582.98,1031.2
576.98,1013.5
597.3,1062.1
583.63,1036.7
595.38,1047.6
577,1037.3
576.75,1025.6
579.94,1033.2
569.33,1038.9
583.97,1036.6
572.1,1004.3
590.57,1048.1
588.26,1051.2
590.46,1050.1
577.59,1023.1
573.34,1024.7
574.56,980.26
562.53,1031.2
576.07,1028.7
562.85,1008.6
582.24,1031.4
578.4,1004.4
570.49,1028.3
569.64,1018.3
581.13,1016.4
568.79,1003.1
563.59,1008.7
580.57,1060.2
588.01,1007.6
588.76,1053
576.15,1004.7
578.64,1035.4
580.85,1057.9
570.14,996.71
577.75,988.4
585.49,995.46
581.38,1041.3
581.29,1065.1
584.69,1043.7
561.12,1025.1
580.83,1024.2
579.68,1061.1
579.23,1027.4
581.53,1053.5
573.31,1008.5
546.75,972.06
594.16,1025.1
578.53,1031.2
580.23,974.73
584.7,1052.8
587.95,1019.7
575.5,1010
587.21,1022.6
563.82,1011.8
576.22,991.74
575.33,1050.1
589.77,1028.2
575.51,1021.5
583.46,1050.5
578.36,1031.7
567.34,1023.3
575.82,1032.8
579.51,1021.9
578.78,1023.1
577.97,1038.7
588.63,1087.9
576.83,1012.5
571.4,1043.3
595.21,1071
558.78,1013.8
578.44,1051.3
592.05,1031.8
574.88,1052.2
582.24,1031.4
568.51,1013.6
585.39,1051.2
581.08,1032.7
574.55,964.15
576.4,1056.8
568.49,1005
563.73,1020.8
585.54,1078.2
596,1036.3
585.01,1050.5
572.29,1013.4
582.11,1045.5
548.41,967.95
584.33,1026.6
566.79,1055.8
576.55,1030.8
585.21,1029.5
583.56,1080
568.19,1049.5
578.76,1025.7
571.81,1026
573.05,1019.3
578.51,1002.2
578.48,1046.4
579.54,1019.3
556.09,1044.6
561.5,1003.6
597.68,1068
576.85,1035.3
557.16,1007.1
575.81,1044.5
573.63,1038.2
580.46,1061.1
570.11,1023.2
583.28,1068.5
568.52,1038.6
582.7,1064.9
587.97,1001.9
604.01,1078.6
569.97,1034.3
581.77,1052.2
575.8,1001.6
579.98,1025.2
567.06,1011.5
571.59,1031.3
577.39,1006.4
575.02,993.8
586.57,1058.1
581.31,1007.5
579.47,1023.6
602.51,1070.3
601.83,1083.2
583.16,1024.7
572.27,1007.2
565.84,1014.6
556.63,1023.7
574.92,1024.5
577.34,1015.1
569.94,1036.4
570.52,1035.5
572.48,1038.9
581.66,1039
564.53,1053.3
571.56,1017.3
570.47,1046.3
578.51,1019.5
580.33,1015.8
587.96,1058.4
579.88,1068.5
589.82,1080.4
567.25,987.84
581.02,987.01
575.48,1010.2
569.18,1019.2
581.59,1024.4
578.72,1088.7
582.97,1025.4
601.13,1071.1
579.86,1041.4
579.1,1071.9
590.32,1041.7
590.53,1063.5
574.76,1056
577.92,1052.7
588.81,1085.3
588.46,1031
566.26,987.65
591.19,1049
558.8,1039.4
564.82,1025.4
576.18,1030.3
592.47,1006.3
575.33,1050.1
547.96,989.23
577.94,1034.6
559.79,1011.5
578.71,1033.9
570.65,1024.7
589.38,1043.2
563.56,994.2
567.31,1038.3
585.67,1034.5
570.96,1009
574.32,1053.3
581.77,1052.2
582.53,1016.7
584.95,1044.5
577.58,1038
578.08,1027.9
575.93,1014.8
585.84,1021.5
568.92,1028.2
576.33,1045.2
569.03,991.74
579.99,1044.3
584.95,1019.7
588.88,1036.6
581.39,1015.3
561.87,1019.7
576.6,999.61
579.54,1043.6
573.72,1057.3
576.67,1041.2
584.15,1043.2
558.24,994.09
585.02,1047.3
566.55,1013.8
575.89,1034.2
577.53,1017.7
581.64,1047
576.02,1044.6
601.99,1059.3
571.3,1016.6
580.41,1045
581.52,1031.3
567.54,1003.2
569.83,1059.3
574.16,1039
570.19,1028.5
572.78,1010.5
596.64,1079.1
573.18,1017.2
573.64,1018.1
570.6,987.08
567.86,1003.6
571.27,1022.8
586.25,1070
565.13,1031.4
578.78,1051.8
559.58,976.08
577.19,1060.2
580.87,1055.8
577.11,1030.8
572.49,1016.2
572.92,1043.6
571.95,1008.3
581.01,1014.8
566.9,1020.2
579.79,1039.9
580.82,1017.6
598.32,1040.7
590.85,1088.8
571.56,1010.8
585.34,994.48
584.09,1043.9
592.47,1041.1
561.14,1017.1
588.31,1028.7
580.02,1076.7
564.94,1009.8
574.2,980.99
573.19,1019.5
575.66,1044.1
584.73,1031
583.55,1037.3
574.08,1081.4
573.67,1050.9
565.94,1017.8
564.35,1007.1
575.26,998.56
568.11,1018.6
571.17,1000.5
589.33,1063.1
566.82,982.14
582.85,1060.9
571.74,1078.6
610.36,1093.6
571.65,1046
580.28,1038.4
577.56,1024.6
578.25,1023.6
559.44,1029.2
594.89,1028
582.47,1078
590.15,1085.1
582.95,1023.7
580.29,1042.6
566.06,1059
573.04,1029
577.39,1026.4
569.05,979.7
588.96,1035
572.29,1013.4
583.9,1083.4
562.57,1023.4
584.24,1026
561.81,989.28
572.7,992.25
549.13,949.49
588.41,1026.8
571.44,1039.2
560.27,990.87
591.71,1065.3
574.35,1019.3
554.84,1013.6
588.85,1046
558,981.55
571.28,1005.1
585.09,1039.5
580.49,996.48
575.53,1071.9
555.24,1007.6
574.38,1039.4
580.33,1046
587.98,1041.4
568.73,1025.1
595.22,1063.1
581.74,1033.9
581.83,1051.9
566.45,993.54
580.37,1054.4
569.25,1049.2
565.62,991.2
569.76,1002.4
571.99,1037.8
567.73,1018.9
562.66,1009.1
571.09,1036.7
575.73,1037.9
583.74,1016.1
576.71,1064.3
572.93,1051.5
547.58,964.94
571.82,1039.8
579.51,1021.9
572.95,1010.3
583.45,1043.1
564.66,1002.6
575.74,988.5
578.44,1041.7
577.49,1035.6
547.77,978.65
589.09,1087.5
578.83,1042.6
563.09,1035.5
567.9,1062.4
561.91,986.07
581.15,1030.8
566.6,998.13
578.89,1037.9
586.48,1050.5
594.98,1110.3
577.23,1024.1
582.4,1052.9
565.85,991.08
583.86,1016.2
567.52,1060.3
577.01,1030.3
583.59,1048.4
561.17,1025.8
573.24,1027.7
569.13,969.92
571.02,1008.6
580.04,1052.7
572.14,1015.7
562.63,1025
577.16,1024.5
574.22,988.15
590.04,1032.7
574.22,1016.7
594.66,1057.3
570.15,1045.2
582.69,1074.4
558.21,991.37
602.22,1059.2
569.46,999.12
597.52,1061.9
571.01,1040.4
558,960.48
604.58,1082.4
587.74,1033.6
581.97,1040.2
584.9,1052.2
574.56,1013.1
601.63,1033
551.49,1010
570.59,1022
582.74,1055.9
590.61,1043.8
581.68,1055.5
584.88,1041.1
574.08,1001
574.46,1077.2
571.83,1044.1
549.59,1001.5
572.56,1025
576.01,1035.5
574.44,1028.3
579.74,1028.1
575.16,1057.8
578.8,1053.7
560.04,1008.4
575.49,1041.6
568.96,1045.9
553.81,1012.3
563.36,1003.4
576.86,1032.3
566.7,993.13
570.7,1043.8
595.27,1014.6
577.19,1053.7
574.02,1036.6
575.32,1032.9
561.38,984.11
587.01,1050.5
584.7,1036.2
592.61,1036.8
585.07,1064.2
577.12,1052
568.26,987.21
574.9,996.76
566.3,1032
565.1,1027.7
581.85,996.23
573.87,1002.3
583.03,1058.6
547.42,945.3
575.67,1035
575.83,1046.4
555.12,991.65
560.33,973.77
591.27,1065.2
585.41,1022.2
572.9,1064.6
582.47,1044
573.85,1034.1
583.33,1020.8
582.23,1025.4
579.88,1060.3
577.44,1049.1
582.66,1030.7
571.55,1008.1
593.05,1035.8
592.32,1041.5
561.64,1019.7
576.5,1072.3
559.04,1001.7
594.42,1070.2
581.31,1023
571.34,1021.2
576.45,1038.4
584.39,1045.6
569.83,1016.2
586.11,1037.8
573.35,1040
584.83,1059.4
565.34,1065.1
561.38,992.59
567.57,981.69
594.91,1041.7
579.22,1030.7
565.29,1030.4
575.3,1061
574.38,1039.4
579.33,1028.7
582.75,1033
572.91,1012.9
575.19,1014.4
582.54,1035.2
586.19,1076.4
565.27,1025.7
571.66,1037.8
551.66,993.22
577.01,1041.8
562.76,1032.5
578.62,1008.5
581.01,1061.1
561.99,1000.3
574.53,1051
563.72,1012.5
584.19,1019.5
560.79,1036
580.21,1038.7
588.98,1053.7
569.38,1024.3
570.07,1006.2
582.18,1032.7
574.73,1033.3
570.61,1044.5
572.57,1020.7
577.78,1054.5
573.05,1030.5
576.32,1049.7
583.13,1040.4
573.55,995.76
568.42,1041.1
569.23,1024.8
577.17,1076.4
575.47,1016.7
571.14,1032.2
591.68,1086.4
579.95,1037.5
589.3,1057.7
571.58,1057.6
567.17,1033.7
598.92,1066.7
572.89,1069
580.28,1063.8
591.07,1039.5
587.08,1064.9
560.52,1012.3
573.86,1038.6
579.11,1010
566.49,1059.2
570.76,1047.4
555.72,960.15
559.23,969.61
585.83,1048
582.27,1041.7
586.17,1048.4
577.78,1029.3
569.64,1022.8
566.64,1006
569.11,1041.7
560.99,1007.4
584.45,1015.8
576.58,1018.9
555.29,1023.3
566.73,1044.4
580.6,1045.3
572.77,1046.5
562.49,1030.5
559.34,1042.2
591.37,1086.9
579.55,1054.6
586.78,1077.7
586.79,1054.2
584.42,1044.9
575.45,1025.6
568.59,1039
589.4,985.21
586.63,1070.5
581.73,995.23
588.71,1074.6
574.48,969.49
585.23,1070.5
561.85,1011.6
597.37,1068.6
588.46,1037.4
565.57,1004.3
585.91,1016.5
572.08,1056.3
554.35,988.65
583.31,1054.4
585.87,1020.7
565.86,975.77
573.04,1062.2
576.72,1055.2
564.62,1038.5
576,1006.4
580.44,1049.7
575.02,979.93
589.11,1039.1
565.46,1008.8
595.47,1070
582.42,1025.7
568.58,1014
571.67,1019.2
577.78,1031.5
578.28,1038.1
574.92,1006
576.95,1014.6
603.53,1059.3
554.96,972.25
575.65,1078.6
587.65,1021
589.91,1073
580.3,1083.6
583.87,1057.9
583.34,1032.2
575.82,1054.1
561.6,1052.3
584.21,1018
581.27,1023.9
580.47,1029.3
574.75,995.61
570.79,1013.1
554.27,991.23
580.11,1018.4
573.83,1005.5
572.95,1048.2
583.27,1017.7
566.47,1004.1
582.84,1022.3
588.41,1049.2
577.89,1026.6
577.12,999.45
575.99,1080.7
578.05,1003.2
576.74,1025.4
580.32,1024.6
581.06,999.79
568.79,1026.2
586.47,1033
568.47,1042.8
584.82,1088.7
575.37,1028.2
575.85,1028.9
578.97,1036
579.75,1032.6
588.86,1058.6
587.07,1055.6
585.29,1016
578.64,1035.4
579.89,1017
583.05,1041
576.93,1055.4
578.94,1006.7
597.95,1066.4
578.83,1022.4
572.27,1029.4
586.81,1030.5
563.75,1020.8
587.21,1040.4
560.38,990.77
568.49,1029.2
580.48,1041.5
580.41,1020.6
588.9,1059.1
564.07,1030.5
588.93,1027.3
576.6,994.54
589.55,997.58
575.83,1046.4
577.09,1060.4
585.3,1045
575.89,1034.2
577.51,1055.3
571.04,1047.8
585.47,1000.4
583.2,1040.5
589.4,1079.4
565.83,1056.3
577.99,1071.3
590.62,1035.9
561.72,969.64
575,1012.9
577.73,1040.5
572.08,1015.3
571.31,995.01
565.17,995.85
590.58,1009.3
566.41,941.71
588.7,1074.8
568.29,1011
575.33,1034.4
585.47,1062.4
570.78,1044.6
569.76,983.02
560.47,1048.2
586.7,1021.1
569.9,1028.5
570.92,993.41
579.35,1070.8
573.2,1027
547.54,987.04
564.5,1036
601.43,1065
562.06,1022.6
565.49,1017.3
562.53,1031.2
608.93,1072.6
582.32,1033.8
587.48,1005.6
593.15,1058.6
574.02,1041.1
594.27,1086.5
560.02,992.71
575.54,1014.9
575.37,1035.7
574.31,1028.1
573.9,1005.3
575.35,1005.6
571.64,1014.7
564.1,1028.4
574.24,1032.7
568.95,1036.7
584.77,1019
579.56,1055.6
568.68,1016.1
574.4,1035.8
576.73,996.67
580.69,1067.1
583.59,1014.3
593.32,1066.1
582.41,1040.6
587.47,1036.4
587.83,1036.6
581.31,1011
567.62,1039.1
579.85,1027.2
569.76,1037.4
583.42,1065.2
573.1,1029.7
571.92,1023.9
578.71,1071.4
590.67,1103.2
575.79,1028.5
562.9,1033.7
584.89,1016.9
587.18,1049.6
578.58,1031.1
559.05,1005.1
553.95,1012.5
586.69,1046.6
568.97,1031.9
585.85,1027.3
569.06,1021.5
588.91,1055.3
595.51,1078.8
591.29,1030.9
582.52,1032.7
584.01,1063.7
568.9,976.71
576.94,1017
574.54,1023.9
578.5,1036.4
568.52,1012.1
572.09,1004.5
544.85,975.49
578.71,1033.9
572.83,1035.5
594.35,1050.8
600.24,1093.1
590.94,1017.8
592.61,1046.2
570.71,1008.5
578.72,1032.2
566.46,1025.7
574.3,1050.7
569.02,999.2
581.6,1011.8
578.78,1051.8
581.5,1057.5
581.01,1042.5
606.43,1098.7
578.5,1056.3
579.73,992.96
592.9,1037.6
568.62,1028.2
565.89,1051.1
578.29,1016.8
575.59,1014.7
588.23,1054.4
578.2,1000.7
586.93,1035.1
576.06,1013.3
570.25,992.92
572.21,1009.7
561.31,1012.7
577.1,1019.8
588.06,1060.9
580.88,1065.1
581.18,1062.6
576.73,1047.9
582.42,1089.3
575.06,1059.4
584.17,1036.7
582.4,1069.3
573.3,1002.3
571.01,1017.8
581.53,1058.4
562.75,1002.5
596.24,1048.9
562.23,1007.4
581.95,1025.4
586.45,1015.3
576.26,1002.5
577.6,1017.9
568.85,1014.2
587.8,1043.4
572.47,1052.4
593.13,1057.5
571.16,1017.8
584.23,1040.2
589.01,1062.3
573.1,1006
593.82,1053.4
557.52,972.52
573.72,1024.2
573.18,1048.7
567.65,1032.3
583.34,1032.2
570.13,988.62
573.28,995.35
558.87,1012.7
584.56,1011.3
573.87,1018.4
554.91,990.08
566.39,983.82
587.25,1058.7
555.64,1024.9
587.58,1040.9
580.52,1052.9
573.96,1023.1
583.58,1047.1
567.59,1055.3
575.17,1071.6
575.72,1018.3
596.51,1083
591.91,1049.2
557.94,1034.2
569.07,1028.2
587.97,1021.8
569.52,1036.4
579.14,1038.4
581.75,1015.9
593.2,1033.1
596.78,1094.8
573.16,1039.6
570.63,1006.4
559.83,1006.9
573.78,1013.9
577.83,1053
580.45,1017.1
569.36,1030.8
584.81,1059.9
574.03,1043.3
570.55,1021.6
581.51,1031.2
579.69,1043.8
579.94,1063.3
566.21,1036.8
570.92,1038.6
570.19,1010.4
557.58,961.47
583.56,1016.7
562.9,993.01
563.25,1029.8
571.82,1014.8
583.78,1094
564.55,1051.9
571.62,1039.3
586.91,1062.7
581.9,1036.7
574.3,1016.8
575.12,1036.1
586.37,995.04
582.55,1032.9
560.01,1001.9
563.23,1018.9
561.74,980.79
579.08,1022.5
577.98,1034.4
577.72,991.6
574.53,1039.8
583.96,1038.2
579.92,1051.6
579.34,996.37
592.66,1049.7
566.92,1037.7
573.34,1049.1
551.31,1013.7
579.24,1040.8
572.32,1012.8
598.8,1054.2
573.84,1054.4
565.78,1044.8
582.69,1046.4
580.96,1039.4
575.94,1065.1
590.27,1050.1
590.75,1078.7
595.95,1064
574.9,1000.4
577.81,990.17
565.61,1049.9
559.96,1032.7
566.03,991.89
588.1,1056.1
573.98,1016.3
592.59,1052.7
573.49,1022.2
582.9,1002
570.76,1062.9
576.7,1006.2
557.88,984.32
576.9,1062.3
576.06,1074.5
571,1010.5
568.76,1025.4
581.61,1024.9
582.03,1054.4
587.22,1027.8
573.53,1061.1
578.07,1081.8
591.06,1078.2
592.15,1095.2
594.49,1062.3
564.5,990.09
566.67,1032.4
573.07,1055.5
598.95,1037.1
581.55,1054.4
578.14,1048.5
587.81,1049.1
574.04,994.39
569.9,1023.3
570.06,1050.4
569.96,1025.2
574.3,1026.6
567.75,964.16
590.45,1059.7
579.99,1066.1
590.25,999.62
570.02,1054.5
583.06,1025.1
585.94,1074.3
583.46,1050.5
585.75,1024.2
556.92,950.24
587.44,1061.2
595.81,1061.9
573.98,1047.8
578.47,1002.4
566.08,1019.1
560.64,973.16
577.83,1045.3
586.29,1041.9
569.33,993.1
573.7,1005.3
574.5,1035.8
585.08,1081.9
590.95,993.21
576.06,1003.1
577.84,1007.4
587.71,1032.4
590.65,1068.9
593.78,1058.5
573.82,1029.4
570.47,1046.3
579.66,1025.7
576.48,1063.8
570.34,1030.2
573.62,1033.9
582.84,1047.8
581.9,1045.2
562.09,1008.9
583.12,1065.8
561.09,1012.8
582.44,1032.5
577.32,1042.1
588.25,1020.9
588.38,1075.1
564.83,985.51
566.91,1026.7
572.82,1035.4
560.94,964.52
576.74,1024
577.7,1019.3
589.21,1053.4
575.99,997.58
571.23,992.27
592.55,1065.3
571.07,1084.3
564.5,1001.9
582.54,1015.3
587.09,1020.8
573.87,998
586.01,1060.9
569.93,981.88
594.87,1047.4
582.11,1016.5
580.93,1056.2
581.19,1021.5
572.66,1034.4
592.09,1024.1
564.6,1011.1
587.44,1019.6
583.48,1056.3
580.13,1010.9
563.88,1028
574.54,1032.9
570.75,1019.7
561.91,1009.4
560.55,1021.7
585.63,1069.3
580.45,1067
591.19,1016.4
581.76,1058.7
555.79,962.11
575.17,1056.7
587.26,1038.8
575.51,1023.7
567.69,993.12
581.83,1059.2
588.85,1023.8
574.35,1057.5
568.81,1068.6
600.79,1091.8
593.58,1059.7
568.72,1054.6
555.38,968.64
561.77,1008.7
569,1036.9
563.59,1007.3
572.81,1001.2
585.63,1020.8
566.71,956.96
584.6,1009.8
576.31,1015.3
582.24,1049.1
586.82,1058.1
584.08,1117.1
577.15,1035.2
568.05,1008.9
578.28,1043.7
574.59,1026.3
591.65,1057.8
575.51,1026.2
581.7,1012.9
591.74,1081.6
565.17,1069
568.68,1016.1
573.62,1057
573.54,990.63
581.69,1062.4
585.96,1074.9
570.81,1016.6
584.54,1043.6
585.69,1027.9
587.17,1081.6
574.38,994.93
579.79,1040.5
560.85,1024.5
582.07,1038.7
586.1,1034.6
562.21,1009.3
557.56,985.9
558.15,994.47
558.09,1004
563.46,1011.9
571.27,1022.8
573.72,1066.2
575.49,1002.9
589.69,1042
568.74,1016.6
574.82,1042.4
579.01,1061
571.47,1048
591.24,1080.6
596.83,1042.3
580.4,1007
559.67,983.03
591.01,1040.6
582.95,1057.8
580.38,1077.4
582.68,1082.6
574.02,1031.6
561.93,1019.1
554.82,985.13
584.9,1040
566.86,1037.5
563.38,1033.6
588.8,1039.9
564.65,980.88
591.44,1048.9
584.4,1060.3
571.05,1011.4
580.75,1091.9
588.26,1054.1
589.56,1046.3
568.67,998.64
582.12,1064
566.14,1029.6
565.73,1004.9
559.72,1024.5
578.25,1018.9
576.59,1024.3
571.5,1029.9
573.11,1023.8
576.54,1003.4
572.53,1013.9
562.41,1022.9
588.71,1044.5
566.43,1055
588.82,1017.8
573.47,1051.2
577.61,1011.4
576.07,1033.5
583.24,1038.7
573.01,1017.7
581.43,1015.3
577.14,1025.6
568.71,1020.6
583.95,1048.1
585.04,1038
576.22,1057.4
588.71,991.56
574.87,1011.2
567.36,1027.3
575.85,1015
586.87,1033
579.22,1056.7
565.39,1070.2
560.04,1012.9
552.4,1006.5
584.81,984.79
569.21,1017.2
559.65,1031.5
563.47,1035.6
558.53,985.88
597.4,1013.9
591.67,1079.7
584.71,1007.2
576.67,1018.7
580.73,1047.6
589.16,1014
585.88,1052.1
569.56,1051.8
580.35,1047.1
584.23,1062.3
577.66,1063.4
589.63,1109.2
571.57,1041.3
568.33,1001
578.94,998.59
577.02,1021.4
566.19,1001.2
581.3,1044.4
570.62,1057
575.58,999.9
572.73,1034.5
575.92,1008.7
575.41,1041.5
577.95,1040.4
572.32,1041.4
567.65,1030
581.81,1050.7
568.22,985.77
576.6,1071.6
586.84,1053.9
585.14,1037.7
588.78,1017.9
587.96,1058.1
559.34,964.08
569.83,1016.9
574.99,1087.4
593.68,1072.2
588.42,1026.7
576.28,1011.3
577.47,1026.7
577.43,1035.5
579.66,1035.7
575.72,1017
591.99,1083
582.46,1015.6
562.39,976.77
582.58,1037.4
578.94,1011.5
569.73,1040.4
586.64,1037.3
577.98,985.59
579.07,1068.4
575.45,1032
580.71,1059.6
575.09,1045.9
552,1003.9
581.92,1054.7
589.78,1030.5
571.14,1047.4
555.96,1016.2
585.34,999.95
582.66,993.79
578.83,1082.8
588.41,1035.5
590.08,1074.2
546.56,981.48
574.51,1044.3
592.14,1029.8
576.95,1021.2
575.27,1065.9
584.55,1002.8
560.75,965.73
578.36,1031.7
562.68,1030.5
591.87,1046
575.63,1035.2
574.32,1069.5
587.77,1072.2
594.19,1028.4
560.25,988.73
584.54,1031.4
557.83,978.57
577.4,994.82
577.39,1052.2
582.15,1030.5
587.72,1022.9
584.65,1038.4
575.58,1000.9
580.29,1057.5
571.95,1015.2
577.84,1023.1
583.72,995.21
590.25,1024
580.6,1029.3
590.9,1113.4
571.11,1059.1
588.23,1031
558.77,1019
582.31,1004.1
577.76,1045.8
581.31,1011
575.33,1036.5
592.25,1064.8
585.09,1054.6
586.74,1027.7
568.05,1027.7
564.71,1036.3
569.79,1008.4
594.11,1069.3
574.34,988.73
573.34,1002.1
582.51,1051.3
560.55,1013.4
567.81,1022.6
557.17,1004.1
589.08,1057.8
577.52,1047
591.19,1063.8
561.67,980.11
587.4,1036.8
581.76,1019.4
575.8,1050.9
583.68,1032.7
587.38,1077.4
580.49,978.33
569.1,1009.3
576.61,1014
578.93,1035.7
577.81,1040.7
584.1,1017.2
593.15,1103.3
572.38,1002.7
568.85,1001
579.7,1025.9
556.75,1031.1
593.74,1038.2
577.35,1013
584.91,1079.4
567.97,988.69
590.82,1034.5
574.08,1010.2
564.83,1011.6
571.62,1016.7
592.42,1062.8
557.73,1042.4
569.55,1042.3
577.14,1001.7
561.59,971.54
567.29,1002.7
578.82,1037.9
593.81,1023
568.58,1027.6
562.66,1039
576.09,1024.5
577.03,1044.2
582.7,1065.9
577.28,1028.6
589.07,1032.9
571.52,1015.2
573.13,1037.2
578,1055.5
577.67,1051.6
572.81,1036.6
586.48,1044.4
584.51,1025.1
571.79,1019.8
575.06,1022.6
594.66,1057.3
552.05,1017.8
586.94,1061.1
577.24,1047.2
565.18,1012.8
575.47,1007.7
551.85,1004.2
580.92,1027
573.01,1043.9
563.66,976.42
570.32,1017.6
582.45,1041.1
574.94,1042.9
575.53,1070.4
554.16,986.75
583.54,1053.2
583.53,1057.2
568.41,995.89
578.94,1049.4
582.12,1027.8
588.79,1027.1
594.44,1039.1
588.56,1041
589.83,1052.6
578.52,1038.1
584.01,1069.4
579.21,1001.1
566.18,968.55
575.17,1040.7
570.25,1037
559.88,1027.5
582.79,1071.2
582.06,1030.7
575.4,1019.9
554.94,1011.5
592.6,1031.2
583.21,1047.8
570.05,1065.3
550.01,988.67
557.65,966.94
570.64,1026.2
581.29,1065.1
571.13,1043.1
573.42,1002.3
573.78,1016.1
576.49,1065.6
583.45,1043.1
567.48,1025.8
589.11,1039.1
552.56,1016.1
581.66,1017.9
571.66,1028
585.88,1044.6
597.04,1031
574.25,1005.9
572.14,1026.7
560.99,1021.1
585.64,1045.5
571,1046.3
586.44,1008.4
583.31,1024.2
574.53,1019.7
567.65,1092.6
582.33,1053.7
556.34,1019.4
579.45,1064
582.72,1043.1
565.86,1057.4
589.48,1038.9
586.54,1036.8
584.7,1075.2
548.51,1005
589.67,1061.7
574.57,1091
570.32,1008.4
573.83,1005.5
584.17,1051.2
562.94,1000.4
588.82,1053.8
573.48,1018
565.73,1004.9
551.24,1035.6
590.39,1028.5
588.71,1015.6
581.35,1033.7
582.13,1032
576.91,1067
570.87,991.55
585.11,1106.9
579.61,1008.8
586.53,1048.6
581.39,1061.6
581.3,1044.4
572.75,1030
584.6,1075.5
590.9,1075.3
590.5,1027.8
571.79,1048.8
572.7,1005.7
580.93,1050.7
574.36,1053.1
580.6,1058.5
566.29,1040.2
570.22,1024
552.39,975.27
591.17,1066.6
582.66,1030.7
590.05,1029.4
568.49,1016.6
579.83,1023.9
584.88,1062.7
575.45,1021
582.33,1019.1
581.16,1029.5
576.82,1012.1
572.16,1009.2
587.62,1048.6
571.43,1001
572.87,1040.9
579.21,996.21
575.33,1034.4
590.3,1044.9
575.64,1025.9
592.32,1048.7
556.01,1023.2
600.47,1030.4
561.08,976.92
578.11,1041.2
580.39,1058.8
583.89,1043.1
553.73,1022.6
583.43,1018.5
573.4,1000.2
592.86,1079.4
581.9,1004.9
567.66,1001.3
586.89,1043.2
578.77,998.11
584.75,1042
570.88,1004.7
573.07,988.48
569.41,1010.7
602.1,1071.2
594.44,1065.2
563.51,979.15
560.07,1052.1
583.03,1026.7
579.35,1064.5
588.93,1050.5
570.65,1013.5
591.18,1030
572.44,1004.9
587.25,1065.4
559.45,966.01
571.34,1021.2
585.06,1073.7
592.92,1023
592.9,1028.7
563.93,1022.7
577.78,1013.7
571.85,1039.6
561.95,1037.7
566.5,1041.4
590.15,1086.8
564.61,983.87
582,1052.4
581.68,1061.4
578.38,984.24
599.44,1035.4
568.48,1007
597.67,1074.7
551.31,964.71
576.86,1032.3
581.21,1053.9
582.37,1022.4
574.93,1017.7
559.36,1009.8
571.3,1000.9
567.35,1001.9
568.22,1020.6
580.21,1015.4
572.65,1021.4
590.38,1033.5
581.42,1040.7
591.36,1056.2
578.22,1025.9
580.52,1076.8
566.92,1013.5
589.2,1024.3
578.61,1096.1
569.79,1026
557.34,987.93
568.91,1052.6
580.91,1075.9
577.1,1000
569.83,1016.2
588.1,1042.2
552.25,1000.4
579.21,1020.5
567.29,1029.3
559.67,1025.8
571.65,1005.8
578.81,1040.1
573.14,997.7
576.26,1029.1
584.47,982.39
569.44,1008.5
575.14,1020.4
594.09,1069.8
582.53,1016.7
572.8,1027.6
578.55,1026.7
563.59,979.09
551.56,997.4
567.31,987.55
571.98,1030.8
580.1,1013.3
572.75,1022.7
562.14,1029.2
582.92,1067.8
580.53,1018.6
578.48,1038.9
588.8,1047.7
598.35,1048.4
577.11,1064.7
583.73,1000.5
582.9,1040
569.58,1008.8
563.16,991.81
581.32,1028.5
600.75,1069.7
548.36,995.31
560.71,995.95
546.99,1017.8
571.7,1010.2
571.58,1037.6
585.04,1018.4
582.94,1074.8
564.3,1022
577.49,1035.6
557.16,970.29
570.18,988.27
580.9,1003.9
571.67,1036.9
578.4,1037.9
581.22,1048.2
573.95,1020.7
562.65,1017.7
594.52,1047
567.18,987.36
580.05,1019.7
574.69,1040.8
562.94,1000.4
597.17,1056.7
559.93,1016.7
559.77,999.42
587.92,1052.3
586.48,1066.5
556.04,952.88
571.83,1015
583.24,1038.7
570.43,1046.5
574.61,1028.9
565.42,978
582.94,1047.2
582.37,1050.4
580.92,1023.9
574.54,1084.4
572.84,1014.4
562.64,979.93
576.68,1021
580.92,1015.6
580.43,1034.4
579.11,1040.6
580.18,1037.8
575.1,1027.4
580.74,1041
579.09,1059.3
569.97,1016.4
579.29,1020.9
586.63,1051.6
561.71,995.36
570.07,1009.8
577.65,1063.6
569.5,1007.2
594.56,1042
569.52,1017.8
574.27,1034.8
584.73,1031
582.96,1039.6
584.13,1050
574.7,1037.9
600.63,1043.1
569.25,973.58
592.4,1037.8
591.15,1055.5
581.76,1077
562.34,957.97
582.11,1027.6
570.5,1006.1
582.89,1012.3
578.78,1051.8
559.31,1011.7
568.13,1042.2
592.8,1068.5
576.67,1039.7
578.35,1067
579.83,1051.9
569.13,1033.8
586.67,1017.4
571,1040.3
571.22,1025.2
553.41,1042.4
564.62,1038.5
587.73,1018.6
574.51,999.52
576.71,1022.3
563.13,993.07
573.46,1033.2
571.18,1018.6
564.18,1004.5
566.59,992.85
568.43,1031.5
564.62,1025.7
572.11,1025.1
598.24,1033.2
581.38,1009.6
580.4,1080.6
577.12,1052
566.12,1002.9
591.95,1081.7
572.77,1040
577.12,1053.3
581.66,1060.9
590.25,1064.9
570.08,1041.5
552.48,970.79
578.12,1069.6
569.49,1024
593.41,1066.5
579.25,1016.8
596.95,1046.3
582.09,1043.5
580.8,1022.5
601.71,1075.1
553.79,987.31
575.56,1043.6
589.09,1069.1
580.16,1019.5
590.45,1042.6
562.78,998.31
584.49,1046.5
594.28,1054
556.24,1019.7
581.76,1058.7
566.88,999.36
581.63,1007.8
584.34,1055.9
573.75,1024.8
575.04,1003
593.46,1035
566.23,1013.9
586.7,1042
576.89,1023.6
585.75,1024.2
588.5,1102.2
567.79,1010.3
573.82,1038.7
568.18,1021.8
575.16,1009.5
578.43,1006
574.54,1019.5
581.28,1039.7
574.13,1027.7
576.71,1025.8
574.48,997.32
566.82,1018.3
553.82,1010
592.39,1068.1
588.02,1066.3
574.46,1030.8
570.23,1057.4
568.93,1005.6
585.47,1041.3
552.37,978.4
570.02,1047.2
584.48,1067.9
573.28,995.5
577.56,1027.8
579.61,1014.5
561.79,987.56
584.96,1059.4
571.52,1045.8
572.45,1045.5
574.76,1048
575.23,972.51
565.44,980.09
589.53,1052.8
575.06,1065.1
553.67,990.21
567.1,1064.2
585.52,1056.3
598.32,1046.3
567.18,1011.7
573.67,1035.9
569.2,1019.5
578.14,1011.3
584.54,1027.7
575.94,1044.9
575.82,1041.8
576.83,1043.6
592.39,1068.1
579.94,1037.9
584.88,1047
575.58,1032.9
563.19,1034.9
538.04,964.65
595.68,1076.8
578.14,1048.5
573.02,1019.4
590.9,1070.2
566.85,1022.1
573.44,1046.7
587.83,1030.4
561.57,1009.8
591.26,1101.6
562.71,1027.6
572.6,1038.1
558.75,995.72
587.51,1024.9
562.91,991.05
556.99,1010.6
570.7,1019.6
557.57,981.41
583.21,1036
598.47,1077.3
582.5,1034.6
583.94,1037.2
606.7,1071.8
582.06,1068.6
574.49,1035
558.52,1024.7
579.04,1036.8
566.21,1005.4
580.21,1027.7
584.88,1046.2
588.17,1030.9
562.24,995.35
574.98,994.74
581.25,1032.8
567.92,1024.5
573.47,1073.1
585.84,1101
568.56,1001
579.27,1087.2
574.85,1040.2
569.72,999.24
581.3,1024.1
576.36,1040.6
573.86,1045.3
571.84,992.55
549.61,1012.9
559.73,1000.9
591.35,1061.8
569.61,1063.3
566.05,1034.5
583.29,1032.5
562.07,986.34
570.28,1018.9
576.79,1038.9
593.46,1062.5
576.63,1003.6
580.63,1043.2
572.1,1022
588.32,1043.4
579.59,1032.3
590.46,1070.2
593.52,1064.9
574.73,1024.3
593.39,1042.8
567.77,1012.4
593.12,1046.9
575,1005.1
579.9,1019
569.98,1035
578.92,1031.6
584.15,1029.7
570.25,1025.5
578.3,1024.1
578.77,1054.8
574.97,1047.2
569.9,1020.4
591.86,1055.3
570.5,1030.4
573.29,978.12
579.25,1021.1
577.03,1048.4
568.39,1047.4
571.94,1006.2
560.1,992.19
583.4,1054.9
572.16,1044.6
567.04,953.53
567.97,1011.5
588.52,1024.7
573.37,1007.1
582.34,1053.5
581.48,1004.2
571.02,1013.2
554.2,1024.7
560.05,1025.9
561.93,1001
585.83,1033.7
576.62,1035.3
590.27,1043.7
585.53,1079.5
575.18,1062.2
579.41,1018.7
585.87,1042.9
588.67,1042.3
582.09,1012.6
585.48,1072
586.52,1069.6
583.3,1001.3
587.75,1075.7
599.81,1072.9
583.03,1009.5
573.45,1017.6
571.55,992.47
589.9,1042.9
584.38,1047.7
570.83,1040.1
592.43,996.97
565.41,985.25
580.6,1034.2
575.75,1027
572.31,1047.3
566.97,1016.9
563.48,1018.8
572.17,1013.9
570.76,1022.1
582.71,1000.8
575.4,1019.9
560.15,993.53
586.02,1063.1
585.04,1006.5
577.63,1065.5
580.49,1048
590.52,1053.5
559.59,974.55
582.5,1051.5
577.79,1031.7
566.12,1015.2
571.19,1035.9
597.75,1054.1
559.55,969.45
593.17,1015.7
578.49,1007
562.17,1041.6
570.99,1044.9
588.3,1057.9
575.38,1012
578.8,1020.9
552.75,1012.7
579.23,1014
581.87,1015.9
575.79,1065.7
561.4,993.3
595.18,1070
568.02,985.12
576.51,1021.5
577.92,1036.4
594.85,1087.9
578.02,1023.8
570.96,1009.5
586.12,1024.7
570,1029.7
572.82,992.98
594.17,1046.6
581.26,1073.7
560.54,996.02
587.08,1032.3
576.64,1016.4
566.97,1006.6
573.16,1017.4
556.98,996.49
587.11,1036
573.67,1045
569.78,1016.3
586.31,1066.3
579.98,1045.4
586.67,1046.9
583.16,1014.8
560.95,1001.9
570.56,1001.8
558.18,1004.6
567.19,1031.7
566.88,1028.6
576.41,1024.9
580.22,995.65
596.63,1061.9
579.61,994.04
569.64,1035.8
573.49,1028.9
581.53,1058.4
587.98,1040.6
571.52,1021.2
588.16,1062.1
576.2,1099.4
562.33,1003.5
555.3,986.95
590.79,1063
572.97,1044.1
589.69,1044.3
567.76,1026.5
565.81,1047.9
571.37,1027.7
584.62,1000.5
573.43,999.93
586.63,1051.3
572.21,1009
592.77,1097.5
589.21,1064.8
572.84,1043.7
588.08,1039.3
571.26,1043.2
582.3,1069.9
579.97,1037.7
580.06,996.27
562.06,1029.3
570.94,1014.1
581.56,1049.2
585.9,1047.5
580.05,1057.2
587.88,1025.4
579.85,1049.1
557.44,1029.6
548.6,994.28
578.43,1055.5
577.96,989.2
592.46,1061.1
585.36,973.42
581.53,1039.3
569.53,1011.8
585.56,1022.8
569.2,1069.3
582.22,1032.4
586.59,1059
586.39,1010.1
573.44,1013.2
577.09,1058.2
594.07,1035.5
573.67,1001
576.64,1029
580.8,1052.5
568,1035.1
574.3,1028
570.36,999.27
566.83,1006.6
580.45,1025.4
582.51,1044.2
578.44,1032.7
575.56,1043.6
576.52,1001.6
583.51,1031.6
556.8,993.05
595.71,1047
588.41,1052.1
590.4,1059.7
572.63,1001.1
562.87,1027.3
565.56,1035.3
564.19,1046.4
580.85,1013.9
600.34,1082.6
587.15,1008.1
571.75,1064.8
576.41,1058.2
582.3,1044.8
582.15,1029.8
582.42,1010.1
566.19,1014
594.2,1055.4
577.08,1067.3
563.85,1014.3
577.64,1033.8
565.45,1038.4
564.28,1021.9
567.78,999.26
575.14,1045.6
585.06,1042.1
557.47,1017.4
562.05,1004.8
562.73,977.44
594.28,1054
568.92,1025.7
571.5,1016.7
579.33,1079.7
575.3,1023.3
594.11,1069.3
587.22,1009
578.39,1086.7
579.75,1035.4
558.11,989.11
580.6,1034.2
548.21,994.77
604.62,1044.2
578.2,1075.8
572.04,1001.4
572.48,1027.2
551.33,1011.9
602.09,1043.3
577.29,1007.5
587.86,1047.5
571.51,996.92
563.65,983.68
573.13,1023.3
563.33,1016.3
582.47,1059.9
585.39,1038.5
560.7,990.94
562.64,1010.1
567.54,1003.2
580.64,1047.9
570.96,1009.5
549.97,944.63
573.98,1010
570.38,1073.9
584.56,1059
570.13,1003.3
592.03,1065.5
582.61,1077.6
583.98,1023.5
571.75,1010.3
563.88,1028
573.96,991.1
590.97,1044.2
586.89,1058.3
562.54,1011.3
579.3,1045.9
581.31,1022.7
593.94,1025.3
574.02,993.97
589.96,1050.3
575.59,992.77
592.27,1018.9
570.21,1006.4
594,1072.2
577.51,1055.3
571.12,1047.6
583.67,1060.2
555.61,1004.5
603,1060
576.52,1032.1
575.1,1027.1
557.18,1024.9
571.52,1021.2
569.46,1040.2
588.61,1037.1
562.39,1018.4
572.04,1017.5
563.26,1004.9
592.93,1046.1
566.81,995.52
559.8,1008.5
570.61,1087.1
568.84,1014.3
563.2,1023.4
583.89,1053.2
577.32,1022.3
552.71,989.06
572.86,1010.3
578.08,1034.4
573.52,993.64
585.91,1089.7
600.34,1055.3
575.42,1016.8
585.15,1046.6
586.72,1035.5
575.83,1010.7
582.87,1044.5
569.67,1029.3
581.56,1049.2
572.32,1029.1
565.3,1034.1
586.3,1066.5
574.09,998.87
573.46,1027.1
578.76,1025.7
575.4,1025.7
563.74,997.45
582.07,1020.7
580.34,1033.3
559.73,1018.3
571.02,989.69
561.97,1009.7
572.74,1012
574.92,1010.1
553.47,990
569.45,1026.3
587,1051.8
571.96,1028.1
587.48,1054.5
570.99,1000.4
572.85,1021
571.27,1068.3
585.22,1051.2
573.31,1044.3
583.31,1030.8
583.11,1039.3
585.14,1057.4
569.11,1006.8
569.5,989.46
588.94,1070.1
573.69,1071.2
577.6,1016.5
585.94,1038.2
579.21,1059.1
565.3,973.42
574.85,1003.6
569.61,1024.4
556.31,1009.9
582.77,1057.5
580.29,1042.6
571.03,1047.2
578.38,1028.6
589.69,1028.9
583.24,1020.3
573.88,998.59
581.67,1037.3
584.4,1063.1
573.38,1038.4
601.45,1042.3
566.36,1062.5
576.77,1051.4
583.32,1056
592.83,1030
590.58,1034.3
581.29,1016.1
576.3,1018.4
584.54,1069.5
561.94,974.14
579.1,1011.6
574.73,1033.3
582.46,1008.4
579.35,1069.2
597.06,1089.5
582.15,1070.8
570.28,1034.8
561.06,994.91
587.34,1020.4
554.01,983.2
585.21,1013.6
574.99,1033.9
576.74,1057.2
572.61,1054.5
547.57,1030.6
586.32,1044.4
578.11,1077.3
590.25,1039.8
571.94,1028.4
596,1046
580.1,1024.9
567.37,994.68
580.14,1044.9
590.29,1017
596.16,1031.2
596.1,1047.4
576.56,985.62
589.27,1066.1
583.6,1050.4
546.9,999.93
574.3,1027.6
595.35,1056.3
589.84,1025.2
568.1,993.27
584.17,1051.2
571.02,989.69
583.99,1021.8
587.57,1034.5
574.41,1021.7
564.1,999.39
579.97,1006.4
574.56,1013.1
586.33,1020.6
567.55,997.25
568.31,1011.1
565.07,1018.7
582.58,1051.4
592.34,1074.5
566.77,1004.1
598.05,1095.4
578.52,1069.7
584.83,1074.4
583.54,1039.5
578.09,1093.4
563.82,1007.2
594.62,1061.7
587.79,1009.9
591.33,1041.4
564.38,986.87
591.79,1050.3
582.19,1049.6
575.04,1058.8
563.57,1016.5
577.05,1008.5
579.56,1086.9
571.84,1001.7
563.54,1006.6
570.08,1015.1
559.64,998.66
590.46,1036.4
574.48,1039.5
586.09,1039.4
581.75,1042.7
571.47,1043.4
568.98,988.9
577.76,1089.2
568.75,1034.6
584.51,1004.3
574.49,1035
576.7,1000.4
584.17,1051.2
579.01,1046.9
574.8,1045
568.55,1012.7
568.05,1008.9
576.63,1069.1
576.14,1001
597.5,1083.1
593.1,1077
583.72,1004.3
574.82,1007
573.52,997.91
571.43,1038.8
566.32,1028.7
579.42,994.31
576.84,1067.2
570.87,1035.6
562.63,1003.6
581.16,1023
580.22,995.65
580.22,1022.9
576.13,1065.7
557.3,993.36
594.39,1043.3
569.13,986.35
580.61,1027.3
576.81,1019
561.22,1001.1
571.42,973.23
572.77,1023.1
576.92,1027.9
579.76,982.61
579.72,996.92
583.7,1036.9
582.73,1039.9
588.16,1085.2
586.81,1048.1
574.57,1022.6
590.8,1030.3
580.18,1017.7
560.18,984.32
571.36,987.8
572.49,1039.5
564.54,1057.6
571.49,990.29
597.09,1071.6
567.59,1043.4
564.01,1008.6
591.62,1059
565.66,1026.9
569.73,1018
585.83,1033.7
585.95,1037.4
588.7,1079.5
584.04,1025.2
587.59,1043.1
570.16,1032.1
576.51,1057.4
560.67,1043.5
563.18,1013.7
581.13,1038
578.36,1017.8
584.11,1034.1
586.11,1037.8
587.52,1039.6
596.69,1053.3
577.53,1060.9
576.49,959.35
589.03,1084.3
563.57,1022.8
556.17,1021.3
573.5,1006.9
592.98,1048.9
574.57,1021.8
575.79,1028.5
561.76,1015.9
598.43,1058.6
540.45,1006.7
592.21,1030.7
583.84,1057.6
572.35,1038.2
570.15,1033
570.52,1042.3
581.14,1077.3
596.7,1109.9
576.79,1034.4
574.93,1046.1
574.34,1041.8
583.53,1057.2
590.7,1069.8
582.84,1056.7
569.29,1039.7
578.41,1021.5
571,1048.7
578.97,1079.6
558.61,990.43
566.32,1012
595.33,1084.8
577.98,1057
593.43,1043.6
572.02,1004.6
586.34,1068.6
567.91,1034.9
558.85,1030.9
572.22,1038.9
581.79,1042.9
595.14,1098
573.98,999.74
586.89,1041.6
564.65,1018.2
592.96,1073
579.26,1054.6
567.2,1013.7
585.95,1071.1
576.88,1055
550.61,979.82
584.64,1049.7
571.11,1047.3
582.7,1007.7
581.86,1041
574.11,1030.3
571.18,1038.3
576.31,997.07
591.01,1062.6
574.63,1003.9
561.1,975.66
580.9,1069.1
580.72,1054.7
574.69,1056.3
591.69,1061.3
579.64,1073.9
583.38,1035.7
576.5,987.67
580.17,1009.8
580.21,1050.7
574.28,1025.8
584.56,1011.3
578.47,1037.6
585.93,1041.3
570.73,1002
583.74,1118.1
571.69,1028.4
596.64,1093.1
576.24,1008.8
591.32,1016.6
576.66,1018.6
573.92,1035.3
586.31,1022.9
592.5,1042.4
559.72,999.79
575.49,1032.3
566.54,1026.1
583.81,1069.1
572.15,1040
587.93,1027
572.74,1012
577.32,1027.1
580.6,1027.5
574.91,1059.4
584.34,1063.9
578.97,1035.9
582.85,1058.2
582.14,1038.9
573.93,1026
567.41,1046.7
588.28,1052.8
565.05,1003.1
554.51,1033.9
577.94,1071.1
593.58,1016.1
575.73,1041.7
578.79,1045.3
574.23,1039.3
591.07,1058.4
577.59,1009
573.66,1053.7
594.44,1011.8
591.32,1055.7
576.83,1043.6
591.36,1047.6
577.92,1054.8
584.1,1045.5
571.08,1044.3
581.48,1037.6
578.66,1028.5
592.37,1036.5
579.86,1035
569,1010.1
564.32,976.25
583.11,1018.3
584.15,1021.7
581.88,1020.6
565.84,993.78
578.33,1058.3
576.34,1007.4
577.6,1029.3
580.35,1036.2
587.54,1062.4
581.42,980.14
575.85,1042
583.65,1071.9
573.75,1009.9
598.6,1054
571.77,1034.9
546.7,998.53
587.7,1064.9
599.02,1055.2
584.69,1056.7
559.94,1002.7
571.04,1048.2
568.91,985.95
568.38,1018.6
566.14,994.67
581.07,1032.9
587.67,1047
576.76,1052.5
552.02,973.02
561.99,1056.2
590.16,1024.6
572.26,1049.4
594.76,1071.8
587.09,1065.2
571.83,1039.5
563.59,961.56
580.18,1017.7
577.22,1042.8
575.62,979.96
566.8,988.94
566.37,992.46
585.96,1058.8
565,1032.1
564.14,1045
590.4,1029.2
584.79,1032.4
576.92,1027.9
587.94,1041.3
569.27,1033.2
570.44,990.66
573.83,983.79
574.29,1030.4
562.41,1036.3
582.13,1054.7
588.34,1044.7
584.42,1033.4
569.33,1012.8
585.37,1039.9
583.26,1051
587.88,1062.9
571.4,1043.9
587.45,1065.6
566.39,1008
570.09,1003
584.69,1014.7
574.83,1009.2
601.98,1043.6
555.84,1013.6
573.59,1016
589.18,1060.3
569.1,1049.7
595.98,1043.5
577.9,998.63
591.3,1072.7
577.14,1059.2
582.07,1013.4
569.56,1020.1
562.24,972.73
586.77,994.18
578.54,1049.6
583.3,1053.9
586.04,1038.3
578.43,1036.1
560.88,1031.5
576.94,1050.6
577.98,1047.8
588.69,1014.9
572.46,1013.7
562.14,1042.7
573.03,1069.1
579.22,1055.1
566.44,1022.2
573.92,1027.1
584.48,1018.8
582,1036.1
571.36,1018.6
577.42,1007.2
580.35,1026.8
591.99,1077.1
581.34,1039.6
556.81,993.9
575.25,1014.2
582.29,1025.6
576.61,1066.3
567.04,1001.9
578.51,1026.6
595.29,1043.1
579.74,1044.7
578.61,1039.7
579.29,1045.4
582.31,1035.5
580.72,1020.9
575.57,1027.2
592.2,1050.8
563.2,1015.6
581.13,1054.7
575.41,1049.5
577.43,1008.9
579.55,1067.2
590.79,1021.9
562.34,946.28
582.83,1058.4
591.18,1017
579,1037.5
578.08,1027.9
574.21,1015.6
587.79,1034
580.34,1006.8
576.74,1057.2
582.94,1021.2
558.74,966.36
581.81,1037
583.75,1050.9
569.18,1069.8
586.14,1036.4
571.68,1016.9
585.39,1028.8
585.37,1069.8
571.03,1025.1
586.55,1059.4
573.43,1043.1
585.98,1070.7
569.66,1037.9
598.1,1076
551.71,1018.8
574.4,1037.3
571.79,1041
585.69,1029.1
579.54,1038.8
594.9,1048.2
572.87,1010
592.08,1061.7
586.86,1061.5
560.4,1036.1
567.84,1021.8
588.27,1047.9
574.99,1048
594.02,1041.9
579.98,1025.2
564.79,1042.3
593.37,1044.4
571.08,1020.2
585.65,1031.3
599.81,1061.4
589.39,1062.8
562.42,1007.4
587.22,1012.5
572.89,1032.5
558.09,972.36
575.96,1021.3
588.48,1071.5
591.73,1048
573.44,1013.2
559.57,1020.2
567.89,999.39
573.97,996.57
582.79,1033.5
560.53,1017.2
555.16,996.19
566.66,986.47
554.01,983.2
580.85,1057.9
590.46,1071.5
575.23,1030.2
596.33,1071.2
556.61,989.17
591.02,1047.6
554.75,1041.3
606.24,1093.2
584.24,1022.5
570.83,1042.3
575.54,1057.8
569.25,1026.9
573.28,986.69
582.8,1021.9
557.9,1032.8
562.56,1014.4
582.23,1017.9
582.4,1048.8
576.86,1028.5
587.38,1041.7
576.2,1017.3
576.1,1051.9
561.69,975.06
574.8,1008.8
562.07,1039.3
573.03,999.27
592.85,1025
581.76,1033.7
594.59,1073.9
567.17,1054.8
563.06,997.57
574.19,1021.6
579.15,1038.6
578.19,1053.8
584.14,1024.9
578.04,1078
565.09,1030.6
580.46,1018.9
567.81,1016.9
577.56,1024.6
572.38,1021.1
581.37,1046.3
586.37,1035.4
589.26,1050.3
585.52,1024
564.38,978.88
590.3,1087.7
558.19,1034.1
580.26,1041.9
584.21,1092.9
569.58,993.07
580.04,1098
597.65,1083.8
581.47,1030.3
590.96,1061
581.1,1036
594.59,1062.7
592.19,1067.9
569.8,998.22
565.78,1031.3
581.11,1037.2
579.21,1027.6
577.17,1005.8
584.09,1035.2
595.17,1033.1
586.1,1034.6
576.07,1024.5
566.03,1047.9
581.32,993.08
573.7,1023.5
577.46,1051.5
573.73,1014.1
578.61,1019.8
606.22,1127.6
568.51,1027.6
575.94,1008.5
588.92,1033.9
595.28,1052.3
576.05,991.61
585.57,1050.3
575.7,1062.2
576.09,995.53
597.05,1058.7
567.82,1012.4
573.18,1009.4
582.83,1028.9
585.95,1063.6
572.38,998.18
565.2,1005.8
585.94,1038.2
568.21,992.41
570.1,983.57
574.07,1025.3
543.97,943.66
567.1,1034.9
578.69,1056.5
558.21,977.59
567.65,1012.3
582.62,1042
575.43,985.39
550.31,1019.8
568.96,999.34
578.49,1041.9
584.78,1124.3
577.81,1049.8
570.38,1045.1
559.93,1012.2
576.1,1011.2
579.59,1010.5
585.93,1075.3
570.5,1006
566.93,1002.6
578.62,1053.6
579.54,1038
584.62,1009.5
585.93,1030.4
569.04,1004.1
580.73,1062.6
573.82,1046.2
583.4,1052.2
560.62,1018.6
582.75,1049.5
581.16,1006.4
558.6,1022.5
592.76,1042.4
578.66,1029.7
568.5,1040.6
564.14,989.1
577.1,990.97
592.7,1032.1
576.11,1027.5
584.4,1064.2
576.76,1025.1
587.61,1026.1
580.6,1052.6
587.98,1065.9
586.74,1042.2
570.24,1020
568.85,1010.1
580.38,1015.8
579.39,1040.8
572.16,1007.4
587.03,1041.2
560.2,998.83
583.36,1070.8
577.32,1041.7
575.51,1021.5
596.4,1045.5
564.71,1011.6
570.23,996.78
594.15,1068.8
583.44,1072.5
583.48,1030.1
591.32,1016.6
590.02,1073.9
585.71,1049.4
569.71,1049.4
568.73,959.5
580.05,1058.6
558.07,1010
579.41,1018.7
556.99,978.92
553.66,1004.3
588.82,1060.2
586.35,1045.8
585.38,1047.8
560.77,1009.1
584.03,1083.4
561.3,990.94
577.81,1004.9
577.64,1046
597.35,1063.6
570.38,1019
582.21,1059.7
575.18,995.52
593.72,1050.5
572.06,1071
577.16,1035.1
576.08,998.09
579.04,1068
581.87,1060.8
562.94,965.33
582.23,1025.8
592.33,1124.3
584.35,1072.1
572.39,1013.8
579.43,1027.6
589.54,1055.8
583.39,1035.3
583.72,1067.4
577.3,1046.6
577.5,1044.8
557.59,997.75
577.12,1018
576.02,1023
596.54,1052.9
564.62,975.48
569.42,1070
591.9,1017.9
569.43,1041.5
583.98,1022.1
585.89,1057.8
578.86,1049.2
547.71,997.7
586.44,1021.4
575.56,1001.3
577.04,1001.7
550,998.59
581.53,1058.4
584.21,1064.6
599.62,1096
580.27,1008.9
585.46,1064.6
573.02,1037.9
567.91,974.23
574.69,1021.7
585.99,1062.5
570.56,997.34
580.6,1058.5
555.24,992.94
592.6,1062.3
582.91,1046.9
573.38,987.38
565.74,1029.1
574.96,1065.9
590.96,1085.1
569.46,1026.6
577.8,1042.4
580.02,965.16
579.7,995.77
571.95,1062.6
598.63,1053.8
592.67,1064.2
564.31,1002.5
577.97,1010.7
571.81,1020.3
581.98,1048.8
580.29,1022.4
578.96,1003.8
580,1049.9
580.63,1038.7
583.56,1021.9
592.99,1046.7
581.58,1006.3
579.29,1050.3
587.99,1053.3
559.9,1023.1
557.46,983.39
568.85,1036.6
575.77,1039.6
583.7,1045.6
564.64,987.44
563.3,983.27
565.91,1000.3
567.81,1034.7
572.56,1046.5
578.73,1004.5
580.13,1065.5
569.49,1031.1
579.29,1048.9
577.13,1045.1
567.79,1021.9
568.81,972.97
570.42,1022.1
575.33,1023.8
582.75,1030.8
566.13,1050.4
568.6,990.96
563.82,1011.8
570.32,1007.9
575.18,1040.9
595.41,1061.5
600.83,1062.3
592.32,1029.7
581.66,976.62
573.76,1026.3
581.24,1034
588.11,1047.1
573.1,1042.1
573.58,1049.9
552.09,993.32
577.17,1005.8
578.51,1026.6
579.3,1045.9
588.07,1029.2
579.47,1043.9
575.37,1012.2
588.71,1015.6
542.79,965.35
559.59,1018
573.1,1074.5
553.69,983.1
576.39,1007.2
592.26,1067.6
565.99,1018.4
580.04,999.44
578.91,1061.8
561.51,1032.5
590.3,1070.6
589.24,1024.9
568.09,1002.9
596.08,1040.1
582.25,1009.3
576.21,1026.7
570.14,1029.9
586.22,1041.9
579.06,1041.9
591.93,1085.9
558.59,993.91
580.31,1031.5
567.19,1003.2
583.5,1025.1
581.78,1047.4
599.13,1080.1
590.94,1076.7
599.06,1045.6
587.97,1071.4
589.88,1057.1
577.11,1032.1
569.83,1070.4
580.71,1059.6
593.56,1046.9
571.9,1060.9
556.48,1005
582.71,1053.4
588.3,1083
575.06,1022.6
604.96,1089
572.23,993.89
585.73,1016.1
569.16,1076.2
586.39,1043.1
590.02,1059.6
584.86,1050.1
577.41,1008.8
574.67,1006.7
577.43,1060.6
593.64,1051
591.75,1064.2
600.65,1046.7
578.72,1032.2
577.41,1017.6
581.5,1063.1
579.4,1057.1
576.39,1012.2
589.81,1081.8
578.04,1058.3
585.58,1058.2
556.42,1024
575.93,1015.3
553.55,981.01
570.8,1006
561.92,1026.7
581.32,1012.4
570.6,1021.7
589.09,1067.1
579.79,1030.9
561.63,1024.2
580.09,1045.2
542.35,986.65
584.5,1075.2
593.33,1026.4
582.92,1093.4
568.86,1071.9
577.33,1057.2
586.86,1061.1
558.52,1009.8
567.95,1021.5
589.21,1064.2
595.87,1063.1
581.97,1026.8
581.5,1026.7
582.45,1065.9
562.22,1002.4
571.2,1031.7
573.54,1058.6
587.08,1032.3
591.12,1045.1
572.77,1005.4
571.06,1005
581.1,1036
569.33,993.1
585.93,1024.7
564.26,1009.7
571.78,1057.8
563.26,1017.2
585.62,1066.5
581.83,1027.2
588.38,1046.3
582.41,1053.4
584.41,1070.1
565.7,1039.6
577.26,1013.4
587.61,1080.6
580.02,1034.5
581.62,1040.4
581.44,988.92
582.87,1046.1
599.24,1072.7
582.02,1051.6
579.42,1018.9
572.78,1037.1
588.63,1032.8
580.4,1057.7
587.64,1062.4
580.15,1008.9
581.21,1035.7
581.53,1058.4
561.01,976.93
565.96,1015.9
582.22,1032.4
577.2,1057.9
587.32,1024.1
577.6,1034.1
588.48,1067.7
580.05,1019.7
571.83,1015
574.12,1014.4
585.33,1029.1
576.25,994.02
571.07,1009.2
572.29,1022.4
578.42,1066.9
601.15,1076.8
579.31,1040.9
575.28,1018.8
579.39,1023.9
575.53,1021.1
590.82,1021.6
573.52,1011.1
583.22,1066.9
561.86,1004.3
573.02,1066.8
557.49,984.44
561.12,1027.4
590.62,1031
580.18,1028.1
575.81,986.64
597.62,1055.2
589.98,1041.2
581.82,1031.5
584.72,1060.3
582.49,1008.7
585.3,1044.6
570.21,1006.4
564.77,1022.7
587.73,1055.6
581.44,1051.4
562.26,1010.2
574.19,998.98
579.52,1018.8
569.89,1025.3
577.48,1045
598.9,1057.2
600.86,1044
589.14,1019.4
580.14,1086.5
580.58,1052.2
573.07,1055.4
575.07,1016.4
567.81,1014.1
565.94,1000.4
571.88,1023.4
567.43,1000.8
572.69,1038.7
574.58,1055.7
571.9,1069.4
568.52,1044.2
554.06,1013
589.01,1062.3
582.47,1075.1
574.1,1052.5
576.41,1024.9
583.81,1040.2
584.72,1052.7
580.66,1031
581.46,1050.2
574.1,1052.5
570.33,1014.5
581.41,1027.2
592.56,1082.4
577.93,1047.7
554.49,997.74
587.71,1015.9
575.27,997.28
569.62,1028.9
601.37,1067.2
586.25,1082.9
580.97,1043.9
587.97,1071.4
573.44,1046.9
583.1,1045.2
589.17,1060.6
563.49,1020.2
560.78,1017.4
582.98,1033.7
586.03,1022.3
585.19,1041.6
584,1060.7
563.27,981.12
591.18,1067.9
574.73,1033.3
574.62,1020.9
578.74,1028.7
593.07,1023.5
571.45,1025.3
578.93,1054.3
575.07,1014.6
576.52,1055.1
585.37,1056.7
589.8,1024.2
592.53,1055.7
588.61,1040.6
590.2,1044.9
574.34,1003.9
595.49,1026.3
556.9,1003.4
567.55,971.84
568.83,960.39
575.99,1019.6
571.43,1019.3
565.31,999.11
587.07,1055.6
595.78,1112.5
578.13,1073.6
576.81,1069.6
584.47,1017.1
591.37,1065.3
560.05,990.16
584.92,1030.4
579.75,1049.1
589.46,1113.1
583.91,1008.9
579.4,1038.8
582.08,996.88
566.54,993.55
577.93,1047.7
591.54,1037.7
578.79,1036.7
540.7,986.89
570.87,1006.1
567.89,1050.8
593.7,1025.6
585.2,1055.4
561.72,1001.6
591.54,1069.9
581.51,1034
584.38,1047.4
567.96,959.49
577.52,1005.2
576.1,1011.2
571.62,1026.2
597.78,1041.4
582.53,1055.4
587.15,1085
557.35,1002.4
582.28,1078.3
578.83,1031.1
585.16,1034.3
576.28,1000.9
576.04,1024.2
557.46,1025.6
583.51,1031.6
588.66,1022.8
581.47,1062.5
577.73,1061.1
580.04,1020.7
593.77,1066.3
583.17,1050.7
567.94,999.82
579.92,1009
578.65,1039.9
579.51,1057.2
558.51,1014.3
585.02,1067.7
567.9,1010.4
571.5,1064.6
565.05,1001.1
584.51,1029.1
587.95,1047.1
582.73,1035.4
580.93,1019.7
572.49,1045.3
584.38,1042.1
565.2,1005.7
574.18,1017.1
583.8,1024.4
579.45,1081.7
557.04,1018.7
583.94,1047.5
564.59,1050.6
557.4,977.57
562.81,1001.5
587.64,1085.1
595.28,1032.5
582.11,1016.5
580.55,1047.5
570.38,984.48
560.62,996.73
593.09,1069.5
583.81,1040.2
586.13,1019.8
579.08,1063.1
578.5,1083.8
594.08,1075.2
563.83,999.37
561.04,995.37
578.5,1000.1
570.12,1023.1
559.91,980.34
584.11,1046.7
592.51,1059.2
575.27,1028.6
589.76,1062.6
585.48,1089.5
574.08,982
587.68,1105.7
562.21,1026.4
549.75,978.54
577.62,1026.8
581.35,1055.9
582.92,1014
567.69,1062.1
598.12,1044.8
579.83,995.24
560.52,995.3
590.2,1087.9
569.46,1030.8
560.03,985.89
570.51,1053.3
575.34,1039.4
578.21,1000.8
578.18,1007.8
565.21,1023.7
588.8,1052.8
593.26,1060.1
566.07,1013.3
589.15,1090.7
563.81,1013.9
589.37,1045.8
598.06,1081.3
578.43,1048.6
572.33,1007.7
584.07,1068.7
579.12,1049.2
578.56,1026.4
593.06,1038.7
590.87,1075.8
576.87,1042.2
586.39,1030.2
573.84,991.02
569.05,1016.9
580.83,1071.9
577.28,1074.7
567.95,986.64
590.18,1080.2
584.57,1034.3
580.66,1027.9
580.44,1040.8
575.53,979.42
559.18,1033.4
585.9,1062.7
566.77,1002.1
582.07,1000.8
576.6,1056.8
564.78,1038.5
572.28,1029.4
567.09,1023.4
571.56,1012.6
578.4,1047.4
556.57,1044.5
580.48,1073.2
563.78,1014.9
581.91,986.97
578.08,1027.7
562.93,1035.6
573.73,1011.5
577.45,1072.8
585.37,1039.9
574.28,1025.8
569.68,1026.8
586.89,1013.7
592.3,1086.4
565.29,1056.9
588.34,1034.6
591.64,1086.7
570.89,997.89
577.16,1004.7
563.46,1011.9
569.45,1044.4
560.54,1027.6
579.73,1069.5
585.88,1036.9
589.74,1051.7
565.49,1048.7
583.12,1039.7
575.72,1023.6
569.05,1025.7
579.8,1068
569.81,1027.1
589.36,1052.3
572.82,1032.4
569.47,1035.8
581.72,1030.8
571.59,1030.8
571.92,1017.7
577.85,1080
587.12,1056
593.37,1057.5
571.08,996
568.97,1012.4
576.95,1043.8
568.01,1031.5
582.39,1010.3
571.77,1034.9
591.77,1049.6
570.66,1022.6
565.34,950.48
579.59,1031.2
559.85,1025.6
577.51,1040.3
587.57,1061.5
580.34,1029.1
550.56,996.81
559.26,1008.3
569.94,1054.4
567.79,1010.8
573.13,990.99
570.81,1028.7
577.8,1020.8
578.19,1034.8
593.55,1030.4
546.44,1013.8
560.99,1007.4
572.91,1021.1
571.33,1032
577.8,1042.4
575.66,1039.3
590.77,1032.6
564.28,1021.9
580.9,1060.2
580.17,1011.5
572.74,1012
564.81,1001.2
584.75,1042
584.5,1003.2
587.45,1030.3
583.31,1041.8
561.28,991.42
570.67,1030.8
580.32,1063.3
570.36,1044.2
576.93,1010.1
583.85,1027.7
591.26,1043.1
570.44,1042
566.53,984.34
580.66,1074.3
585.46,1033.1
582.21,1065.8
580.32,1023.2
575.64,997.8
577.81,1049.8
564.56,998
573.72,1051.8
573.59,1019
570.61,988.72
573.01,1028.5
566.07,1002.2
574.22,1001.8
571.85,1070.8
597.44,1058.1
584.25,1049.4
581.69,1061.1
575.82,1045.1
576.76,1025.1
575.86,1022
573.69,1025.3
570.3,1025.7
592.7,1037.7
566.65,988.93
570.97,996.28
583.55,1011.6
590.4,1063
560.32,1015
562.32,1013.9
590.68,1077.7
567.61,1029
582.56,1042.5
573.78,1016.1
584.62,1076.4
574.47,1003.1
566.98,1038.8
591.96,1034.5
566.3,1014.6
566.69,992.97
592.06,1062.3
585.45,1035.1
575.49,1041.6
578,1045.5
579.39,1023
588.61,1040.6
576.43,1039
576.11,1034
567.28,1061.2
597.31,1040
569.03,1055.9
578.35,1056
580.56,1068.8
572.72,1018.6
589.89,1047.7
559.86,1003.5
584.22,1058.8
559.03,972.11
563.73,1029.7
567.82,1009
569.78,1031.8
575.68,1043
589.36,1055.4
583.67,1032.4
578.44,1068.1
578.59,1044.2
585.54,1030.8
563.46,1043.1
583.5,1074.7
574.28,1008
573.09,1012.8
576.13,1083.1
577.74,1053.7
581.06,1026.7
584.38,1020.8
563.61,1000.7
597.79,1038.4
572.52,1034
579.07,1008.3
583.17,1050.7
602.93,1116.5
585.76,1042.4
572.82,1032.4
555.76,1029.1
563.62,1027.4
562.77,1046.4
586.56,1044
571.18,1003
575.28,1062.7
565.01,996.61
596.52,1045
580.09,1053.6
581.95,1066.3
567.02,1055
558.17,995.24
579.84,1016.2
583.44,1018.5
583.22,1080.5
558.61,1041.3
582.28,1041.4
571.51,1023.2
569.58,1019.9
568.08,1013.5
577.01,1041.8
570.38,1001.6
565.53,1005.6
586.5,1057.9
553.24,990.55
559.78,1052.4
581.71,1054
580.46,1061.1
579.64,1017.3
590.59,1004.9
562.57,1023.4
584.32,1020.5
579.22,1018.3
570.33,1014.5
576.35,1042.7
573.97,1027.4
567.5,983.7
578.47,1037.6
581.78,1074.2
590.35,1030.2
586.86,1078.9
586.53,1071.1
583.54,1053.2
577.57,1065.8
587.38,1011.8
581.88,1022.4
566.55,994.19
582.54,1036.3
570.32,1030.1
563.82,1003.3
591.37,1026.6
575.21,1020.7
579.96,1051.4
593.38,1082.2
576.09,1056.1
580.14,1061.3
571.38,986.21
596.85,1071.7
569.52,1024.3
591.15,1113.9
569.5,1033.3
598.32,1046.3
582.57,1013.5
564.98,1034.6
567.92,991.84
592.02,1036.1
580.42,1060.5
562.84,1030.7
569.46,1026.6
557.04,1010
564.9,1043.1
575.46,1030.9
588.85,1058.9
574.07,1025.3
591.54,1037.7
579.62,1044.9
604.02,1091.2
569.44,1035.3
569.49,1068.8
566.96,1038.2
579.22,1029.8
561.44,992.58
586.64,1039.3
565.33,1010.8
583.84,1061.3
561.89,1019.9
590.06,1053.5
584.85,1064.6
582.92,1053.7
566.64,1024.7
591.13,1078.4
588.76,1026.5
581.31,1023
589.07,1052.4
572.46,1034.8
572.61,979.9
588.34,1031.7
576.17,1011.3
588.21,1037.3
580.42,1040.5
577.43,1025
576.84,1023.8
589.06,1084.1
558.66,1026.5
556.1,1036.4
567.38,1020.8
573.93,1045.9
562.66,1013.2
575.13,1050
589.74,1051.7
573.39,1055.9
579.74,1057.8
597.35,1042.2
584.09,1010.1
584.61,1042.4
591.14,1029
578.8,1026.5
583.54,1030.8
577.98,1048
564.13,1017.4
579.34,1017.7
573.33,1056.8
592.5,1116.6
571.57,1012.2
574.66,996
584.99,1005.7
571.77,1047.3
573.24,986.55
559.44,1011.6
571.44,982.04
576.27,1050.6
575.15,1000.9
549.38,973.41
563.41,1038.1
555.44,983.64
572.41,1027
571.51,1034.4
573.1,1004.5
573.43,1013.4
578.5,1030.8
575.14,1045.6
571.5,1043.5
566.16,994.36
577.07,1068.1
573.23,1010.6
556.16,984.31
568.89,1027.7
565.73,971.1
563.09,980.5
566.44,1017.1
582.18,1055.2
594.73,1090.3
584.5,1015.5
586.01,1028.9
592.36,1077.5
568.87,1045.7
575.59,1014.7
573.45,1028.7
569.17,1001.6
571.41,1064
572.72,1018.6
595.4,1090.1
579.27,1057.3
593.85,1019.7
592.18,1055.8
575.37,1035.7
575.27,1015.4
571.47,1059.4
577.52,1013.3
564.2,1032.9
564.28,1021.9
568.98,1057.4
574.02,1041.1
579.09,994.5
569.7,1040.9
570.01,1014
568.56,996.97
569.87,1040.1
596.41,1026.6
576.97,1042
594.02,1072.2
579.28,1020.7
568.89,967.29
565.22,1030.5
559.45,1003.7
583.02,1012
582.46,1044.2
567.45,1014.2
583.92,1048.9
585.04,1029.8
567.56,1059.4
580.88,1002.1
590.57,1053.5
574.54,1055.6
582.89,1059.1
561.48,1012.7
571.52,1005.6
577,1021.1
579.03,1009.4
585.94,1075.5
582.16,1051.2
583.98,1014.9
567.29,1005.7
575.94,1026.3
576.51,1038.5
581.16,1004.7
577.46,1025.1
580.56,996.88
574.98,1058.6
569.45,1049.3
597.42,1076.4
557.89,998.38
585.67,1034.5
566.6,1008.1
576.11,1012.2
570.85,1065.3
563.56,994.87
574.8,1034.3
573.55,1004.8
560.82,953.63
601.05,1103.2
572.42,1000.2
580.04,1006.5
577.79,1036.6
583.54,1039.5
585.05,1007.9
584.56,1065.1
580.07,1031
561.66,1037.6
558.83,984.21
583.02,1054.7
580.63,1001.3
591.61,1045.9
573.28,1026.5
553.49,1025.3
580.6,1088.4
589.88,1079
586.45,1103.5
579.7,1050.7
556.88,1000
581.78,1047.7
581.55,1054.4
574.93,1023.1
560.61,1030.9
583.49,1070.8
588.4,1032
583.82,1080.9
589.56,1073.9
579.56,1055.6
593.36,1037.6
563.47,986.38
583.68,1035.3
589.35,1074.6
568.35,1015.5
586.21,1088.1
578.39,1055.5
575.96,1058.1
586.03,1041.3
579.8,999.81
603.76,1055.2
576.02,1040
576.7,1006.2
591.61,1022.8
569.68,1012.2
574.25,1023.6
575.83,1033
579.14,1042.9
566.34,988.36
588.47,1053.6
590.55,1062.1
558.59,993.91
591.01,1038
583.04,1004.6
592.54,1066.1
573.75,1015
554.32,997.51
571.74,1024.5
567.23,1007.8
578.07,1021.6
568.76,1025.4
582.01,1057.2
575.13,1002.7
562.36,994.4
568.62,1034.8
564.18,1004.5
562.7,984.11
585.98,1051.3
564.69,992.67
580.07,1058.3
577.62,1063.2
571.3,1085.4
579.25,1024.2
571.84,1006.1
576.34,1054.2
580.06,1030.1
573.66,1040.7
580.09,1049.6
558.54,952.96
577.29,1027.1
584.2,1035.6
579.08,1056.8
566.69,1017.1
585.39,1075.8
568.27,1013.5
570.18,1032.2
579.78,1053.4
575.25,992.07
578.16,1032
589.67,1066.5
580.02,1039.8
579.6,1037.4
579.06,1034.4
583.84,1061.3
594,1040.5
589.34,1044.8
577.44,1036.1
560.06,1018.1
592.48,1036.1
582.24,1037.2
573.99,1044.2
584.99,1039.7
582.72,1065.5
573.35,1008.6
570.74,1028.6
568.45,1002.6
573.34,1016.5
566.89,1015.7
575.12,1048.6
580.47,1045.2
569.18,1012.7
575.65,1028
580.96,1048.4
561.02,1022.5
576.94,1047.8
571.36,1029.7
572.09,1026.4
580.21,1027.7
586.74,1042.2
571.02,1015.7
562.72,973.97
585.33,1035.4
574.17,985.99
581.9,1073.8
575.37,1003.1
559.48,1034
580.4,1031.5
568.44,978.67
589.09,1049.8
578.19,1060.3
557.29,998.71
569.04,1001.5
565.79,1023.6
582.07,1047.9
576.5,1025.4
574.45,1001.9
591.2,1046.7
580.03,1026.4
588.63,1027.9
572.3,1040.9
582.83,1022.6
581.74,1033.9
571.5,981.6
587.08,1005.9
578.21,1000.8
581.4,1035.3
570.07,1037
575.92,1030.7
570.14,996.71
575.26,999.87
587.92,1033.6
548.71,950.55
589.56,1057.9
552.59,952.48
581.59,1024.4
595.31,1034.1
599.05,1100.7
583.65,1081.9
584.7,1052.8
568.62,1032.1
575.92,1037
560.12,998.44
590.36,1043.7
589.5,1042.8
568.87,1028.2
589.17,1120.4
572.55,1077.6
585.31,1028.7
580.87,1048.9
574.13,1013.9
580.47,1087.2
575.57,1057.5
560.81,988.95
585.91,1066
580.32,1057.2
574.09,1017.6
585.81,1061.4
577.81,1041.1
589.5,1042.8
574.92,1000.7
573.59,1042.7
595.74,1064.6
570.71,1047.1
571.65,1034.8
583.67,1032.4
571.23,1054.6
553.23,983.23
584.99,1034.4
572.65,1029.6
568.71,1034.1
573.36,1020.5
575.79,1028.3
572.97,1030.2
588.41,1043.1
577.46,1031.3
567.44,1002.8
575.37,1003.9
581.18,997.47
548.21,1012.5
586.52,1024.4
583.2,1051.9
567.08,1002.6
563.25,1009.9
582.28,1061.9
569.23,1021.7
578.4,1034.5
575.65,1071.6
580.9,1052.7
583.06,1008.9
576.35,1061.3
575,1012.9
570.88,1022.1
579.78,1053.4
577.62,1051.8
563.61,1005.4
573.35,1035.5
574.89,1008.3
559.44,1009
572.49,1037.6
567.68,1064.3
570.21,1016.1
569.05,1016.8
584.53,1030.7
550.13,998.32
578.27,1044.3
567.64,996.75
565.1,1019.9
568.59,994.38
584.03,1042.3
556.5,978.23
591.62,1037
555.3,986.95
571.95,976.69
572.58,1020.6
574.15,1005.4
585.42,1077.4
566.29,1041.1
583.55,1028.4
562.37,987.87
562.03,985.31
591.01,1051.9
584.63,1045.2
581.21,1056.5
580.99,1035.5
580.19,1064.1
565.65,1042.3
582.09,1009.9
563.2,1015.6
560.24,975.77
576.57,1027.8
576.46,1019
573.44,991.53
561.71,976.87
587.24,1092.9
578.1,1066.4
573.61,1016.1
592.44,1046.8
563.36,999.51
581.11,1037.2
566.64,1067
587.42,1007.6
583.58,1048.3
584.15,1015.8
594.41,1017.2
586.72,1030.7
597.38,1079.5
602.52,1056.5
577.48,1018.5
592.95,1009.7
587.54,1031.5
571.15,1011.6
598.47,1126.7
587.48,1027
573.57,1011.2
580.78,1061
581.89,1039.8
561.59,1042.1
577.01,1010.4
584.85,1037.9
574.54,1004.8
583.27,1017.7
595.56,1093.1
558.3,976.74
575.94,1008.7
563.28,1042.6
576.35,1081.2
571.02,1035.8
591.27,1028.6
580.76,1052.1
573.15,1089.2
578.02,1059.3
580.37,1054.4
561.36,1016.5
578.41,1017.1
567.35,1037.8
557.81,1048.3
570.85,1038.1
571.52,1000.6
570.13,1027.1
598.12,1037.3
593.18,1041.1
559.77,1000.6
562.3,1026.1
557.07,1004.7
584.13,1081.7
577.19,1027.6
560.3,1018.3
578.8,1070.7
570.76,1051.3
590.97,1029.8
574.79,1013.2
582.96,1039.6
573.1,1023.7
552.59,974.49
577.09,1029.6
577.57,1038.3
567.59,997.87
578.17,1043.5
572.81,1032.1
585.75,1037.3
558.83,996.79
577.96,1030.7
602.4,1067.1
576.89,1062.8
565.68,991.31
568.36,980.8
571.67,976.05
570.7,1019.6
594,1043.5
576.37,1068.5
545.33,1011.8
577.79,1031.8
573.57,1004.6
566.89,1042.7
582.69,1021.7
563.89,1034.8
584.75,1083
573.02,1019.4
557.07,1007.5
578.28,1043.7
586.98,1019.7
577.28,1028.6
571.83,1015
583.71,1045.9
564.91,976.06
578.99,1079.8
576.35,1033.9
578.75,1038.4
581.96,1028.9
573.99,1042.5
568.74,1016.6
565.31,1008.2
577.96,1072.7
583.52,993.83
560.81,1029.4
573.25,1040.6
565.92,1011.4
574.26,1023.7
577.11,1053.4
589.83,1031.8
570.5,989.16
568.95,992.45
575.46,1016.6
590.47,1070.9
565.47,1027.5
570.09,962.92
568.84,998.15
574.16,1029.6
575.38,1023.4
580.28,1039.8
601.03,1079.4
549.34,999.17
578.71,1047.6
549.01,1007.5
577.1,1030.4
588.34,1034.6
592.63,1043.3
575.58,1036.6
563.23,1005.3
587.38,1055.5
563.71,1034.8
575.06,1048.9
582.21,1017.2
575.88,1035.9
572.02,1017.4
559.71,984.36
601.22,1052
583.95,1048.1
568.05,1014.3
595.43,1055.1
575.59,1059.7
580.93,1056.2
566.79,990.98
584.03,1049.9
580.97,1023.3
580.96,1054.1
566.33,1039
576.66,1041.2
570.37,1062.5
560.65,1042.2
553.24,990.55
563.18,1013.1
556.14,964.4
576.81,993.23
569.02,1066.7
565.82,1000.6
579.17,1016.2
577.38,1045.2
593.53,1011
577.67,1022.4
576.6,1003.2
576.66,1038
572.56,1014.6
593.67,1069.4
586.63,1065.5
589.48,1056.7
587.57,1015.5
566.48,1034.6
587.43,1046.2
585.59,1022
574.31,1003.6
572.58,1005.2
583.65,1063.3
601.16,1068.5
582.72,1029.5
586.57,1058.1
582.96,1041.3
561.26,955.58
573.76,1007
579.93,1067.5
579.11,1052
566.42,1014.5
579.12,1052.3
584.83,1017.5
571.99,1041.5
567.1,1009.8
583.11,1033.3
587.55,1014.5
596.15,1060.8
577.18,1014.3
582.77,1017.8
579.5,1042.8
587.94,1073
581.48,1026.9
583.86,1099.3
568.08,995.32
579.03,1018
574.03,1054.2
563.76,1020.8
584.81,1032.1
564.42,992.75
575.57,1025.6
582.44,1055.2
594.97,1069.6
580.66,1031
598.4,1066.9
578.68,1035.4
563.61,1005.4
574.06,1064
571.8,1060.3
576.94,1047.8
603.95,1055.6
567.29,1045.8
584.92,1041.2
584.7,1022
573.32,1021.1
583.78,1057.4
579.29,1050.3
561.93,1019.1
571.34,1022.3
575.76,1055.6
576.87,1059.7
582.73,1035.4
574.95,1016.6
588.51,1069.9
561.99,1000.3
577.58,1011.2
577.82,1047.5
581.38,1009.6
582.12,1039.9
582.45,1041.1
563.67,1013.7
580.88,1043.5
558.35,1001.6
572.62,1024.7
600.34,1067.3
575.46,1049
577.05,1041.4
572.61,1052.3
576.03,1015.4
578.29,1016.8
588.45,1033.2
561.93,1026.9
575.93,1072.5
587.92,1065.4
589.16,1040.7
556.51,1000.2
576.01,1044.5
575.56,1067.2
567.97,1011.5
590.38,1058.5
590.68,1091.9
577.41,1038.5
582.22,1036.7
565.97,1031.4
582.4,1052.9
579.59,1084.1
578.3,1046.6
579.72,1069.2
581.08,1069.1
575.76,1039
564.67,1025.2
566.36,1024.1
575.15,1025.3
552.66,996.4
573.5,1038.6
573.08,1008.3
547.31,1015.8
596.1,1041.5
579.61,1018.2
573.65,1059.8
589.75,1038.4
584.88,1100.7
571.3,1027.5
582.58,1019.6
571,1023.5
603.22,1095.1
578.99,1072.9
587.83,1036.2
585.73,1017.6
589.08,1024.7
581.71,1020.6
558.22,1041.9
603.18,1066.6
586.92,1065.3
569.04,1001.5
564.89,1014.1
572.81,1041.5
586.39,1064
566.17,1022.9
569.83,1029.4
567.09,1029.8
589.89,1068.9
569.78,1037.5
555.27,967.34
570.44,1024
573.77,1029.3
580.49,1055.3
584.76,1023.7
574.78,1060.6
594.01,1072.8
583.95,1048.7
573.33,1037.6
572.68,1047.6
568.73,1019.2
582.77,984.36
574.63,988.81
555.34,990.63
592.29,1046.8
547.79,971.21
583.21,1036
589.14,1036.5
588.09,1078.3
582.11,1043.7
578.31,1043
588.09,1019.4
581.04,1043.6
584.13,1050
552.39,1018.1
602.43,1054.1
590.74,1086.4
584.08,1046.7
563.32,998.83
562.92,1026
571.83,1035.8
589.22,1070.8
589.83,1021.9
566.33,994.94
566.62,1049.1
570.06,1056.9
581.28,1027.5
583.59,1048.2
578.53,1043.4
583.07,1048.6
579.41,1005.5
595.17,1026.2
573.65,1002.8
582.35,1000.3
574.16,981.61
573.99,1045.7
579.13,1033.9
574.1,1066.7
583.74,1048.4
575.58,1038.2
559.3,1019.6
591.17,1092.2
591.31,1031.9
574.45,1044
551.64,1022.4
595.54,1057.7
570.33,1014.5
578.39,1017.3
576.4,1036.1
556.13,1007.3
573.9,1029.9
557.9,986.52
582.83,1026.6
584.16,1037.4
573.52,1042.5
576,973.67
566.32,1028.7
574.03,1014.1
600.95,1090.5
566.2,1026.1
559.64,1014.9
587.87,1040.1
570.32,1059.9
585.03,1024.5
578.46,1051.9
573.95,998.82
583.17,1032.8
563.6,987.68
581.79,1040.3
571.88,1063
577.81,1041.1
594.33,1065.7
579.29,1034.1
565.58,1044.3
570.76,1029.6
581.04,1051.4
573.09,999.39
579.62,1073.7
573.51,1033.4
574.03,1028.2
571.37,1061.7
579.47,1055.9
562.1,1025
576.63,1009.8
573.2,1026.1
561.64,1002.1
572.88,1031
574.26,1023.7
582.36,1042.3
598.47,1064.5
570.33,935.88
567.79,1017.4
582,1017.1
576.58,996.78
570.37,1061.3
577.31,1035.3
592.9,1081.9
581.17,1003.7
572.37,1049.9
571.66,1022.3
610.26,1093.3
577.45,1023.3
560.32,1015
571.42,973.23
584.24,1041.9
587.29,1042.6
574.82,1077
564.9,1041.1
564.24,1022.3
575.77,1009.2
590.4,1080.2
579.89,1012.7
584.46,1001.4
580.73,1047.6
587.9,1050.7
577.87,1051.3
566.53,1013.1
568.71,1041.7
585.27,1065.1
592.31,1095.2
585.29,1063.1
574.59,1031.8
588.14,1010.7
585.94,1047.8
577.41,1049.7
571.5,1029.9
575.3,1012.4
590.98,1009.7
588.86,1058.6
581.39,1051.9
582.38,1035.2
586.87,1046.7
557.33,976.5
577.58,1018.3
559.52,989.24
568.82,987.96
557.5,975.59
578.32,1081.8
574.3,995.47
577.33,1025.3
587.15,1046.9
565.64,936.47
563.07,998.91
593.32,1070.6
577.51,1052.9
577.89,1038.5
575.99,1006.9
581.86,1037.4
584.35,1024
570.14,1020.9
594.87,1048.8
573.8,1041.7
558.87,992.23
588.66,1056.8
586.07,1035.4
551.18,986.81
576.5,1010.2
544.02,1003.2
584,1060.7
563.82,1021.4
591.5,1045.6
575.8,1030.5
566.77,1004.6
591.12,1045.1
561.04,1021.8
570.34,1050.5
590.86,1044.6
572.19,1035.7
572.74,1020.9
572.5,1039.3
575.71,1012.6
576.45,1037.6
573.74,1019
578.52,1057.8
584.39,1025.7
587.53,1043.1
549.96,992.65
568.5,1038.2
569.85,981.33
566.72,1008.1
585.93,1031.8
571.02,1020.1
591.67,1092.4
576.17,996.06
566.89,1000.1
586.14,1043.1
587.35,1055.1
554.2,1000.4
584.31,1031
578.9,1044.7
572.31,1047.3
568.69,1017.4
570.34,981.93
586.07,1072
573.12,1062.3
571.83,1023.8
594.59,1051.5
595.93,1068.4
577.53,1018
572.82,1035.4
578.49,1026
581.87,1017.4
582.52,1097.4
563.25,1006.9
587.22,1054.3
590.57,1042.5
570.04,1023.4
576.74,1025.4
575.46,1016.6
573.03,999.27
581.95,1025.4
574.39,1021.6
544.71,1017.4
575.71,1030.9
564.04,1003.9
570.43,985.03
580.77,1063.8
567.99,1017.4
578.48,1049.3
561.97,1014.2
556.88,989.81
573.06,1026
568.66,1056.4
577.4,991.09
593.14,1063.6
578.08,1009.8
567.52,1027.8
568.58,990.36
576.73,1003.2
581.3,1024.1
588.4,1016.4
573.04,1010.8
581.91,1044.8
565.58,1037.8
590.24,1065
563.79,1027.8
574.23,1055
582.51,1028.1
568.29,1026
588.7,1063.4
587.95,1056.8
563.18,989.7
556.89,977.07
581.09,1053.1
574.2,1018.9
564.38,986.87
563.36,1009.5
583.15,1033.7
589.89,1023.5
580.26,1047.7
591.84,1035.9
568.11,958.93
598.85,1065.8
572.26,1037.9
572.4,1015.9
588.8,1071.7
580.77,1046.2
566.27,1050.4
595.42,1065.6
572.14,1026.7
581.38,1034.3
573.64,1031.1
567.58,1062.8
567.04,1001.9
581.35,1030.3
577.16,1004.7
570.98,1056.7
584.03,1026.4
567.12,996.09
570.23,1015
587.71,1032.3
570.01,1038.6
580.28,1020
574.16,1029.6
584.79,1073.5
586.35,1055.1
566.79,1025.4
561.4,976.27
568.11,1060.4
605.32,1069.7
578.01,1047.7
582.33,1033.2
596.08,1085.1
575.57,1035
589.48,1038.9
577.1,1010.8
560.64,1009.6
576.59,1033.6
565.45,1029.6
594.81,1054.7
576.05,1054.9
548.24,958.48
562.95,1002.1
584.21,1018
572.43,987.4
566.87,988.15
590.06,1029.4
581.95,1073.4
584.5,1020.4
579.12,1034.1
572.41,996.63
601.6,1052.4
568.18,1021.8
569.61,1024.4
576.28,1009.1
578.58,1075.3
578.3,1023.5
574.45,1013.1
593.82,1037.9
589.04,1026
570.19,1062.4
573.33,1011.4
562.18,1019.3
584.39,1062.6
586.29,1074.7
587.59,1034.4
568.63,1006.7
564.6,1038.1
590.68,1015
586.19,1069.1
594.42,1050.2
579.6,1037.4
569.29,1032.8
569.58,985.32
586.81,1060.5
585.76,1069
576.39,1034.5
584.01,1033.1
581.51,1024.2
592.59,1074.2
576.42,1049.7
589.72,1023.3
565.47,1000.4
574.42,1041.4
573.99,1000.9
560.49,998.7
572.36,1066
593.61,1076.6
575.33,1034.4
590.04,1051.9
568.3,1002.4
574.45,1026.2
562.52,1038.8
591.33,1032.9
583.79,1095.3
580.79,1029
578.75,1069.8
580.8,985.62
582.26,1032.1
571.57,1012.2
586,1063.8
574.32,1032.5
571.99,1042.3
578.99,1075.8
566.13,996.53
564.09,991.49
572.93,1046.1
601.5,1037.2
576.01,989.15
584.88,1069
548.15,1006.1
575.47,1050.5
585.55,1047.2
594.11,1069.3
546.4,1002.3
580.06,1028
575.18,1037
574.83,993.58
583.88,1039.9
578.67,1022.9
572.82,1057.7
583.79,1036.9
587.22,1069.2
579.29,1048.9
574.39,1056.4
577.65,1043
589.59,1066.8
564.81,1052.1
591.26,1050.9
572.7,1046.3
575.45,1021
574.64,1044.4
578.91,1017.8
595.26,1049.6
572.87,984.24
570.49,1010.9
572.29,1031.4
563.56,1018.3
563.25,1029.8
580.67,1073
574.21,1033
584.55,1040.9
563.94,1046.9
591.82,1066.7
588.86,1064.7
575.27,997.28
559.71,1035.7
564.35,988.16
572.73,1060
581.38,1033.2
562.36,1028
578.94,1007.2
571.09,1017.2
585.59,1061.1
596.07,1072.3
580.99,1008.7
581.86,983.72
591.59,1008.9
558.09,1009.7
575.36,1054.7
574.2,1018.9
561.91,1018.4
563.63,1057.1
582.48,1062.4
567.43,1000.8
581.3,1052.7
578.76,1028.9
572.54,996.54
585.76,1010.7
583.09,986.89
580.8,1077.7
586.93,1044.3
571.04,1009.4
584.11,1056.3
580.43,1066.3
570.52,1051
572.66,1057.4
589.53,1008.7
590.76,1080.8
581.65,1011.2
584.54,1045.7
586.06,1029.8
585.61,1058.8
585.72,1073.4
568.66,1056.4
586.01,1065.4
573.67,1047.3
585.39,1028.8
567.35,1049.8
579.66,1035.7
567.64,982.01
578.89,1058.5
589.28,1092.7
568.38,1002.8
581.75,1038.7
589.72,1051
588.71,1048.4
575.76,1037.2
592.42,1053.3
564.69,1008.3
586.68,1037.7
577.03,1038.6
576.87,1015.5
586.16,1048.3
589.04,1066.2
569.99,1022.9
581.35,1006.7
584.36,1022.8
566.51,997.01
576.09,1024.5
574.45,1001.9
560.24,1001
585.37,1004.5
556.32,967.25
575.47,1050.5
573.69,1040.5
594.45,1031.7
573.12,1001.7
582.86,1037.7
577.31,1024.2
564.93,1025.8
585.11,1040.8
564.39,997.26
589.91,1050.7
568.74,1045.6
564.41,993.42
560.66,1015.4
584.64,1038.1
561.32,1023.6
571.33,1040.9
567.16,1004.9
591.18,1025.7
567.61,1025.4
571.4,1037.7
575.8,1030.5
590.79,1021.9
581.94,1092.3
580.93,1051.7
581.27,993.62
579.13,1047.8
573.29,1035.2
582.26,1024.5
571.11,1013.6
577.1,1020.2
577.65,1055
579.09,1059.3
593.33,1050.1
576.31,1035.9
573.55,1034.7
574,1045.7
588.96,1065.2
572.13,1033.4
573.25,1072.1
573.39,1031.3
592.74,1131.1
570.46,999.34
581.67,1063.4
579.3,1082
579.76,1071.5
587.52,1077.2
592.23,1036.3
562.35,1014
571.68,1006.1
568.73,1019.2
561.79,1018.1
562.45,988.01
577.5,1021.6
579.01,987.31
573.57,1022.2
587.45,1065.6
577.9,998.63
583.41,1039.3
573.46,1033.2
570.21,1046.1
578.17,1044.6
569.37,980.26
589.72,1040.1
573.57,1002.4
561.31,970.96
583.52,1057.7
583.15,1030.3
572.96,1039.6
586.89,1028.7
582.37,1036.6
581.78,1047.7
564.87,1051.2
582.15,994.44
571.73,1010.6
571.16,1013.7
579.87,990.84
573.02,1019.4
562.54,1045.2
577.63,985.31
585.05,1053.2
584.01,1069.4
569.45,999.85
577.7,1016.4
590.11,1026.7
551.97,966.64
579.3,1036.4
563.04,1012
564.99,1036.6
584.21,1018
588.12,1072.3
566.35,1009.3
570.25,994.7
586.01,1050.4
554.01,1019.5
543,948.35
589.48,1080.1
587.22,1054.3
568.95,992.45
576.35,1064.3
584.94,1014.1
577.84,1019.1
598.85,1082
556.14,981.59
569.68,989.49
586.59,1023.1
578.35,1028
590.86,1084.8
575.94,1044.9
586.37,1014.9
570.99,1000.4
576.82,1005.5
576.74,1025.4
585,1036.6
585.07,983.31
579.15,1000.7
563.23,1018.9
576.48,1045.6
574.85,1003.6
588.2,1035.1
584.35,1050.9
566.75,989.54
576.39,1018.7
569.19,1014.8
575.74,1067.2
589.16,1043.3
563.2,1023.4
571.32,1027.4
557.7,1017.6
592.25,1069.1
560.46,1021.3
594.36,1077.6
589.89,1077.5
564.24,1067.3
566.95,985.51
573.35,1047.6
575.98,1041.5
560.86,1015.9
576.41,1100.2
582.06,1050
